<?xml version="1.0" encoding="utf-8"?>
<COLLADA version="1.4.0" xmlns="http://www.collada.org/2005/11/COLLADASchema">
	<asset>
		<contributor>
			<author>NxuStream2 converter - http://www.ageia.com</author>
			<authoring_tool>PhysX Rocket, PhysX Viewer, or CreateDynamics</authoring_tool>
			<comments>questions to: jratcliff@ageia.com</comments>
			<copyright></copyright>
			<source_data>chair_gothic_tilted</source_data>
		</contributor>
		<unit meter="1" name="meter"/>
		<up_axis>Y_UP</up_axis>
	</asset>
   <library_materials>
      <material id="Material" name="Material">
         <instance_effect url="#Material-fx"></instance_effect>
      </material>
   </library_materials>
   <library_effects>
      <effect id="Material-fx" name="Material">
         <profile_COMMON>
            <technique id="Material-fx-COMMON" sid="COMMON">
               <phong>
                  <ambient>
                     <color>0.803922 0.588235 0.92549 1</color>
                  </ambient>
                  <diffuse>
                     <color>0.803922 0.588235 0.92549 1</color>
                  </diffuse>
                  <specular>
                     <color>0.631373 0.631373 0.631373 1</color>
                  </specular>
                  <shininess>
                     <float>1</float>
                  </shininess>
                  <reflective>
                     <color>0 0 0 1</color>
                  </reflective>
                  <transparent>
                     <color>1 1 1 1</color>
                  </transparent>
                  <transparency>
                     <float>0</float>
                  </transparency>
               </phong>
           </technique>
         </profile_COMMON>
      </effect>
   </library_effects>
  <library_geometries>
    <geometry id="/tmp/buildd/ros-hydro-pr2-description-1.11.4-0precise-20150329-0527/meshes/head_v0/convex/head_pan_L_0-Mesh" name="/tmp/buildd/ros-hydro-pr2-description-1.11.4-0precise-20150329-0527/meshes/head_v0/convex/head_pan_L_0-Mesh">
      <convex_mesh>
        <source id="/tmp/buildd/ros-hydro-pr2-description-1.11.4-0precise-20150329-0527/meshes/head_v0/convex/head_pan_L_0-Position">
          <float_array count="36" id="/tmp/buildd/ros-hydro-pr2-description-1.11.4-0precise-20150329-0527/meshes/head_v0/convex/head_pan_L_0-Position-array">
            0.016693993 -0.079566002 0.058348682  0.016693993 0.000757 0.059684403  0.133247152 0.000757 0.00760938  0.13219595 -0.079566002 0.00760938  
            0.068362787 -0.079566002 0.076515794  0.124146372 -0.079566002 0.035926439  0.11375457 0.000757 0.04672851  0.067197427 0.000757 0.078884654  
            0.067280002 -0.011807 0.079373002  0.100646034 -0.079566002 0.058772344  0.124343358 0.000757 0.035383381  0.051586926 -0.079566002 0.074144885  
          </float_array>
          <technique_common>
            <accessor count="12" source="#/tmp/buildd/ros-hydro-pr2-description-1.11.4-0precise-20150329-0527/meshes/head_v0/convex/head_pan_L_0-Position-array" stride="3">
              <param name="X" type="float"/>
              <param name="Y" type="float"/>
              <param name="Z" type="float"/>
            </accessor>
    		   </technique_common>
				 </source>
   		 <vertices id="/tmp/buildd/ros-hydro-pr2-description-1.11.4-0precise-20150329-0527/meshes/head_v0/convex/head_pan_L_0-Vertex">
					<input semantic="POSITION" source="#/tmp/buildd/ros-hydro-pr2-description-1.11.4-0precise-20150329-0527/meshes/head_v0/convex/head_pan_L_0-Position"/>
				</vertices>
				<triangles material="Material" count="20">
					<input offset="0" semantic="VERTEX" source="#/tmp/buildd/ros-hydro-pr2-description-1.11.4-0precise-20150329-0527/meshes/head_v0/convex/head_pan_L_0-Vertex"/>
           <p>
             0 1 2  0 2 3  0 3 4  5 3 2  
             5 4 3  6 2 1  7 1 8  7 8 6  
             7 6 1  9 4 5  9 5 6  9 8 4  
             9 6 8  10 5 2  10 2 6  10 6 5  
             11 8 1  11 1 0  11 4 8  11 0 4  
           </p>
				</triangles>
      </convex_mesh>
		</geometry>
    <geometry id="/tmp/buildd/ros-hydro-pr2-description-1.11.4-0precise-20150329-0527/meshes/head_v0/convex/head_pan_L_1-Mesh" name="/tmp/buildd/ros-hydro-pr2-description-1.11.4-0precise-20150329-0527/meshes/head_v0/convex/head_pan_L_1-Mesh">
      <convex_mesh>
        <source id="/tmp/buildd/ros-hydro-pr2-description-1.11.4-0precise-20150329-0527/meshes/head_v0/convex/head_pan_L_1-Position">
          <float_array count="36" id="/tmp/buildd/ros-hydro-pr2-description-1.11.4-0precise-20150329-0527/meshes/head_v0/convex/head_pan_L_1-Position-array">
            0.016693993 0.000757 -0.064098239  0.133247152 0.000757 0.00760938  0.108651072 0.000757 -0.050865311  0.13219595 -0.079566002 0.00760938  
            0.016693993 -0.079566002 -0.064143986  0.118736766 -0.079566002 -0.044006296  0.080098324 -0.079566002 -0.062990099  0.07706961 0.000757 -0.063436605  
            0.121214852 0.000757 -0.041169766  0.134903893 -0.079566002 -0.003918323  0.134294763 0.000757 -0.005782065  0.096167505 -0.079566002 -0.058359846  
          </float_array>
          <technique_common>
            <accessor count="12" source="#/tmp/buildd/ros-hydro-pr2-description-1.11.4-0precise-20150329-0527/meshes/head_v0/convex/head_pan_L_1-Position-array" stride="3">
              <param name="X" type="float"/>
              <param name="Y" type="float"/>
              <param name="Z" type="float"/>
            </accessor>
    		   </technique_common>
				 </source>
   		 <vertices id="/tmp/buildd/ros-hydro-pr2-description-1.11.4-0precise-20150329-0527/meshes/head_v0/convex/head_pan_L_1-Vertex">
					<input semantic="POSITION" source="#/tmp/buildd/ros-hydro-pr2-description-1.11.4-0precise-20150329-0527/meshes/head_v0/convex/head_pan_L_1-Position"/>
				</vertices>
				<triangles material="Material" count="20">
					<input offset="0" semantic="VERTEX" source="#/tmp/buildd/ros-hydro-pr2-description-1.11.4-0precise-20150329-0527/meshes/head_v0/convex/head_pan_L_1-Vertex"/>
           <p>
             0 1 2  3 1 0  3 0 4  3 4 5  
             6 5 4  7 0 2  7 4 0  7 6 4  
             8 2 1  8 5 2  9 3 5  9 5 8  
             9 1 3  10 8 1  10 1 9  10 9 8  
             11 6 7  11 7 2  11 2 5  11 5 6  
           </p>
				</triangles>
      </convex_mesh>
		</geometry>
    <geometry id="/tmp/buildd/ros-hydro-pr2-description-1.11.4-0precise-20150329-0527/meshes/head_v0/convex/head_pan_L_2-Mesh" name="/tmp/buildd/ros-hydro-pr2-description-1.11.4-0precise-20150329-0527/meshes/head_v0/convex/head_pan_L_2-Mesh">
      <convex_mesh>
        <source id="/tmp/buildd/ros-hydro-pr2-description-1.11.4-0precise-20150329-0527/meshes/head_v0/convex/head_pan_L_2-Position">
          <float_array count="36" id="/tmp/buildd/ros-hydro-pr2-description-1.11.4-0precise-20150329-0527/meshes/head_v0/convex/head_pan_L_2-Position-array">
            0.016693993 -0.157116473 0.056136001  0.092587002 -0.157793 0.071212001  0.068362787 -0.079566002 0.076515794  0.016693993 -0.079566002 -0.064143986  
            0.121242002 -0.098277003 -0.055481002  0.016693993 -0.142685488 -0.064977333  0.120857999 -0.157633007 -0.054191999  0.016693993 -0.079566002 0.058348682  
            0.142879993 -0.157060996 -0.005169  0.144703001 -0.098105997 0.000254  0.117927998 -0.098082997 0.056933999  0.118736766 -0.079566002 -0.044006296  
          </float_array>
          <technique_common>
            <accessor count="12" source="#/tmp/buildd/ros-hydro-pr2-description-1.11.4-0precise-20150329-0527/meshes/head_v0/convex/head_pan_L_2-Position-array" stride="3">
              <param name="X" type="float"/>
              <param name="Y" type="float"/>
              <param name="Z" type="float"/>
            </accessor>
    		   </technique_common>
				 </source>
   		 <vertices id="/tmp/buildd/ros-hydro-pr2-description-1.11.4-0precise-20150329-0527/meshes/head_v0/convex/head_pan_L_2-Vertex">
					<input semantic="POSITION" source="#/tmp/buildd/ros-hydro-pr2-description-1.11.4-0precise-20150329-0527/meshes/head_v0/convex/head_pan_L_2-Position"/>
				</vertices>
				<triangles material="Material" count="20">
					<input offset="0" semantic="VERTEX" source="#/tmp/buildd/ros-hydro-pr2-description-1.11.4-0precise-20150329-0527/meshes/head_v0/convex/head_pan_L_2-Vertex"/>
           <p>
             0 1 2  3 4 5  3 5 0  6 5 4  
             6 0 5  6 1 0  7 0 2  7 2 3  
             7 3 0  8 6 4  8 4 9  8 1 6  
             10 1 8  10 8 9  10 2 1  10 9 2  
             11 3 2  11 2 9  11 4 3  11 9 4  
           </p>
				</triangles>
      </convex_mesh>
		</geometry>
    <geometry id="/tmp/buildd/ros-hydro-pr2-description-1.11.4-0precise-20150329-0527/meshes/head_v0/convex/head_pan_L_3-Mesh" name="/tmp/buildd/ros-hydro-pr2-description-1.11.4-0precise-20150329-0527/meshes/head_v0/convex/head_pan_L_3-Mesh">
      <convex_mesh>
        <source id="/tmp/buildd/ros-hydro-pr2-description-1.11.4-0precise-20150329-0527/meshes/head_v0/convex/head_pan_L_3-Position">
          <float_array count="36" id="/tmp/buildd/ros-hydro-pr2-description-1.11.4-0precise-20150329-0527/meshes/head_v0/convex/head_pan_L_3-Position-array">
            0.067197427 0.000757 0.078884654  0.0148645 0.000757 -0.064099453  0.129572958 0.000757 -0.020767786  0.0148645 0.156820729 -0.062932976  
            0.0148645 0.156716764 0.055162314  0.125622004 0.158070996 0.047538001  0.132191002 0.157435 -0.038525  0.141295001 0.097848997 -0.021406  
            0.0148645 0.000757 0.058760449  0.124343358 0.000757 0.035383381  0.092651002 0.000757 -0.059711002  0.082046002 0.157443002 0.074051999  
          </float_array>
          <technique_common>
            <accessor count="12" source="#/tmp/buildd/ros-hydro-pr2-description-1.11.4-0precise-20150329-0527/meshes/head_v0/convex/head_pan_L_3-Position-array" stride="3">
              <param name="X" type="float"/>
              <param name="Y" type="float"/>
              <param name="Z" type="float"/>
            </accessor>
    		   </technique_common>
				 </source>
   		 <vertices id="/tmp/buildd/ros-hydro-pr2-description-1.11.4-0precise-20150329-0527/meshes/head_v0/convex/head_pan_L_3-Vertex">
					<input semantic="POSITION" source="#/tmp/buildd/ros-hydro-pr2-description-1.11.4-0precise-20150329-0527/meshes/head_v0/convex/head_pan_L_3-Position"/>
				</vertices>
				<triangles material="Material" count="20">
					<input offset="0" semantic="VERTEX" source="#/tmp/buildd/ros-hydro-pr2-description-1.11.4-0precise-20150329-0527/meshes/head_v0/convex/head_pan_L_3-Vertex"/>
           <p>
             0 1 2  3 1 4  5 3 4  6 3 5  
             6 5 7  8 1 0  8 0 4  8 4 1  
             9 2 7  9 7 5  9 0 2  9 5 0  
             10 7 2  10 6 7  10 2 1  10 1 3  
             10 3 6  11 4 0  11 0 5  11 5 4  
           </p>
				</triangles>
      </convex_mesh>
		</geometry>
    <geometry id="/tmp/buildd/ros-hydro-pr2-description-1.11.4-0precise-20150329-0527/meshes/head_v0/convex/head_pan_L_4-Mesh" name="/tmp/buildd/ros-hydro-pr2-description-1.11.4-0precise-20150329-0527/meshes/head_v0/convex/head_pan_L_4-Mesh">
      <convex_mesh>
        <source id="/tmp/buildd/ros-hydro-pr2-description-1.11.4-0precise-20150329-0527/meshes/head_v0/convex/head_pan_L_4-Position">
          <float_array count="36" id="/tmp/buildd/ros-hydro-pr2-description-1.11.4-0precise-20150329-0527/meshes/head_v0/convex/head_pan_L_4-Position-array">
            -0.102537997 -0.009343 -0.018735001  0.016693993 -0.157116473 0.056136001  0.0148645 0.140518874 0.057227112  -0.077610999 0.157528996 -0.003489  
            0.016693993 -0.156142101 -0.063970104  -0.063294001 -0.129068002 -0.065861002  0.0148645 0.156820729 -0.062932976  -0.076747999 -0.158625007 -0.007311  
            -0.078428999 0.157569006 -0.058247  -0.112988003 0.006459 -0.063957997  -0.068389997 -0.156280994 -0.063372001  0.0148645 0.156716764 0.055162314  
          </float_array>
          <technique_common>
            <accessor count="12" source="#/tmp/buildd/ros-hydro-pr2-description-1.11.4-0precise-20150329-0527/meshes/head_v0/convex/head_pan_L_4-Position-array" stride="3">
              <param name="X" type="float"/>
              <param name="Y" type="float"/>
              <param name="Z" type="float"/>
            </accessor>
    		   </technique_common>
				 </source>
   		 <vertices id="/tmp/buildd/ros-hydro-pr2-description-1.11.4-0precise-20150329-0527/meshes/head_v0/convex/head_pan_L_4-Vertex">
					<input semantic="POSITION" source="#/tmp/buildd/ros-hydro-pr2-description-1.11.4-0precise-20150329-0527/meshes/head_v0/convex/head_pan_L_4-Position"/>
				</vertices>
				<triangles material="Material" count="20">
					<input offset="0" semantic="VERTEX" source="#/tmp/buildd/ros-hydro-pr2-description-1.11.4-0precise-20150329-0527/meshes/head_v0/convex/head_pan_L_4-Vertex"/>
           <p>
             0 1 2  3 0 2  4 5 6  7 4 1  
             7 1 0  8 3 6  9 6 5  9 8 6  
             9 0 3  9 3 8  9 7 0  10 7 9  
             10 9 5  10 5 4  10 4 7  11 1 4  
             11 4 6  11 6 3  11 3 2  11 2 1  
           </p>
				</triangles>
      </convex_mesh>
		</geometry>
  </library_geometries>
  <library_visual_scenes>
	  <visual_scene id="Scene0-Visual" name="Scene0-Visual">
      <node id="/tmp/buildd/ros-hydro-pr2-description-1.11.4-0precise-20150329-0527/meshes/head_v0/convex/head_pan_L-Node" name="/tmp/buildd/ros-hydro-pr2-description-1.11.4-0precise-20150329-0527/meshes/head_v0/convex/head_pan_L" type="NODE">
        <translate>0 0 0</translate>
        <rotate>1 0 0  0</rotate>
      </node>
  	  </visual_scene>
  </library_visual_scenes>
  <library_physics_materials>
    <physics_material id="pmat0_0-PhysicsMaterial" name="pmat0_0-PhysicsMaterial">
      <technique_common>
        <dynamic_friction>0.5</dynamic_friction>
        <restitution>0</restitution>
        <static_friction>0.5</static_friction>
      </technique_common>
    </physics_material>
  </library_physics_materials>
  <library_physics_models>
    <physics_model id="Scene0-PhysicsModel">
      <rigid_body sid="/tmp/buildd/ros-hydro-pr2-description-1.11.4-0precise-20150329-0527/meshes/head_v0/convex/head_pan_L-RigidBody" name="/tmp/buildd/ros-hydro-pr2-description-1.11.4-0precise-20150329-0527/meshes/head_v0/convex/head_pan_L">
        <technique_common>
          <instance_physics_material url="#pmat0_0-PhysicsMaterial"/>
         <shape>
            <translate>0 0 0</translate>
            <rotate>1 0 0  0</rotate>
            <instance_physics_material url="#pmat0_0-PhysicsMaterial"/>
            <density>1</density>
            <extra>
              <technique profile="PhysX">
               <skinWidth>0</skinWidth>
              </technique>
            </extra>
            <instance_geometry url="/tmp/buildd/ros-hydro-pr2-description-1.11.4-0precise-20150329-0527/meshes/head_v0/convex/head_pan_L_0-Mesh"/>
         </shape>
         <shape>
            <translate>0 0 0</translate>
            <rotate>1 0 0  0</rotate>
            <instance_physics_material url="#pmat0_0-PhysicsMaterial"/>
            <density>1</density>
            <extra>
              <technique profile="PhysX">
               <skinWidth>0</skinWidth>
              </technique>
            </extra>
            <instance_geometry url="/tmp/buildd/ros-hydro-pr2-description-1.11.4-0precise-20150329-0527/meshes/head_v0/convex/head_pan_L_1-Mesh"/>
         </shape>
         <shape>
            <translate>0 0 0</translate>
            <rotate>1 0 0  0</rotate>
            <instance_physics_material url="#pmat0_0-PhysicsMaterial"/>
            <density>1</density>
            <extra>
              <technique profile="PhysX">
               <skinWidth>0</skinWidth>
              </technique>
            </extra>
            <instance_geometry url="/tmp/buildd/ros-hydro-pr2-description-1.11.4-0precise-20150329-0527/meshes/head_v0/convex/head_pan_L_2-Mesh"/>
         </shape>
         <shape>
            <translate>0 0 0</translate>
            <rotate>1 0 0  0</rotate>
            <instance_physics_material url="#pmat0_0-PhysicsMaterial"/>
            <density>1</density>
            <extra>
              <technique profile="PhysX">
               <skinWidth>0</skinWidth>
              </technique>
            </extra>
            <instance_geometry url="/tmp/buildd/ros-hydro-pr2-description-1.11.4-0precise-20150329-0527/meshes/head_v0/convex/head_pan_L_3-Mesh"/>
         </shape>
         <shape>
            <translate>0 0 0</translate>
            <rotate>1 0 0  0</rotate>
            <instance_physics_material url="#pmat0_0-PhysicsMaterial"/>
            <density>1</density>
            <extra>
              <technique profile="PhysX">
               <skinWidth>0</skinWidth>
              </technique>
            </extra>
            <instance_geometry url="/tmp/buildd/ros-hydro-pr2-description-1.11.4-0precise-20150329-0527/meshes/head_v0/convex/head_pan_L_4-Mesh"/>
         </shape>
        <dynamic>true</dynamic>
        <mass>1</mass>
		   	</technique_common>
        <extra>
          <technique profile="PhysX">
            <extra>
              <technique profile="PhysX">
                <linearDamping>0</linearDamping>
                <angularDamping>0</angularDamping>
                <solverIterationCount>32</solverIterationCount>
              </technique>
            </extra>
            <disable_collision>false</disable_collision>
          </technique>
        </extra>
  	  </rigid_body>
    </physics_model>
  </library_physics_models>
  <library_physics_scenes>
    <physics_scene id="Scene0-Physics">
      <instance_physics_model url="#Scene0-PhysicsModel">
        <instance_rigid_body target="#/tmp/buildd/ros-hydro-pr2-description-1.11.4-0precise-20150329-0527/meshes/head_v0/convex/head_pan_L-Node" body="/tmp/buildd/ros-hydro-pr2-description-1.11.4-0precise-20150329-0527/meshes/head_v0/convex/head_pan_L-RigidBody"/>
      <extra>
        <technique profile="PhysX">
        </technique>
      </extra>
      </instance_physics_model>
      <technique_common>
        <gravity>0 -9.800000191 0</gravity>
      </technique_common>
    </physics_scene>
  </library_physics_scenes>
  <scene>
    <instance_visual_scene url="#Scene0-Visual"/>
    <instance_physics_scene url="#Scene0-Physics"/>
  </scene>
</COLLADA>
