# /tmp/buildd/ros-hydro-pr2-description-1.11.4-0precise-20150329-0527/meshes/head_v0/convex/head_pan_L.obj created by IVCON.
# Original data in /tmp/buildd/ros-hydro-pr2-description-1.11.4-0precise-20150329-0527/meshes/head_v0//head_pan_L.stl.

g IVCON

v 0.120858 -0.157633 -0.054192
v 0.115048 -0.159889 -0.031507
v 0.098462 -0.156606 -0.064074
v 0.053753 -0.157973 0.072489
v 0.092587 -0.157793 0.071212
v 0.142880 -0.157061 -0.005169
v 0.132102 -0.156514 0.038086
v -0.076748 -0.158625 -0.007311
v -0.067301 -0.119910 0.008024
v -0.079620 -0.110525 -0.011041
v -0.006820 -0.156573 0.045760
v -0.081164 -0.157712 -0.050687
v -0.009986 -0.107757 0.044092
v -0.019114 -0.156487 -0.063490
v -0.068390 -0.156281 -0.063372
v 0.008745 -0.156097 -0.063960
v -0.080784 -0.073807 -0.052873
v -0.063294 -0.129068 -0.065861
v 0.121242 -0.098277 -0.055481
v 0.102045 -0.109402 -0.064954
v 0.117928 -0.098083 0.056934
v 0.068653 -0.097727 0.075750
v 0.144703 -0.098106 0.000254
v -0.102538 -0.009343 -0.018735
v -0.056248 -0.013182 0.017306
v -0.085388 0.048223 -0.005441
v -0.074755 -0.061486 0.001548
v 0.045698 -0.104993 0.072183
v -0.064666 -0.090502 -0.064011
v 0.033853 -0.098894 -0.064162
v -0.092752 -0.062511 -0.064035
v -0.112988 0.006459 -0.063958
v -0.077611 0.157529 -0.003489
v -0.078429 0.157569 -0.058247
v -0.081078 0.071889 -0.049372
v 0.049811 0.161403 0.016135
v 0.013244 0.158108 -0.056907
v 0.034989 0.156540 0.067926
v -0.024757 0.157319 -0.062126
v 0.082046 0.157443 0.074052
v 0.106482 0.157406 -0.062763
v -0.063839 0.070859 0.010012
v 0.014587 -0.019486 0.059072
v -0.095771 0.058041 -0.064035
v -0.078077 0.060905 -0.009723
v -0.066783 0.090385 -0.064086
v 0.070140 -0.099783 -0.064003
v -0.020722 0.155698 -0.063827
v 0.034995 0.148978 -0.065159
v -0.035040 0.153947 -0.064897
v -0.017198 0.157014 -0.062766
v 0.000054 0.156597 -0.063168
v 0.009217 0.157222 -0.062273
v 0.026269 0.156993 -0.062752
v 0.045898 0.156042 -0.063705
v 0.066673 0.156873 -0.063093
v 0.125622 0.158071 0.047538
v 0.142717 0.157095 0.003046
v 0.132191 0.157435 -0.038525
v -0.020867 0.112073 0.038231
v 0.042232 0.099617 0.070376
v 0.067280 -0.011807 0.079373
v 0.118191 -0.097256 -0.044631
v 0.135038 -0.097250 -0.003508
v 0.124103 -0.097250 0.036046
v 0.100354 -0.097250 0.058925
v 0.067912 -0.097250 0.067945
v 0.100069 -0.097359 -0.062128
v 0.096567 -0.097248 -0.058211
v 0.086939 -0.097247 -0.061544
v 0.079395 -0.098947 -0.063758
v 0.074202 -0.098928 -0.063746
v 0.080053 -0.097965 -0.062998
v 0.066557 0.098204 0.075097
v 0.084993 -0.043111 -0.062011
v 0.080294 -0.000134 -0.062956
v 0.083430 0.000781 -0.062349
v 0.077141 -0.059239 -0.063429
v 0.073979 -0.000282 -0.063766
v 0.077141 0.000781 -0.063429
v 0.092651 -0.060507 -0.059711
v 0.089617 -0.001561 -0.060726
v 0.092651 0.003294 -0.059711
v 0.095633 -0.055908 -0.058559
v 0.095633 0.018347 -0.058559
v 0.070817 -0.057033 -0.063968
v 0.133279 0.097250 0.012062
v 0.103566 0.097250 0.057246
v 0.077141 -0.096812 -0.063429
v 0.101154 0.113860 -0.065265
v 0.135168 0.097786 0.033343
v 0.141295 0.097849 -0.021406
v 0.099468 0.098001 0.068526
v 0.115375 0.098035 -0.058994
v 0.067747 0.097250 0.067681
v 0.090536 0.097250 -0.060446
v 0.092651 0.042355 -0.059711
v 0.080294 0.040257 -0.062956
v 0.077189 0.098411 -0.063422
v 0.073979 0.060751 -0.063766
v 0.086541 0.034450 -0.061605
v 0.099259 0.097251 -0.057003
v 0.070454 0.099701 -0.063988
v 0.083425 0.097540 -0.062350
v 0.086541 0.096812 -0.061605
v 0.080400 0.097916 -0.062938
v 0.073938 0.098985 -0.063772
v 0.082145 0.097876 -0.063709
v 0.124192 0.097256 -0.037762
v 0.124580 0.097250 0.034731
v 0.133563 0.097250 -0.008021
v 0.079536 0.098953 -0.063759

vn -0.001775 -0.995045 -0.099414
vn -0.001776 -0.995045 -0.099414
vn -0.001776 -0.995045 -0.099414
vn 0.005335 -0.999753 0.021566
vn 0.005335 -0.999753 0.021566
vn 0.005335 -0.999753 0.021566
vn 0.067991 -0.997064 0.035211
vn 0.067991 -0.997064 0.035211
vn 0.067991 -0.997064 0.035211
vn 0.054194 -0.998189 0.026116
vn 0.054194 -0.998189 0.026116
vn 0.054194 -0.998189 0.026116
vn 0.155356 -0.986138 -0.058285
vn 0.155356 -0.986138 -0.058285
vn 0.155356 -0.986138 -0.058285
vn -0.841762 -0.008403 0.539784
vn -0.841762 -0.008403 0.539784
vn -0.841762 -0.008403 0.539784
vn -0.094269 -0.982246 0.162193
vn -0.094269 -0.982246 0.162193
vn -0.094269 -0.982246 0.162193
vn -0.009125 -0.999756 -0.020106
vn -0.009125 -0.999756 -0.020106
vn -0.009125 -0.999756 -0.020106
vn -0.004608 -0.999866 0.015708
vn -0.004608 -0.999866 0.015708
vn -0.004608 -0.999866 0.015708
vn -0.993641 -0.051574 0.100084
vn -0.993641 -0.051574 0.100084
vn -0.993641 -0.051574 0.100084
vn -0.531763 -0.005547 0.846875
vn -0.531763 -0.005547 0.846875
vn -0.531763 -0.005547 0.846875
vn -0.592906 -0.167324 0.787696
vn -0.592906 -0.167324 0.787696
vn -0.592906 -0.167324 0.787696
vn -0.004437 -0.993176 -0.116544
vn -0.004437 -0.993176 -0.116544
vn -0.004437 -0.993176 -0.116544
vn -0.005765 -0.995229 -0.097400
vn -0.005765 -0.995229 -0.097400
vn -0.005765 -0.995229 -0.097400
vn 0.000480 -0.993060 -0.117605
vn 0.000480 -0.993060 -0.117605
vn 0.000480 -0.993060 -0.117605
vn 0.013491 -0.999451 -0.030249
vn 0.013491 -0.999451 -0.030249
vn 0.013491 -0.999451 -0.030249
vn -0.999457 0.005380 0.032522
vn -0.999457 0.005380 0.032522
vn -0.999457 0.005380 0.032522
vn -0.543742 0.025073 -0.838878
vn -0.543742 0.025073 -0.838878
vn -0.543742 0.025073 -0.838878
vn -0.703667 -0.015319 -0.710365
vn -0.703667 -0.015319 -0.710365
vn -0.703667 -0.015319 -0.710365
vn 0.452767 -0.022300 -0.891350
vn 0.452767 -0.022300 -0.891350
vn 0.452767 -0.022300 -0.891350
vn 0.401417 -0.047531 -0.914661
vn 0.401417 -0.047531 -0.914661
vn 0.401417 -0.047531 -0.914661
vn 0.641536 -0.090105 0.761783
vn 0.641536 -0.090105 0.761783
vn 0.641536 -0.090105 0.761783
vn 0.356279 0.071571 0.931634
vn 0.356279 0.071571 0.931634
vn 0.356279 0.071571 0.931634
vn 0.912151 -0.014807 -0.409588
vn 0.912151 -0.014807 -0.409588
vn 0.912151 -0.014807 -0.409588
vn 0.968852 -0.052233 0.242069
vn 0.968852 -0.052233 0.242069
vn 0.968852 -0.052233 0.242069
vn 0.921644 0.007191 -0.387969
vn 0.921644 0.007191 -0.387969
vn 0.921644 0.007191 -0.387969
vn -0.614306 0.000792 0.789068
vn -0.614306 0.000792 0.789068
vn -0.614306 0.000792 0.789068
vn -0.615307 -0.021313 0.788000
vn -0.615307 -0.021313 0.788000
vn -0.615307 -0.021313 0.788000
vn -0.849956 -0.050320 0.524445
vn -0.849956 -0.050320 0.524445
vn -0.849956 -0.050320 0.524445
vn 0.032820 0.010771 0.999403
vn 0.032820 0.010771 0.999403
vn 0.032820 0.010771 0.999403
vn -0.115153 -0.120392 0.986025
vn -0.115153 -0.120392 0.986025
vn -0.115153 -0.120392 0.986025
vn -0.404156 -0.056168 0.912964
vn -0.404156 -0.056168 0.912964
vn -0.404156 -0.056168 0.912964
vn -0.450449 0.001296 0.892801
vn -0.450449 0.001296 0.892801
vn -0.450449 0.001296 0.892801
vn -0.015240 -0.110519 -0.993757
vn -0.015240 -0.110519 -0.993757
vn -0.015240 -0.110519 -0.993757
vn -0.001685 -0.074635 -0.997209
vn -0.001685 -0.074635 -0.997209
vn -0.001685 -0.074635 -0.997209
vn 0.007774 -0.019242 -0.999785
vn 0.007774 -0.019242 -0.999785
vn 0.007774 -0.019242 -0.999785
vn -0.002759 -0.090594 -0.995884
vn -0.002759 -0.090594 -0.995884
vn -0.002759 -0.090594 -0.995884
vn -0.992859 0.074595 0.093092
vn -0.992859 0.074595 0.093092
vn -0.992859 0.074595 0.093092
vn -0.554137 0.020209 -0.832180
vn -0.554137 0.020209 -0.832180
vn -0.554137 0.020209 -0.832180
vn 0.002561 0.048009 -0.998844
vn 0.002561 0.048009 -0.998844
vn 0.002561 0.048009 -0.998844
vn -0.891464 -0.377527 0.250529
vn -0.891464 -0.377527 0.250529
vn -0.891464 -0.377527 0.250529
vn -0.952301 -0.279544 0.122385
vn -0.952301 -0.279544 0.122385
vn -0.952301 -0.279544 0.122385
vn -0.770390 -0.598137 0.220753
vn -0.770390 -0.598137 0.220753
vn -0.770390 -0.598137 0.220753
vn -0.705348 -0.707725 0.040110
vn -0.705348 -0.707725 0.040110
vn -0.705348 -0.707725 0.040110
vn -0.999362 0.032437 0.014959
vn -0.999362 0.032437 0.014959
vn -0.999362 0.032437 0.014959
vn -0.005249 0.999085 -0.042438
vn -0.005249 0.999085 -0.042438
vn -0.005249 0.999085 -0.042438
vn -0.042786 0.995775 0.081255
vn -0.042786 0.995775 0.081255
vn -0.042786 0.995775 0.081255
vn -0.030569 0.999532 0.001193
vn -0.030569 0.999532 0.001193
vn -0.030569 0.999532 0.001193
vn -0.004070 0.992711 -0.120451
vn -0.004070 0.992711 -0.120451
vn -0.004070 0.992711 -0.120451
vn -0.030171 0.995934 0.084880
vn -0.030171 0.995934 0.084880
vn -0.030171 0.995934 0.084880
vn 0.004546 0.998869 -0.047332
vn 0.004546 0.998869 -0.047332
vn 0.004546 0.998869 -0.047332
vn -0.593866 0.016173 0.804402
vn -0.593866 0.016173 0.804402
vn -0.593866 0.016173 0.804402
vn 0.901208 0.081296 0.425694
vn 0.901208 0.081296 0.425694
vn 0.901208 0.081296 0.425694
vn -0.536252 0.025091 0.843685
vn -0.536252 0.025091 0.843685
vn -0.536252 0.025091 0.843685
vn -0.572071 -0.047926 0.818803
vn -0.572071 -0.047926 0.818803
vn -0.572071 -0.047926 0.818803
vn -0.449191 -0.026500 0.893043
vn -0.449191 -0.026500 0.893043
vn -0.449191 -0.026500 0.893043
vn -0.926075 0.309431 0.215959
vn -0.926075 0.309431 0.215959
vn -0.926075 0.309431 0.215959
vn -0.776877 0.589210 0.222022
vn -0.776877 0.589210 0.222022
vn -0.776877 0.589210 0.222022
vn -0.806067 0.543627 0.233936
vn -0.806067 0.543627 0.233936
vn -0.806067 0.543627 0.233936
vn -0.739661 0.663090 0.114953
vn -0.739661 0.663090 0.114953
vn -0.739661 0.663090 0.114953
vn -0.933557 0.211259 0.289554
vn -0.933557 0.211259 0.289554
vn -0.933557 0.211259 0.289554
vn -0.784118 0.549427 0.288598
vn -0.784118 0.549427 0.288598
vn -0.784118 0.549427 0.288598
vn -0.001960 0.062519 -0.998042
vn -0.001960 0.062519 -0.998042
vn -0.001960 0.062519 -0.998042
vn 0.007341 0.122456 -0.992447
vn 0.007341 0.122456 -0.992447
vn 0.007341 0.122456 -0.992447
vn -0.997150 -0.000061 0.075449
vn -0.997150 -0.000061 0.075449
vn -0.997150 -0.000061 0.075449
vn 0.023224 0.376161 -0.926263
vn 0.023224 0.376161 -0.926263
vn 0.023224 0.376161 -0.926263
vn -0.046996 0.715880 -0.696640
vn -0.046996 0.715880 -0.696640
vn -0.046996 0.715880 -0.696640
vn -0.026284 0.668979 -0.742816
vn -0.026284 0.668979 -0.742816
vn -0.026284 0.668979 -0.742816
vn -0.002758 0.631925 -0.775025
vn -0.002758 0.631925 -0.775025
vn -0.002758 0.631925 -0.775025
vn 0.016127 0.321395 -0.946808
vn 0.016127 0.321395 -0.946808
vn 0.016127 0.321395 -0.946808
vn 0.005079 0.794534 -0.607199
vn 0.005079 0.794534 -0.607199
vn 0.005079 0.794534 -0.607199
vn -0.004028 0.838601 -0.544731
vn -0.004028 0.838601 -0.544731
vn -0.004028 0.838601 -0.544731
vn -0.004801 0.987201 -0.159406
vn -0.004801 0.987202 -0.159406
vn -0.004801 0.987201 -0.159406
vn 0.008486 0.985561 -0.169107
vn 0.008486 0.985561 -0.169107
vn 0.008486 0.985561 -0.169107
vn 0.016425 0.964013 -0.265348
vn 0.016425 0.964013 -0.265348
vn 0.016425 0.964013 -0.265348
vn -0.033083 0.692886 -0.720288
vn -0.033083 0.692885 -0.720288
vn -0.033083 0.692886 -0.720288
vn 0.010645 0.298244 -0.954430
vn 0.010645 0.298244 -0.954430
vn 0.010645 0.298244 -0.954430
vn -0.034720 0.252619 -0.966943
vn -0.034720 0.252619 -0.966943
vn -0.034720 0.252619 -0.966943
vn -0.010508 0.959287 -0.282238
vn -0.010508 0.959287 -0.282238
vn -0.010508 0.959287 -0.282238
vn -0.004379 0.661480 -0.749950
vn -0.004379 0.661480 -0.749950
vn -0.004379 0.661480 -0.749950
vn 0.022270 0.168470 -0.985455
vn 0.022270 0.168470 -0.985455
vn 0.022270 0.168470 -0.985455
vn 0.001356 0.982836 -0.184474
vn 0.001356 0.982836 -0.184474
vn 0.001356 0.982836 -0.184474
vn 0.020275 0.998171 0.056956
vn 0.020275 0.998171 0.056956
vn 0.020275 0.998171 0.056956
vn 0.047209 0.998878 -0.003774
vn 0.047209 0.998878 -0.003774
vn 0.047209 0.998878 -0.003774
vn -0.572792 0.036547 0.818886
vn -0.572792 0.036547 0.818886
vn -0.572792 0.036547 0.818886
vn -0.531847 0.107079 0.840043
vn -0.531847 0.107079 0.840043
vn -0.531847 0.107079 0.840043
vn -0.802125 -0.034593 0.596153
vn -0.802125 -0.034593 0.596153
vn -0.802125 -0.034593 0.596153
vn -0.450717 0.019910 0.892445
vn -0.450717 0.019910 0.892445
vn -0.450717 0.019910 0.892445
vn -0.513786 -0.002556 0.857915
vn -0.513786 -0.002557 0.857915
vn -0.513786 -0.002557 0.857915
vn -0.562709 0.020895 0.826391
vn -0.562709 0.020895 0.826391
vn -0.562709 0.020895 0.826391
vn -0.504009 -0.001918 0.863696
vn -0.504009 -0.001918 0.863696
vn -0.504009 -0.001918 0.863696
vn -0.139846 -0.043939 0.989198
vn -0.139846 -0.043939 0.989198
vn -0.139846 -0.043939 0.989198
vn -0.360971 0.011648 0.932504
vn -0.360971 0.011648 0.932504
vn -0.360971 0.011648 0.932504
vn -0.001754 -0.002612 -0.999995
vn -0.001754 -0.002612 -0.999995
vn -0.001754 -0.002612 -0.999995
vn -0.000745 0.000899 -0.999999
vn -0.000745 0.000899 -0.999999
vn -0.000745 0.000899 -0.999999
vn -0.001978 -0.000821 -0.999998
vn -0.001978 -0.000821 -0.999998
vn -0.001978 -0.000821 -0.999998
vn -0.001400 -0.000344 -0.999999
vn -0.001400 -0.000344 -0.999999
vn -0.001400 -0.000344 -0.999999
vn 0.104799 0.993560 -0.043080
vn 0.104799 0.993560 -0.043080
vn 0.104799 0.993560 -0.043080
vn 0.079714 0.996574 0.022038
vn 0.079714 0.996574 0.022038
vn 0.079714 0.996574 0.022038
vn 0.221069 0.969693 0.104040
vn 0.221069 0.969693 0.104040
vn 0.221069 0.969693 0.104040
vn 0.053584 0.997013 0.055620
vn 0.053584 0.997013 0.055620
vn 0.053584 0.997013 0.055620
vn 0.063541 0.986988 0.147704
vn 0.063541 0.986988 0.147704
vn 0.063541 0.986988 0.147704
vn 0.016525 0.998095 0.059435
vn 0.016525 0.998095 0.059435
vn 0.016525 0.998095 0.059435
vn 0.128410 0.990076 -0.057092
vn 0.128410 0.990076 -0.057092
vn 0.128410 0.990076 -0.057092
vn 0.066659 0.994960 -0.074914
vn 0.066659 0.994960 -0.074914
vn 0.066659 0.994960 -0.074914
vn 0.011649 0.999771 -0.017968
vn 0.011649 0.999771 -0.017968
vn 0.011649 0.999771 -0.017968
vn 0.007617 0.999738 -0.021572
vn 0.007617 0.999738 -0.021572
vn 0.007617 0.999738 -0.021572
vn 0.000431 0.611780 -0.791028
vn 0.000431 0.611780 -0.791028
vn 0.000431 0.611780 -0.791028
vn 0.103667 -0.885692 -0.452552
vn 0.103667 -0.885692 -0.452552
vn 0.103667 -0.885692 -0.452552
vn 0.165390 0.458236 -0.873307
vn 0.165390 0.458236 -0.873307
vn 0.165390 0.458236 -0.873307
vn 0.016281 0.605035 -0.796032
vn 0.016281 0.605035 -0.796032
vn 0.016281 0.605035 -0.796032
vn 0.013427 0.142375 -0.989722
vn 0.013427 0.142375 -0.989722
vn 0.013427 0.142375 -0.989722
vn -0.001095 0.293126 -0.956073
vn -0.001095 0.293126 -0.956073
vn -0.001095 0.293126 -0.956073
vn -0.010125 0.914780 -0.403826
vn -0.010125 0.914780 -0.403826
vn -0.010125 0.914780 -0.403826
vn -0.681028 -0.054594 -0.730220
vn -0.681028 -0.054594 -0.730220
vn -0.681028 -0.054594 -0.730220
vn -0.146270 0.060457 -0.987396
vn -0.146270 0.060457 -0.987396
vn -0.146270 0.060457 -0.987396
vn 0.004910 0.234621 -0.972075
vn 0.004910 0.234621 -0.972075
vn 0.004910 0.234621 -0.972075
vn 0.027773 0.999144 -0.030663
vn 0.027773 0.999144 -0.030663
vn 0.027773 0.999144 -0.030663
vn 0.045519 0.998956 -0.003903
vn 0.045519 0.998956 -0.003903
vn 0.045519 0.998956 -0.003903
vn -0.129898 0.051429 0.990193
vn -0.129898 0.051429 0.990193
vn -0.129898 0.051429 0.990193
vn -0.456953 -0.019872 0.889269
vn -0.456953 -0.019872 0.889269
vn -0.456953 -0.019872 0.889269
vn -0.188348 0.036904 0.981409
vn -0.188348 0.036904 0.981409
vn -0.188348 0.036904 0.981409
vn -0.358840 -0.005301 0.933384
vn -0.358840 -0.005301 0.933384
vn -0.358840 -0.005301 0.933384
vn 0.190440 -0.000773 -0.981699
vn 0.190440 -0.000773 -0.981699
vn 0.190440 -0.000773 -0.981699
vn 0.106006 -0.000000 -0.994365
vn 0.106006 -0.000000 -0.994365
vn 0.106006 -0.000000 -0.994365
vn 0.317363 0.000000 -0.948304
vn 0.317363 0.000000 -0.948304
vn 0.317363 0.000000 -0.948304
vn 0.531853 0.004893 -0.846823
vn 0.531852 0.004893 -0.846823
vn 0.531853 0.004893 -0.846823
vn 0.360212 0.000000 -0.932870
vn 0.360212 0.000000 -0.932870
vn 0.360212 0.000000 -0.932870
vn 0.525381 0.000000 -0.850867
vn 0.525381 0.000000 -0.850867
vn 0.525381 0.000000 -0.850867
vn 0.148118 -0.000000 -0.988970
vn 0.148118 -0.000000 -0.988970
vn 0.148118 -0.000000 -0.988970
vn 0.259415 0.000991 -0.965765
vn 0.259415 0.000991 -0.965765
vn 0.259415 0.000991 -0.965765
vn 0.308488 -0.000507 -0.951228
vn 0.308488 -0.000507 -0.951228
vn 0.308487 -0.000507 -0.951228
vn 0.196637 -0.000069 -0.980476
vn 0.196637 -0.000069 -0.980476
vn 0.196637 -0.000069 -0.980476
vn 0.147079 0.000057 -0.989125
vn 0.147079 0.000057 -0.989125
vn 0.147079 0.000057 -0.989125
vn 0.001309 0.003488 -0.999993
vn 0.001309 0.003488 -0.999993
vn 0.001309 0.003488 -0.999993
vn 0.064767 -0.000055 -0.997900
vn 0.064767 -0.000055 -0.997900
vn 0.064767 -0.000055 -0.997900
vn 0.106761 0.000041 -0.994285
vn 0.106761 0.000041 -0.994285
vn 0.106761 0.000041 -0.994285
vn 0.963768 -0.012617 0.266443
vn 0.963768 -0.012617 0.266443
vn 0.963768 -0.012617 0.266443
vn 0.693794 -0.005240 0.720155
vn 0.693794 -0.005240 0.720155
vn 0.693794 -0.005240 0.720155
vn 0.063335 -0.000171 -0.997992
vn 0.063335 -0.000171 -0.997992
vn 0.063335 -0.000171 -0.997992
vn 0.206699 -0.001012 -0.978404
vn 0.206699 -0.001012 -0.978404
vn 0.206699 -0.001012 -0.978404
vn 0.146342 0.000000 -0.989234
vn 0.146342 0.000000 -0.989234
vn 0.146342 0.000000 -0.989234
vn 0.359838 0.000279 -0.933015
vn 0.359838 0.000279 -0.933015
vn 0.359838 0.000279 -0.933015
vn 0.107306 0.000000 -0.994226
vn 0.107306 0.000000 -0.994226
vn 0.107306 0.000000 -0.994226
vn 0.327054 -0.003705 -0.944999
vn 0.327054 -0.003705 -0.944999
vn 0.327054 -0.003705 -0.944998
vn 0.132478 -0.035507 -0.990550
vn 0.132478 -0.035507 -0.990550
vn 0.132478 -0.035507 -0.990550
vn 0.004393 0.000765 -0.999990
vn 0.004393 0.000765 -0.999990
vn 0.004393 0.000765 -0.999990
vn 0.360212 0.000000 -0.932870
vn 0.360212 0.000000 -0.932870
vn 0.360212 0.000000 -0.932870
vn -0.004489 -0.010507 -0.999935
vn -0.004489 -0.010507 -0.999935
vn -0.004489 -0.010507 -0.999935
vn -0.005893 -0.008070 -0.999950
vn -0.005893 -0.008070 -0.999950
vn -0.005893 -0.008070 -0.999950
vn 0.027076 0.054036 -0.998172
vn 0.027076 0.054036 -0.998172
vn 0.027076 0.054036 -0.998172
vn 0.932040 0.063585 0.356732
vn 0.932040 0.063585 0.356732
vn 0.932040 0.063585 0.356732
vn 0.966636 0.077542 -0.244134
vn 0.966636 0.077542 -0.244134
vn 0.966636 0.077542 -0.244134
vn 0.517675 0.072456 0.852504
vn 0.517675 0.072456 0.852504
vn 0.517675 0.072456 0.852504
vn 0.822588 -0.037346 -0.567410
vn 0.822588 -0.037346 -0.567410
vn 0.822588 -0.037346 -0.567410
vn 0.684858 0.056459 -0.726486
vn 0.684858 0.056459 -0.726486
vn 0.684858 0.056459 -0.726486
vn -0.189498 0.018135 0.981714
vn -0.189498 0.018135 0.981714
vn -0.189498 0.018135 0.981714
vn 0.998830 0.000914 0.048354
vn 0.998830 0.000914 0.048354
vn 0.998830 0.000914 0.048354
vn 0.987545 0.012592 0.156832
vn 0.987545 0.012592 0.156832
vn 0.987545 0.012592 0.156832
vn 0.995441 0.019834 -0.093293
vn 0.995441 0.019834 -0.093293
vn 0.995441 0.019834 -0.093293
vn 0.321207 -0.000295 -0.947009
vn 0.321207 -0.000295 -0.947009
vn 0.321207 -0.000295 -0.947009
vn 0.148118 0.000000 -0.988970
vn 0.148118 0.000000 -0.988970
vn 0.148118 0.000000 -0.988970
vn 0.190223 0.000000 -0.981741
vn 0.190223 0.000000 -0.981741
vn 0.190223 0.000000 -0.981741
vn 0.148251 -0.000011 -0.988950
vn 0.148251 -0.000011 -0.988950
vn 0.148251 -0.000011 -0.988950
vn 0.009880 -0.000000 -0.999951
vn 0.009880 -0.000000 -0.999951
vn 0.009880 -0.000000 -0.999951
vn 0.106006 -0.000000 -0.994366
vn 0.106006 -0.000000 -0.994365
vn 0.106006 -0.000000 -0.994365
vn 0.226554 0.000572 -0.973998
vn 0.226554 0.000572 -0.973998
vn 0.226554 0.000572 -0.973998
vn 0.317363 0.000000 -0.948304
vn 0.317363 0.000000 -0.948304
vn 0.317363 0.000000 -0.948304
vn 0.270773 -0.000370 -0.962643
vn 0.270773 -0.000370 -0.962643
vn 0.270773 -0.000370 -0.962643
vn 0.502743 -0.006050 -0.864415
vn 0.502743 -0.006050 -0.864415
vn 0.502743 -0.006050 -0.864415
vn 0.360212 0.000000 -0.932870
vn 0.360212 0.000000 -0.932870
vn 0.360212 0.000000 -0.932870
vn 0.106205 0.000011 -0.994344
vn 0.106205 0.000011 -0.994344
vn 0.106205 0.000011 -0.994344
vn 0.276504 0.000160 -0.961013
vn 0.276504 0.000160 -0.961013
vn 0.276504 0.000160 -0.961013
vn 0.369622 0.001346 -0.929181
vn 0.369622 0.001346 -0.929181
vn 0.369622 0.001346 -0.929181
vn 0.023928 -0.003531 -0.999707
vn 0.023928 -0.003531 -0.999707
vn 0.023928 -0.003531 -0.999707
vn 0.000667 0.000756 -0.999999
vn 0.000667 0.000756 -1.000000
vn 0.000667 0.000756 -1.000000
vn 0.232408 0.000001 -0.972618
vn 0.232408 0.000001 -0.972618
vn 0.232408 0.000001 -0.972618
vn 0.190199 -0.000002 -0.981745
vn 0.190199 -0.000002 -0.981746
vn 0.190199 -0.000002 -0.981746
vn 0.232397 0.000000 -0.972621
vn 0.232397 0.000000 -0.972621
vn 0.232397 0.000000 -0.972621
vn 0.278821 0.000000 -0.960343
vn 0.278821 0.000000 -0.960343
vn 0.278821 0.000000 -0.960343
vn 0.149180 0.000040 -0.988810
vn 0.149180 0.000040 -0.988810
vn 0.149180 0.000040 -0.988810
vn 0.190847 -0.000039 -0.981620
vn 0.190847 -0.000039 -0.981620
vn 0.190847 -0.000039 -0.981620
vn 0.061620 -0.000111 -0.998100
vn 0.061620 -0.000111 -0.998100
vn 0.061620 -0.000111 -0.998100
vn 0.107043 -0.000062 -0.994254
vn 0.107043 -0.000062 -0.994254
vn 0.107043 -0.000062 -0.994254
vn -0.219452 -0.974998 -0.034915
vn -0.219452 -0.974998 -0.034915
vn -0.219452 -0.974998 -0.034915
vn 0.367102 0.001698 -0.930179
vn 0.367102 0.001698 -0.930179
vn 0.367102 0.001698 -0.930179
vn 0.610899 0.009105 -0.791656
vn 0.610899 0.009105 -0.791656
vn 0.610899 0.009105 -0.791656
vn 0.925254 -0.015162 -0.379046
vn 0.925254 -0.015162 -0.379046
vn 0.925254 -0.015162 -0.379046
vn 0.267877 0.001536 0.963452
vn 0.267877 0.001536 0.963452
vn 0.267877 0.001536 0.963452
vn 0.933609 0.000132 0.358294
vn 0.933609 0.000132 0.358294
vn 0.933609 0.000132 0.358294
vn 0.731057 0.002819 0.682311
vn 0.731057 0.002819 0.682311
vn 0.731057 0.002819 0.682311
vn 0.279693 0.003669 0.960082
vn 0.279693 0.003669 0.960082
vn 0.279693 0.003669 0.960082
vn 0.953785 0.000263 -0.300489
vn 0.953785 0.000263 -0.300489
vn 0.953785 0.000263 -0.300489
vn 0.999869 0.007911 0.014094
vn 0.999869 0.007911 0.014094
vn 0.999869 0.007911 0.014094
vn 0.294116 -0.450693 -0.842835
vn 0.294116 -0.450693 -0.842835
vn 0.294116 -0.450693 -0.842835
vn 0.007979 -0.107021 -0.994225
vn 0.007979 -0.107021 -0.994225
vn 0.007979 -0.107021 -0.994225
vn 0.406102 0.002811 -0.913823
vn 0.406102 0.002811 -0.913823
vn 0.406102 0.002811 -0.913823
vn 0.195502 -0.033832 0.980120
vn 0.195502 -0.033832 0.980120
vn 0.195502 -0.033832 0.980120
vn 0.700632 -0.056543 0.711279
vn 0.700632 -0.056543 0.711279
vn 0.700632 -0.056543 0.711279
vn 0.991398 -0.069567 0.110864
vn 0.991398 -0.069567 0.110864
vn 0.991398 -0.069567 0.110864
vn 0.049868 -0.998629 -0.015915
vn 0.049868 -0.998629 -0.015915
vn 0.049868 -0.998629 -0.015915
vn 0.041876 -0.997663 -0.053980
vn 0.041876 -0.997663 -0.053980
vn 0.041876 -0.997664 -0.053980
vn 0.057492 -0.996903 0.053659
vn 0.057492 -0.996903 0.053659
vn 0.057492 -0.996903 0.053659
vn 0.021620 -0.997008 0.074213
vn 0.021620 -0.997008 0.074213
vn 0.021620 -0.997008 0.074213
vn 0.079215 -0.996857 0.001117
vn 0.079215 -0.996857 0.001117
vn 0.079215 -0.996857 0.001117
vn 0.114569 -0.989867 -0.083884
vn 0.114569 -0.989867 -0.083884
vn 0.114569 -0.989867 -0.083884
vn 0.091951 -0.990795 0.099353
vn 0.091951 -0.990795 0.099353
vn 0.091951 -0.990795 0.099353
vn 0.053210 -0.998375 0.020420
vn 0.053210 -0.998375 0.020420
vn 0.053210 -0.998375 0.020420
vn 0.036895 -0.994961 -0.093222
vn 0.036895 -0.994961 -0.093222
vn 0.036895 -0.994961 -0.093222
vn 0.047928 -0.950864 -0.305876
vn 0.047928 -0.950864 -0.305876
vn 0.047928 -0.950864 -0.305876
vn 0.130166 -0.991401 0.013416
vn 0.130166 -0.991401 0.013416
vn 0.130166 -0.991401 0.013416
vn 0.019980 -0.991224 0.130676
vn 0.019980 -0.991224 0.130676
vn 0.019980 -0.991224 0.130676
vn -0.013915 -0.080522 -0.996656
vn -0.013915 -0.080522 -0.996656
vn -0.013915 -0.080522 -0.996656
vn 0.026150 -0.606926 -0.794328
vn 0.026150 -0.606926 -0.794328
vn 0.026150 -0.606926 -0.794328
vn 0.000673 -0.284582 -0.958651
vn 0.000673 -0.284582 -0.958651
vn 0.000673 -0.284582 -0.958651
vn 0.014922 -0.121913 -0.992429
vn 0.014922 -0.121913 -0.992429
vn 0.014922 -0.121913 -0.992429
vn -0.289481 -0.730428 -0.618608
vn -0.289481 -0.730428 -0.618608
vn -0.289481 -0.730428 -0.618608
vn -0.091584 -0.983282 -0.157380
vn -0.091584 -0.983282 -0.157380
vn -0.091584 -0.983282 -0.157380
vn -0.000936 -0.524920 -0.851151
vn -0.000936 -0.524920 -0.851151
vn -0.000936 -0.524920 -0.851151
vn 0.136982 -0.256104 -0.956894
vn 0.136982 -0.256104 -0.956894
vn 0.136982 -0.256104 -0.956894

f 1//1 2//2 3//3
f 4//4 2//5 5//6
f 6//7 5//8 2//9
f 5//10 6//11 7//12
f 1//13 6//14 2//15
f 8//16 9//17 10//18
f 8//19 4//20 11//21
f 2//22 8//23 12//24
f 2//25 4//26 8//27
f 8//28 10//29 12//30
f 11//31 13//32 9//33
f 8//34 11//35 9//36
f 14//37 12//38 15//39
f 2//40 16//41 3//42
f 2//43 12//44 16//45
f 16//46 12//47 14//48
f 10//49 17//50 12//51
f 18//52 15//53 17//54
f 15//55 12//56 17//57
f 19//58 1//59 20//60
f 1//61 3//62 20//63
f 5//64 7//65 21//66
f 5//67 21//68 22//69
f 6//70 1//71 19//72
f 23//73 7//74 6//75
f 6//76 19//77 23//78
f 24//79 25//80 26//81
f 27//82 25//83 24//84
f 10//85 9//86 27//87
f 4//88 5//89 28//90
f 5//91 22//92 28//93
f 11//94 4//95 28//96
f 13//97 11//98 28//99
f 14//100 18//101 16//102
f 3//103 16//104 18//105
f 3//106 18//107 20//108
f 14//109 15//110 18//111
f 10//112 27//113 17//114
f 17//115 29//116 18//117
f 18//118 29//119 30//120
f 31//121 27//122 24//123
f 31//124 24//125 32//126
f 27//127 31//128 17//129
f 17//130 31//131 29//132
f 33//133 34//134 35//135
f 36//136 37//137 34//138
f 36//139 33//140 38//141
f 33//142 36//143 34//144
f 37//145 39//146 34//147
f 38//148 40//149 36//150
f 37//151 36//152 41//153
f 42//154 26//155 25//156
f 7//157 23//158 21//159
f 9//160 13//161 27//162
f 27//163 13//164 25//165
f 13//166 28//167 43//168
f 32//169 26//170 44//171
f 35//172 44//173 45//174
f 26//175 45//176 44//177
f 46//178 44//179 35//180
f 24//181 26//182 32//183
f 42//184 45//185 26//186
f 30//187 20//188 18//189
f 20//190 30//191 47//192
f 33//193 35//194 45//195
f 48//196 49//197 50//198
f 39//199 50//200 34//201
f 48//202 50//203 51//204
f 48//205 51//206 52//207
f 52//208 49//209 48//210
f 53//211 52//212 51//213
f 52//214 53//215 54//216
f 37//217 53//218 51//219
f 37//220 54//221 53//222
f 39//223 37//224 51//225
f 51//226 50//227 39//228
f 49//229 52//230 54//231
f 49//232 54//233 55//234
f 37//235 41//236 56//237
f 55//238 54//239 56//240
f 55//241 56//242 49//243
f 54//244 37//245 56//246
f 40//247 57//248 36//249
f 57//250 58//251 59//252
f 60//253 33//254 42//255
f 38//256 33//257 60//258
f 45//259 42//260 33//261
f 61//262 60//263 43//264
f 43//265 60//266 13//267
f 60//268 42//269 25//270
f 25//271 13//272 60//273
f 22//274 62//275 28//276
f 43//277 28//278 62//279
f 30//280 29//281 31//282
f 32//283 30//284 31//285
f 32//286 44//287 30//288
f 30//289 44//290 46//291
f 23//292 63//293 64//294
f 65//295 23//296 64//297
f 23//298 65//299 21//300
f 65//301 66//302 21//303
f 21//304 66//305 22//306
f 67//307 22//308 66//309
f 23//310 19//311 63//312
f 19//313 68//314 63//315
f 68//316 69//317 63//318
f 70//319 69//320 68//321
f 71//322 72//323 73//324
f 19//325 71//326 68//327
f 19//328 20//329 71//330
f 71//331 73//332 68//333
f 20//334 47//335 71//336
f 71//337 47//338 72//339
f 73//340 70//341 68//342
f 46//343 35//344 34//345
f 46//346 34//347 50//348
f 56//349 41//350 49//351
f 41//352 36//353 59//354
f 59//355 36//356 57//357
f 74//358 40//359 38//360
f 38//361 60//362 61//363
f 61//364 62//365 74//366
f 61//367 43//368 62//369
f 75//370 76//371 77//372
f 78//373 79//374 80//375
f 81//376 82//377 83//378
f 63//379 69//380 84//381
f 81//382 83//383 84//384
f 63//385 84//386 85//387
f 78//388 80//389 76//390
f 70//391 75//392 82//393
f 70//394 82//395 81//396
f 76//397 75//398 73//399
f 78//400 76//401 73//402
f 86//403 30//404 79//405
f 86//406 79//407 72//408
f 72//409 79//410 78//411
f 64//412 87//413 65//414
f 88//415 66//416 65//417
f 72//418 47//419 86//420
f 70//421 73//422 75//423
f 89//424 78//425 73//426
f 69//427 81//428 84//429
f 72//430 78//431 89//432
f 70//433 81//434 69//435
f 73//436 72//437 89//438
f 47//439 30//440 86//441
f 84//442 83//443 85//444
f 46//445 50//446 49//447
f 90//448 46//449 49//450
f 49//451 41//452 90//453
f 58//454 57//455 91//456
f 59//457 58//458 92//459
f 57//460 40//461 93//462
f 59//463 92//464 94//465
f 41//466 59//467 94//468
f 38//469 61//470 74//471
f 67//472 95//473 62//474
f 62//475 95//476 74//477
f 62//478 22//479 67//480
f 82//481 96//482 97//483
f 76//484 80//485 98//486
f 77//487 76//488 98//489
f 80//490 99//491 98//492
f 79//493 30//494 100//495
f 79//496 100//497 80//498
f 75//499 77//500 101//501
f 83//502 82//503 97//504
f 82//505 75//506 101//507
f 85//508 102//509 63//510
f 85//511 83//512 97//513
f 80//514 100//515 99//516
f 96//517 82//518 101//519
f 85//520 97//521 102//522
f 30//523 103//524 100//525
f 30//526 46//527 103//528
f 101//529 77//530 104//531
f 77//532 98//533 104//534
f 101//535 104//536 105//537
f 96//538 101//539 105//540
f 99//541 106//542 98//543
f 98//544 106//545 104//546
f 100//547 103//548 107//549
f 100//550 107//551 99//552
f 105//553 104//554 108//555
f 97//556 96//557 102//558
f 109//559 63//560 102//561
f 64//562 63//563 109//564
f 67//565 66//566 95//567
f 87//568 110//569 65//570
f 88//571 65//572 110//573
f 66//574 88//575 95//576
f 64//577 109//578 111//579
f 64//580 111//581 87//582
f 96//583 105//584 108//585
f 103//586 46//587 90//588
f 90//589 41//590 94//591
f 74//592 93//593 40//594
f 57//595 93//596 91//597
f 58//598 91//599 92//600
f 111//601 109//602 92//603
f 102//604 94//605 109//606
f 88//607 110//608 91//609
f 93//610 95//611 88//612
f 92//613 87//614 111//615
f 92//616 109//617 94//618
f 93//619 88//620 91//621
f 87//622 91//623 110//624
f 102//625 96//626 94//627
f 96//628 108//629 94//630
f 92//631 91//632 87//633
f 93//634 74//635 95//636
f 112//637 90//638 108//639
f 106//640 99//641 112//642
f 103//643 112//644 107//645
f 103//646 90//647 112//648
f 106//649 112//650 108//651
f 104//652 106//653 108//654
f 99//655 107//656 112//657
f 108//658 90//659 94//660

