# /tmp/buildd/ros-hydro-pr2-description-1.11.4-0precise-20150329-0527/meshes/shoulder_v0/convex/shoulder_lift.obj created by IVCON.
# Original data in /tmp/buildd/ros-hydro-pr2-description-1.11.4-0precise-20150329-0527/meshes/shoulder_v0//shoulder_lift.stl.

g IVCON

v -0.097423 -0.074080 -0.081734
v -0.094990 -0.074121 -0.079705
v -0.095745 -0.073919 -0.080256
v -0.108766 -0.055286 -0.063487
v -0.110049 0.075094 -0.057923
v 0.119057 0.059631 -0.047695
v 0.107254 0.033166 -0.069842
v 0.114606 0.075110 -0.051030
v 0.114578 -0.053981 0.055362
v 0.117669 -0.005957 0.102428
v 0.117456 -0.057346 0.048660
v 0.116162 -0.074900 -0.047912
v 0.111309 -0.047920 -0.056306
v 0.083894 -0.074929 -0.098978
v -0.123910 0.075104 -0.012135
v -0.107216 0.075100 -0.069978
v -0.125072 -0.074891 0.029193
v -0.126944 0.075108 -0.013934
v -0.120494 -0.075297 -0.030275
v 0.117587 0.051560 -0.056782
v 0.094993 0.075097 -0.080490
v 0.062013 -0.074895 -0.108521
v 0.058664 0.075107 -0.112601
v 0.098891 0.007286 -0.074716
v 0.118000 -0.072921 0.016040
v 0.121000 -0.072921 0.016033
v 0.121000 -0.074599 0.017263
v 0.121000 -0.072921 -0.016040
v 0.118000 -0.073892 -0.016971
v 0.118000 -0.074599 -0.017263
v 0.116067 0.056904 0.047946
v 0.121000 0.068943 0.024304
v 0.120953 0.045059 0.061071
v 0.024867 0.075114 0.127230
v -0.046492 0.075103 0.116105
v -0.050315 0.075107 0.117192
v 0.118000 0.074815 -0.017263
v 0.121000 0.074815 -0.017263
v 0.121000 0.075108 -0.017971
v 0.118021 0.075194 -0.018066
v 0.121000 0.074815 0.017263
v 0.118000 0.074815 0.017263
v 0.121085 0.076082 0.019004
v 0.121000 -0.070707 -0.017728
v 0.118023 -0.071437 -0.017163
v 0.121000 -0.071062 -0.017183
v 0.121000 -0.071062 0.017183
v 0.121000 0.070923 -0.017728
v 0.118000 0.071278 -0.017183
v 0.118000 0.070923 -0.017728
v 0.067848 -0.022937 0.103792
v 0.051562 -0.000095 0.113275
v 0.071180 -0.019135 0.105011
v 0.013599 -0.074895 -0.124183
v -0.003708 0.075108 -0.126634
v -0.042983 -0.074889 -0.117270
v 0.120276 0.022070 0.070538
v 0.121060 0.044703 0.061599
v 0.118000 -0.070707 0.017728
v 0.120893 -0.062118 0.043866
v 0.121000 -0.070707 0.017728
v 0.096943 0.075109 -0.082572
v 0.034250 -0.074897 -0.123011
v 0.118000 -0.071677 -0.016971
v 0.118000 -0.071062 0.017183
v 0.118047 0.075325 0.018206
v 0.055955 -0.074894 0.113858
v 0.004560 -0.074893 0.127375
v 0.118578 0.061920 0.050067
v 0.116539 0.075078 0.045781
v 0.088239 0.075096 0.092153
v -0.100151 -0.074890 0.077172
v -0.121947 0.075108 0.031701
v -0.094328 0.075107 0.082519
v 0.115561 0.057481 0.047851
v 0.105479 0.049615 0.068179
v 0.119920 0.010118 -0.074783
v 0.102056 -0.011898 -0.076438
v 0.121122 -0.076696 -0.019914
v 0.121005 -0.054103 -0.049041
v -0.078244 0.075100 -0.097392
v -0.063906 -0.074890 -0.109121
v -0.068336 0.075101 -0.107295
v 0.121000 0.070923 0.017728
v 0.118001 0.073001 0.015927
v 0.114363 0.060774 0.047986
v 0.016143 0.075111 0.124001
v 0.112459 -0.025520 0.101751
v 0.071271 -0.021488 0.107326
v 0.108893 -0.052859 0.067800
v 0.102524 -0.017981 0.107043
v -0.020860 -0.074889 -0.126574
v -0.046626 0.075095 -0.118508
v 0.121550 0.073528 -0.031011
v -0.123118 -0.074881 0.022465
v 0.060811 0.010633 0.113773
v 0.120716 -0.000868 0.106011
v 0.109045 -0.006112 0.114093
v -0.120898 -0.055034 -0.033010
v 0.118046 -0.075141 0.018237
v 0.121169 -0.076458 0.019641
v -0.024336 -0.074890 0.123724
v -0.120050 -0.074928 -0.031091
v 0.104249 0.011921 0.113749
v 0.067823 -0.022992 0.103808
v 0.119128 -0.009615 0.073307
v 0.118000 -0.074892 -0.017971
v 0.120163 0.062236 -0.040329
v -0.103963 0.075108 0.076123
v 0.114323 0.036767 0.088091
v 0.120804 -0.052327 -0.051186
v 0.117216 -0.054788 -0.053800
v 0.120977 -0.050379 -0.055308
v 0.108844 -0.074943 0.064961
v -0.119775 -0.073892 -0.032094
v 0.119655 -0.025590 -0.070166
v 0.121000 0.073135 0.016037
v 0.121000 0.071278 0.017183
v -0.092642 -0.074668 -0.082536
v -0.094667 -0.074892 -0.080088
v 0.102555 -0.004916 0.112361
v 0.093173 0.039529 0.087385
v 0.115842 -0.056619 0.047836
v 0.073270 0.023705 0.101134
v 0.112445 0.010854 0.108427
v -0.097399 -0.073742 -0.081501
v 0.121000 0.073135 -0.016037
v 0.121503 0.045831 0.061627
v -0.069617 -0.074893 0.105150
v 0.118000 0.073139 -0.016037
v 0.102500 -0.001685 0.112145
v 0.121000 -0.074599 -0.017263
v 0.118000 -0.074599 0.017263
v 0.121000 0.071278 -0.017183
v -0.094895 -0.074746 -0.079818

vn 0.779326 -0.019059 0.626329
vn 0.779326 -0.019059 0.626329
vn 0.779326 -0.019059 0.626329
vn 0.815239 0.111938 -0.568204
vn 0.815239 0.111938 -0.568204
vn 0.815239 0.111938 -0.568204
vn -0.604215 0.577235 -0.549294
vn -0.604215 0.577235 -0.549294
vn -0.604215 0.577234 -0.549294
vn -0.845289 0.014140 0.534122
vn -0.845289 0.014140 0.534122
vn -0.845290 0.014140 0.534121
vn 0.010553 0.999940 0.002977
vn 0.010553 0.999940 0.002977
vn 0.010553 0.999940 0.002977
vn -0.996477 -0.034420 -0.076478
vn -0.996477 -0.034420 -0.076478
vn -0.996477 -0.034420 -0.076478
vn -0.550698 0.666314 -0.502749
vn -0.550698 0.666314 -0.502749
vn -0.550698 0.666314 -0.502749
vn -0.398500 -0.083077 0.913398
vn -0.398500 -0.083077 0.913398
vn -0.398500 -0.083077 0.913398
vn -0.662263 0.005595 0.749250
vn -0.662263 0.005595 0.749250
vn -0.662263 0.005595 0.749250
vn -0.845763 -0.003180 0.533550
vn -0.845763 -0.003180 0.533550
vn -0.845763 -0.003180 0.533550
vn -0.002113 -0.591443 -0.806344
vn -0.002113 -0.591443 -0.806344
vn -0.002113 -0.591443 -0.806344
vn -0.160458 -0.377751 0.911897
vn -0.160458 -0.377751 0.911898
vn -0.160458 -0.377751 0.911898
vn -0.493581 -0.729031 -0.474227
vn -0.493581 -0.729031 -0.474227
vn -0.493581 -0.729031 -0.474227
vn 0.000310 0.999995 -0.003001
vn 0.000310 0.999995 -0.003001
vn 0.000310 0.999995 -0.003001
vn -0.000000 0.923891 0.382657
vn 0.000000 0.923891 0.382657
vn 0.000000 0.923891 0.382657
vn 0.012426 0.904083 0.427177
vn 0.012426 0.904083 0.427177
vn 0.012426 0.904083 0.427177
vn 0.000000 0.808435 -0.588585
vn 0.000000 0.808435 -0.588585
vn 0.000000 0.808435 -0.588585
vn -0.101410 0.833491 0.543146
vn -0.101410 0.833491 0.543146
vn -0.101410 0.833491 0.543146
vn -0.002137 0.526042 -0.850456
vn -0.002137 0.526042 -0.850456
vn -0.002137 0.526042 -0.850456
vn -0.060194 0.522597 0.850452
vn -0.060194 0.522597 0.850452
vn -0.060194 0.522597 0.850452
vn 0.000000 -0.837816 0.545953
vn 0.000000 -0.837816 0.545953
vn 0.000000 -0.837816 0.545953
vn -0.055610 0.348767 -0.935558
vn -0.055610 0.348767 -0.935558
vn -0.055610 0.348767 -0.935558
vn 0.121225 0.030197 0.992166
vn 0.121225 0.030197 0.992166
vn 0.121225 0.030197 0.992166
vn 0.944689 -0.148278 -0.292535
vn 0.944689 -0.148278 -0.292535
vn 0.944689 -0.148278 -0.292535
vn 0.000000 0.950025 -0.312175
vn 0.000000 0.950025 -0.312175
vn 0.000000 0.950025 -0.312175
vn -0.003895 0.999990 0.002134
vn -0.003895 0.999990 0.002134
vn -0.003895 0.999990 0.002134
vn 0.219389 0.031967 -0.975114
vn 0.219389 0.031967 -0.975114
vn 0.219389 0.031967 -0.975114
vn 0.000000 0.837816 -0.545953
vn 0.000000 0.837816 -0.545953
vn 0.000000 0.837816 -0.545953
vn -0.000002 0.523545 -0.851998
vn -0.000002 0.523545 -0.851998
vn -0.000002 0.523545 -0.851998
vn 0.870601 0.066054 -0.487535
vn 0.870601 0.066054 -0.487535
vn 0.870601 0.066054 -0.487535
vn -0.094999 0.877359 -0.470337
vn -0.094999 0.877359 -0.470337
vn -0.094999 0.877359 -0.470337
vn -0.254287 -0.022473 -0.966868
vn -0.254287 -0.022473 -0.966868
vn -0.254287 -0.022473 -0.966868
vn 0.817203 0.289080 0.498610
vn 0.817203 0.289080 0.498610
vn 0.817203 0.289081 0.498610
vn 0.878488 -0.017085 -0.477458
vn 0.878488 -0.017085 -0.477458
vn 0.878488 -0.017085 -0.477458
vn -0.593025 -0.607026 -0.529000
vn -0.593025 -0.607026 -0.529000
vn -0.593025 -0.607026 -0.529000
vn -0.100479 0.155432 -0.982723
vn -0.100479 0.155432 -0.982723
vn -0.100479 0.155432 -0.982723
vn -0.998328 0.019432 -0.054431
vn -0.998328 0.019432 -0.054431
vn -0.998328 0.019432 -0.054431
vn -0.850368 -0.087105 -0.518929
vn -0.850368 -0.087105 -0.518929
vn -0.850368 -0.087105 -0.518929
vn 0.999812 0.017063 0.009205
vn 0.999812 0.017063 0.009205
vn 0.999812 0.017063 0.009205
vn 0.362651 -0.038148 0.931144
vn 0.362651 -0.038148 0.931144
vn 0.362651 -0.038148 0.931144
vn -0.632857 -0.009265 -0.774213
vn -0.632857 -0.009265 -0.774213
vn -0.632857 -0.009265 -0.774213
vn -0.440294 -0.859728 -0.258860
vn -0.440294 -0.859728 -0.258860
vn -0.440294 -0.859728 -0.258861
vn -0.265902 -0.107223 -0.958018
vn -0.265902 -0.107223 -0.958018
vn -0.265902 -0.107223 -0.958018
vn -0.403362 -0.059745 -0.913088
vn -0.403362 -0.059745 -0.913088
vn -0.403362 -0.059745 -0.913088
vn 0.008528 -0.779285 0.626612
vn 0.008528 -0.779285 0.626612
vn 0.008528 -0.779285 0.626612
vn 0.042342 0.434185 -0.899828
vn 0.042342 0.434185 -0.899828
vn 0.042342 0.434185 -0.899828
vn -0.185998 0.020877 -0.982328
vn -0.185998 0.020877 -0.982328
vn -0.185998 0.020877 -0.982328
vn 0.930253 0.201346 -0.306739
vn 0.930253 0.201346 -0.306739
vn 0.930253 0.201346 -0.306739
vn 0.001881 -0.999998 -0.000958
vn 0.001881 -0.999998 -0.000958
vn 0.001881 -0.999998 -0.000958
vn 0.323047 -0.017395 0.946223
vn 0.323047 -0.017395 0.946223
vn 0.323047 -0.017395 0.946223
vn 0.633368 -0.332823 0.698623
vn 0.633368 -0.332823 0.698623
vn 0.633368 -0.332823 0.698623
vn 0.998986 -0.005047 -0.044734
vn 0.998986 -0.005047 -0.044734
vn 0.998986 -0.005047 -0.044734
vn -0.000137 -1.000000 0.000388
vn -0.000137 -1.000000 0.000388
vn -0.000137 -1.000000 0.000388
vn 0.929052 -0.006640 0.369889
vn 0.929052 -0.006640 0.369889
vn 0.929052 -0.006640 0.369889
vn -0.307749 0.019005 0.951278
vn -0.307749 0.019005 0.951278
vn -0.307749 0.019005 0.951278
vn -0.998038 0.052718 -0.033793
vn -0.998037 0.052718 -0.033793
vn -0.998037 0.052718 -0.033793
vn -0.814550 -0.275404 -0.510549
vn -0.814550 -0.275404 -0.510549
vn -0.814550 -0.275404 -0.510549
vn -0.999892 -0.008924 0.011711
vn -0.999892 -0.008924 0.011711
vn -0.999892 -0.008924 0.011711
vn 0.999605 0.027642 -0.005009
vn 0.999605 0.027642 -0.005009
vn 0.999605 0.027642 -0.005009
vn -0.132315 0.020236 0.991001
vn -0.132315 0.020236 0.991001
vn -0.132315 0.020236 0.991001
vn 0.681461 -0.730778 0.039679
vn 0.681461 -0.730778 0.039679
vn 0.681461 -0.730778 0.039679
vn -0.000008 0.019077 0.999818
vn -0.000008 0.019077 0.999818
vn -0.000008 0.019077 0.999818
vn -0.542634 -0.038410 -0.839090
vn -0.542634 -0.038410 -0.839090
vn -0.542634 -0.038410 -0.839090
vn 0.999696 -0.021250 -0.012513
vn 0.999696 -0.021250 -0.012513
vn 0.999696 -0.021250 -0.012513
vn 0.998501 -0.039472 -0.037906
vn 0.998501 -0.039472 -0.037906
vn 0.998501 -0.039472 -0.037906
vn -0.999924 0.008692 -0.008700
vn -0.999924 0.008692 -0.008700
vn -0.999924 0.008692 -0.008700
vn 0.890040 -0.433279 0.141767
vn 0.890040 -0.433279 0.141767
vn 0.890040 -0.433279 0.141767
vn 0.006758 0.821271 -0.570499
vn 0.006758 0.821271 -0.570499
vn 0.006758 0.821271 -0.570499
vn -0.926846 0.013039 0.375215
vn -0.926846 0.013039 0.375215
vn -0.926846 0.013039 0.375215
vn 0.486296 -0.704821 0.516472
vn 0.486296 -0.704821 0.516472
vn 0.486296 -0.704821 0.516472
vn -0.021035 0.722348 0.691209
vn -0.021035 0.722348 0.691209
vn -0.021035 0.722348 0.691209
vn -0.375702 -0.014707 -0.926624
vn -0.375702 -0.014707 -0.926624
vn -0.375702 -0.014707 -0.926624
vn 0.676234 -0.676643 -0.291312
vn 0.676234 -0.676643 -0.291312
vn 0.676234 -0.676642 -0.291312
vn 0.675102 -0.104280 0.730317
vn 0.675102 -0.104280 0.730317
vn 0.675102 -0.104280 0.730317
vn -0.995542 -0.002650 -0.094279
vn -0.995542 -0.002650 -0.094279
vn -0.995542 -0.002650 -0.094279
vn 0.999121 0.002429 0.041845
vn 0.999121 0.002429 0.041845
vn 0.999121 0.002429 0.041845
vn -0.906309 -0.074209 -0.416049
vn -0.906309 -0.074209 -0.416049
vn -0.906309 -0.074209 -0.416049
vn 0.244525 -0.126111 -0.961407
vn 0.244525 -0.126111 -0.961407
vn 0.244525 -0.126111 -0.961407
vn 0.054665 -0.524414 -0.849707
vn 0.054665 -0.524414 -0.849707
vn 0.054665 -0.524414 -0.849707
vn 0.705065 0.072264 0.705451
vn 0.705066 0.072264 0.705451
vn 0.705066 0.072264 0.705451
vn 0.999435 0.020428 -0.026683
vn 0.999435 0.020428 -0.026683
vn 0.999435 0.020428 -0.026683
vn -0.929088 -0.007360 -0.369787
vn -0.929088 -0.007360 -0.369787
vn -0.929088 -0.007360 -0.369787
vn 0.999741 0.013810 0.018113
vn 0.999741 0.013810 0.018113
vn 0.999741 0.013810 0.018113
vn -0.458894 -0.002735 -0.888487
vn -0.458894 -0.002735 -0.888487
vn -0.458894 -0.002735 -0.888487
vn 0.998194 0.018456 0.057166
vn 0.998194 0.018456 0.057166
vn 0.998194 0.018456 0.057166
vn -0.677218 0.068679 -0.732570
vn -0.677218 0.068679 -0.732570
vn -0.677218 0.068679 -0.732570
vn 0.125312 -0.031982 -0.991602
vn 0.125312 -0.031982 -0.991602
vn 0.125312 -0.031982 -0.991602
vn 0.616895 0.032332 -0.786381
vn 0.616895 0.032332 -0.786381
vn 0.616895 0.032332 -0.786381
vn 0.770095 0.005500 0.637905
vn 0.770095 0.005500 0.637905
vn 0.770095 0.005500 0.637905
vn 0.063019 -0.527602 0.847151
vn 0.063019 -0.527602 0.847151
vn 0.063019 -0.527602 0.847151
vn 0.998902 -0.011571 -0.045389
vn 0.998902 -0.011571 -0.045389
vn 0.998902 -0.011571 -0.045389
vn -0.503230 0.326826 -0.799965
vn -0.503230 0.326826 -0.799965
vn -0.503230 0.326826 -0.799965
vn 0.809530 -0.023496 -0.586608
vn 0.809530 -0.023496 -0.586608
vn 0.809530 -0.023496 -0.586608
vn 0.057598 0.637274 0.768482
vn 0.057598 0.637274 0.768482
vn 0.057597 0.637274 0.768482
vn 0.533103 0.759216 -0.373352
vn 0.533103 0.759216 -0.373352
vn 0.533103 0.759216 -0.373352
vn 0.012827 -0.463645 -0.885928
vn 0.012827 -0.463645 -0.885928
vn 0.012827 -0.463645 -0.885928
vn -0.485932 -0.873479 0.030065
vn -0.485932 -0.873479 0.030065
vn -0.485932 -0.873479 0.030065
vn 0.945578 0.260448 0.195063
vn 0.945578 0.260448 0.195063
vn 0.945578 0.260448 0.195063
vn 0.631567 0.418159 0.652890
vn 0.631567 0.418159 0.652890
vn 0.631567 0.418159 0.652890
vn -0.065310 -0.483757 -0.872762
vn -0.065310 -0.483757 -0.872762
vn -0.065310 -0.483757 -0.872762
vn -0.692420 0.011397 -0.721405
vn -0.692420 0.011397 -0.721405
vn -0.692419 0.011397 -0.721405
vn 0.237889 -0.489967 -0.838654
vn 0.237889 -0.489967 -0.838654
vn 0.237889 -0.489967 -0.838654
vn -0.972577 -0.081025 0.218013
vn -0.972577 -0.081025 0.218013
vn -0.972577 -0.081024 0.218010
vn -0.776136 -0.074444 -0.626156
vn -0.776136 -0.074444 -0.626156
vn -0.776136 -0.074444 -0.626156
vn -0.943252 0.004852 -0.332041
vn -0.943252 0.004852 -0.332041
vn -0.943252 0.004852 -0.332041
vn 0.039056 -0.999189 0.009841
vn 0.039056 -0.999189 0.009841
vn 0.039056 -0.999189 0.009841
vn -0.997840 -0.017519 -0.063309
vn -0.997840 -0.017519 -0.063309
vn -0.997840 -0.017519 -0.063309
vn 0.999788 -0.012505 -0.016359
vn 0.999788 -0.012505 -0.016359
vn 0.999788 -0.012505 -0.016359
vn 0.675083 -0.581610 -0.453865
vn 0.675083 -0.581610 -0.453865
vn 0.675083 -0.581610 -0.453865
vn 1.000000 0.000001 -0.000014
vn 1.000000 0.000001 -0.000014
vn 1.000000 0.000001 -0.000014
vn 0.990889 -0.133871 0.014776
vn 0.990889 -0.133871 0.014776
vn 0.990889 -0.133871 0.014776
vn -0.928541 0.085562 -0.361235
vn -0.928541 0.085562 -0.361235
vn -0.928541 0.085562 -0.361235
vn -0.475270 -0.015293 -0.879707
vn -0.475270 -0.015293 -0.879707
vn -0.475270 -0.015293 -0.879707
vn 0.639529 -0.014322 0.768634
vn 0.639529 -0.014322 0.768634
vn 0.639529 -0.014322 0.768634
vn -0.847847 -0.003583 0.530229
vn -0.847847 -0.003583 0.530229
vn -0.847847 -0.003583 0.530229
vn -0.828175 0.100811 0.551328
vn -0.828175 0.100811 0.551328
vn -0.828175 0.100812 0.551328
vn -0.985188 -0.153271 0.076891
vn -0.985188 -0.153271 0.076891
vn -0.985188 -0.153271 0.076891
vn 0.000054 -0.999995 -0.002993
vn 0.000054 -0.999996 -0.002993
vn 0.000054 -0.999995 -0.002993
vn -0.000138 1.000000 -0.000774
vn -0.000138 1.000000 -0.000774
vn -0.000138 1.000000 -0.000774
vn 0.706820 -0.510869 -0.489304
vn 0.706820 -0.510869 -0.489304
vn 0.706820 -0.510869 -0.489304
vn 0.000849 0.999999 -0.001105
vn 0.000849 0.999999 -0.001105
vn 0.000849 0.999999 -0.001105
vn 0.879032 -0.336144 -0.338096
vn 0.879032 -0.336145 -0.338097
vn 0.879032 -0.336144 -0.338096
vn -0.379374 -0.025433 0.924894
vn -0.379374 -0.025433 0.924894
vn -0.379374 -0.025433 0.924894
vn -0.125357 0.017931 0.991950
vn -0.125357 0.017931 0.991950
vn -0.125357 0.017931 0.991950
vn -0.940797 -0.324414 0.098266
vn -0.940797 -0.324414 0.098266
vn -0.940797 -0.324414 0.098266
vn 0.286645 -0.015254 0.957915
vn 0.286645 -0.015254 0.957915
vn 0.286645 -0.015254 0.957915
vn -0.296144 0.000000 0.955143
vn -0.296144 0.000000 0.955143
vn -0.296144 0.000000 0.955143
vn 0.435728 -0.008453 -0.900039
vn 0.435728 -0.008453 -0.900039
vn 0.435728 -0.008453 -0.900039
vn 0.064511 -0.007774 -0.997887
vn 0.064511 -0.007774 -0.997887
vn 0.064511 -0.007774 -0.997887
vn -0.000653 0.999998 -0.001834
vn -0.000653 0.999998 -0.001834
vn -0.000653 0.999998 -0.001834
vn -0.000133 -1.000000 -0.000292
vn -0.000133 -1.000000 -0.000292
vn -0.000133 -1.000000 -0.000292
vn -0.001310 0.999997 0.001999
vn -0.001310 0.999997 0.001999
vn -0.001310 0.999997 0.001999
vn 0.593688 -0.281706 -0.753775
vn 0.593688 -0.281706 -0.753775
vn 0.593688 -0.281706 -0.753775
vn 0.815961 0.035846 0.576995
vn 0.815961 0.035846 0.576995
vn 0.815961 0.035846 0.576995
vn 0.576780 0.754996 -0.311938
vn 0.576780 0.754996 -0.311938
vn 0.576780 0.754996 -0.311938
vn 0.828900 -0.196731 -0.523662
vn 0.828900 -0.196731 -0.523662
vn 0.828900 -0.196731 -0.523662
vn -0.517958 -0.014189 -0.855289
vn -0.517955 -0.014194 -0.855290
vn -0.517958 -0.014189 -0.855289
vn 0.000584 1.000000 0.000634
vn 0.000584 1.000000 0.000634
vn 0.000584 1.000000 0.000634
vn -0.111501 -0.725362 -0.679278
vn -0.111501 -0.725362 -0.679278
vn -0.111501 -0.725362 -0.679278
vn -0.998049 0.031428 -0.053948
vn -0.998049 0.031428 -0.053948
vn -0.998049 0.031428 -0.053948
vn -0.219492 -0.009386 0.975569
vn -0.219492 -0.009386 0.975569
vn -0.219492 -0.009386 0.975569
vn -0.288406 0.000731 -0.957508
vn -0.288406 0.000731 -0.957508
vn -0.288406 0.000731 -0.957508
vn 0.466362 -0.025594 0.884224
vn 0.466362 -0.025594 0.884224
vn 0.466362 -0.025594 0.884224
vn 0.254207 -0.033476 0.966570
vn 0.254207 -0.033476 0.966570
vn 0.254207 -0.033476 0.966570
vn -0.839163 -0.007418 0.543830
vn -0.839163 -0.007418 0.543830
vn -0.839163 -0.007418 0.543830
vn 0.776925 0.001271 -0.629592
vn 0.776925 0.001271 -0.629592
vn 0.776925 0.001271 -0.629592
vn -0.999974 0.004381 -0.005737
vn -0.999974 0.004381 -0.005737
vn -0.999974 0.004381 -0.005737
vn 0.000006 1.000000 0.000016
vn 0.000006 1.000000 0.000016
vn 0.000006 1.000000 0.000016
vn -0.557547 -0.644053 -0.523772
vn -0.557547 -0.644053 -0.523772
vn -0.557547 -0.644053 -0.523772
vn 0.001453 0.999999 -0.000172
vn 0.001453 0.999999 -0.000172
vn 0.001453 0.999999 -0.000172
vn -0.995064 -0.032481 -0.093768
vn -0.995064 -0.032481 -0.093768
vn -0.995064 -0.032481 -0.093768
vn 0.009705 0.712194 -0.701916
vn 0.009705 0.712194 -0.701916
vn 0.009705 0.712194 -0.701916
vn 0.056108 -0.395105 0.916921
vn 0.056108 -0.395105 0.916921
vn 0.056108 -0.395105 0.916921
vn 0.868929 -0.351255 0.348686
vn 0.868929 -0.351255 0.348686
vn 0.868929 -0.351255 0.348686
vn 0.963619 0.205159 0.171312
vn 0.963619 0.205159 0.171312
vn 0.963619 0.205159 0.171312
vn -0.011839 0.298776 -0.954250
vn -0.011839 0.298776 -0.954250
vn -0.011839 0.298776 -0.954250
vn -0.029591 -0.262545 -0.964466
vn -0.029591 -0.262545 -0.964466
vn -0.029591 -0.262545 -0.964466
vn 0.940208 0.072184 0.332864
vn 0.940208 0.072184 0.332864
vn 0.940208 0.072184 0.332864
vn -0.962069 0.162969 -0.218780
vn -0.962069 0.162969 -0.218780
vn -0.962069 0.162969 -0.218780
vn 0.682478 -0.094681 0.724747
vn 0.682478 -0.094681 0.724747
vn 0.682478 -0.094681 0.724747
vn -0.272048 -0.068860 -0.959817
vn -0.272048 -0.068860 -0.959817
vn -0.272048 -0.068860 -0.959817
vn 0.986476 0.013649 -0.163335
vn 0.986476 0.013649 -0.163335
vn 0.986476 0.013649 -0.163335
vn 0.001188 0.999999 0.000274
vn 0.001188 0.999999 0.000274
vn 0.001188 0.999999 0.000274
vn 0.001520 0.999997 0.001623
vn 0.001520 0.999997 0.001623
vn 0.001520 0.999997 0.001623
vn -0.993881 0.018891 0.108828
vn -0.993881 0.018891 0.108828
vn -0.993881 0.018891 0.108828
vn -0.607797 0.014471 0.793961
vn -0.607797 0.014471 0.793961
vn -0.607797 0.014471 0.793961
vn 0.882958 0.315508 0.347621
vn 0.882958 0.315508 0.347621
vn 0.882958 0.315508 0.347621
vn 0.042757 0.515295 0.855946
vn 0.042757 0.515295 0.855945
vn 0.042757 0.515295 0.855946
vn 0.032454 0.992376 -0.118897
vn 0.032454 0.992376 -0.118897
vn 0.032454 0.992376 -0.118897
vn -0.014123 0.128310 0.991634
vn -0.014123 0.128310 0.991634
vn -0.014123 0.128310 0.991634
vn -0.446700 -0.750487 0.487061
vn -0.446700 -0.750487 0.487061
vn -0.446700 -0.750487 0.487061
vn 0.515193 0.153119 0.843286
vn 0.515193 0.153119 0.843286
vn 0.515193 0.153119 0.843286
vn 0.876940 -0.409136 0.252159
vn 0.876940 -0.409136 0.252159
vn 0.876940 -0.409136 0.252159
vn -0.950802 -0.216390 -0.221699
vn -0.950802 -0.216390 -0.221699
vn -0.950802 -0.216390 -0.221699
vn -0.963162 0.189830 -0.190484
vn -0.963162 0.189830 -0.190484
vn -0.963162 0.189830 -0.190484
vn -0.538302 0.129842 -0.832690
vn -0.538302 0.129842 -0.832690
vn -0.538302 0.129842 -0.832690
vn 0.819924 -0.238461 -0.520444
vn 0.819924 -0.238461 -0.520444
vn 0.819924 -0.238461 -0.520444
vn -0.852844 -0.015840 -0.521926
vn -0.852844 -0.015840 -0.521926
vn -0.852844 -0.015840 -0.521926
vn 0.163886 0.848394 0.503357
vn 0.163886 0.848394 0.503357
vn 0.163886 0.848394 0.503357
vn 0.779790 0.001690 -0.626039
vn 0.779790 0.001690 -0.626039
vn 0.779790 0.001690 -0.626039
vn 0.831767 0.415604 0.368018
vn 0.831767 0.415604 0.368018
vn 0.831767 0.415604 0.368018
vn -0.126813 0.876359 0.464664
vn -0.126814 0.876359 0.464664
vn -0.126814 0.876359 0.464664
vn 0.996520 0.035183 -0.075568
vn 0.996520 0.035183 -0.075569
vn 0.996520 0.035183 -0.075569
vn 0.997504 -0.053004 -0.046643
vn 0.997504 -0.053004 -0.046643
vn 0.997504 -0.053004 -0.046643
vn 0.882414 -0.061920 0.466382
vn 0.882414 -0.061920 0.466382
vn 0.882414 -0.061920 0.466382
vn 0.000000 -0.784312 0.620367
vn 0.000000 -0.784312 0.620367
vn 0.000000 -0.784312 0.620367
vn 0.000759 0.590652 0.806926
vn 0.000759 0.590652 0.806926
vn 0.000759 0.590652 0.806926
vn 0.002966 0.593213 -0.805040
vn 0.002966 0.593213 -0.805040
vn 0.002966 0.593213 -0.805040
vn -0.283372 -0.885995 0.367033
vn -0.283372 -0.885995 0.367033
vn -0.283372 -0.885995 0.367033
vn -0.151651 -0.866494 -0.475594
vn -0.151651 -0.866494 -0.475594
vn -0.151651 -0.866494 -0.475594
vn 0.000000 -0.787682 -0.616082
vn -0.000000 -0.787682 -0.616082
vn 0.000000 -0.787682 -0.616082
vn -0.998091 -0.007675 0.061275
vn -0.998091 -0.007675 0.061275
vn -0.998091 -0.007675 0.061275
vn 0.039153 -0.893713 -0.446928
vn 0.039153 -0.893713 -0.446928
vn 0.039153 -0.893713 -0.446928
vn -0.000688 -0.525192 0.850984
vn -0.000688 -0.525192 0.850984
vn -0.000688 -0.525192 0.850984
vn -0.244963 -0.812290 -0.529319
vn -0.244963 -0.812290 -0.529319
vn -0.244963 -0.812290 -0.529319
vn -0.000005 -0.524394 0.851476
vn -0.000005 -0.524394 0.851476
vn -0.000005 -0.524394 0.851476
vn -0.996202 0.064895 -0.058060
vn -0.996202 0.064895 -0.058060
vn -0.996202 0.064895 -0.058060
vn -0.083572 -0.222166 0.971421
vn -0.083572 -0.222166 0.971421
vn -0.083572 -0.222166 0.971421
vn -0.625626 -0.230014 0.745443
vn -0.625626 -0.230014 0.745443
vn -0.625626 -0.230014 0.745443
vn -0.374305 -0.910163 0.177480
vn -0.374305 -0.910163 0.177480
vn -0.374305 -0.910163 0.177480
vn 0.000018 0.837770 -0.546024
vn 0.000018 0.837770 -0.546024
vn 0.000018 0.837770 -0.546024
vn 0.000014 -0.837780 0.546008
vn 0.000014 -0.837780 0.546008
vn 0.000014 -0.837780 0.546008
vn 0.000000 0.589767 -0.807573
vn 0.000000 0.589767 -0.807573
vn 0.000000 0.589767 -0.807573
vn 0.000000 0.589769 0.807572
vn 0.000000 0.589769 0.807572
vn -0.000000 0.589769 0.807572
vn 0.000000 -0.588981 0.808147
vn 0.000000 -0.588981 0.808147
vn 0.000000 -0.588981 0.808147
vn 0.000000 -0.588981 -0.808147
vn 0.000000 -0.588981 -0.808147
vn -0.000000 -0.588981 -0.808147
vn 0.000843 -0.999998 0.002030
vn 0.000843 -0.999998 0.002030
vn 0.000843 -0.999998 0.002030
vn -0.361855 -0.929801 -0.067315
vn -0.361855 -0.929801 -0.067315
vn -0.361855 -0.929801 -0.067315
vn 0.089331 0.826060 0.556458
vn 0.089331 0.826060 0.556457
vn 0.089331 0.826060 0.556458
vn 0.000000 -0.933432 0.358755
vn 0.000000 -0.933432 0.358755
vn 0.000000 -0.933432 0.358755
vn 0.375619 0.386929 -0.842138
vn 0.375619 0.386928 -0.842138
vn 0.375619 0.386929 -0.842138
vn 0.999871 -0.015406 -0.004639
vn 0.999871 -0.015406 -0.004639
vn 0.999871 -0.015406 -0.004639
vn -0.145326 -0.978114 -0.148906
vn -0.145326 -0.978114 -0.148906
vn -0.145326 -0.978114 -0.148906
vn 0.978164 -0.103945 -0.179973
vn 0.978164 -0.103945 -0.179973
vn 0.978164 -0.103945 -0.179973
vn 0.828856 -0.219180 -0.514741
vn 0.828856 -0.219180 -0.514741
vn 0.828856 -0.219180 -0.514741
vn 0.401884 0.369759 0.837716
vn 0.401884 0.369759 0.837716
vn 0.401884 0.369759 0.837716
vn 0.317796 0.947501 -0.035326
vn 0.317796 0.947501 -0.035326
vn 0.317796 0.947501 -0.035326
vn 0.675579 0.000054 -0.737288
vn 0.675579 0.000054 -0.737288
vn 0.675579 0.000054 -0.737288
vn 0.184256 0.856144 0.482770
vn 0.184256 0.856144 0.482770
vn 0.184256 0.856144 0.482770
vn 0.778509 -0.019288 0.627337
vn 0.778509 -0.019288 0.627337
vn 0.778509 -0.019288 0.627337
vn 0.125016 -0.031902 -0.991642
vn 0.125016 -0.031902 -0.991642
vn 0.125016 -0.031902 -0.991642
vn 0.379482 0.009062 -0.925155
vn 0.379482 0.009062 -0.925155
vn 0.379482 0.009062 -0.925155
vn 0.000036 0.999999 -0.001244
vn 0.000036 0.999999 -0.001244
vn 0.000036 0.999999 -0.001244
vn -0.009683 -0.999779 0.018677
vn -0.009683 -0.999779 0.018677
vn -0.009683 -0.999779 0.018677
vn -0.751188 0.104921 -0.651696
vn -0.751188 0.104921 -0.651696
vn -0.751188 0.104921 -0.651697
vn -0.240539 0.970629 -0.004438
vn -0.240539 0.970629 -0.004438
vn -0.240539 0.970629 -0.004438
vn 0.482451 0.087041 0.871588
vn 0.482451 0.087041 0.871587
vn 0.482451 0.087041 0.871587
vn -0.859288 -0.347337 -0.375475
vn -0.859288 -0.347337 -0.375476
vn -0.859288 -0.347337 -0.375475
vn -0.617777 0.570333 -0.541362
vn -0.617777 0.570333 -0.541362
vn -0.617777 0.570333 -0.541362
vn -0.154907 -0.963928 -0.216441
vn -0.154907 -0.963928 -0.216441
vn -0.154907 -0.963928 -0.216441
vn -0.002637 0.999991 0.003312
vn -0.002637 0.999991 0.003312
vn -0.002637 0.999991 0.003312
vn -0.887258 -0.019331 0.460868
vn -0.887258 -0.019331 0.460868
vn -0.887258 -0.019331 0.460868
vn -0.675531 -0.012016 0.737234
vn -0.675531 -0.012016 0.737234
vn -0.675531 -0.012016 0.737234
vn 0.679128 0.007524 0.733982
vn 0.679128 0.007524 0.733982
vn 0.679128 0.007524 0.733982
vn 0.595325 0.022443 0.803172
vn 0.595325 0.022443 0.803172
vn 0.595324 0.022443 0.803172
vn 0.574384 -0.028806 -0.818079
vn 0.574384 -0.028806 -0.818079
vn 0.574384 -0.028806 -0.818079
vn 0.921913 0.016635 -0.387039
vn 0.921913 0.016635 -0.387039
vn 0.921913 0.016635 -0.387039
vn 0.956826 -0.024318 0.289643
vn 0.956826 -0.024318 0.289643
vn 0.956826 -0.024318 0.289643

f 4//1 3//2 5//3
f 6//4 7//5 8//6
f 9//7 10//8 11//9
f 12//10 13//11 14//12
f 15//13 5//14 16//15
f 17//16 18//17 19//18
f 6//19 20//20 7//21
f 21//22 22//23 14//24
f 23//25 22//26 21//27
f 24//28 21//29 14//30
f 25//31 26//32 27//33
f 28//34 29//35 30//36
f 31//37 32//38 33//39
f 34//40 35//41 36//42
f 37//43 38//44 39//45
f 37//46 39//47 40//48
f 41//49 42//50 43//51
f 44//52 45//53 46//54
f 26//55 25//56 47//57
f 45//58 28//59 46//60
f 48//61 49//62 50//63
f 51//64 52//65 53//66
f 54//67 55//68 56//69
f 57//70 33//71 58//72
f 59//73 60//74 61//75
f 21//76 8//77 62//78
f 55//79 23//80 63//81
f 59//82 61//83 65//84
f 25//85 65//86 47//87
f 62//88 8//89 7//90
f 43//91 42//92 66//93
f 52//94 67//95 68//96
f 69//97 70//98 71//99
f 72//100 73//101 74//102
f 75//103 31//104 76//105
f 7//106 77//107 78//108
f 66//109 31//110 70//111
f 76//112 71//113 70//114
f 44//115 79//116 80//117
f 56//118 81//119 82//120
f 1//121 83//122 82//123
f 84//124 32//125 85//126
f 31//127 86//128 70//129
f 71//130 52//131 87//132
f 88//133 89//134 90//135
f 53//136 52//137 91//138
f 55//139 92//140 93//141
f 6//142 8//143 94//144
f 95//145 72//146 17//147
f 96//148 34//149 67//150
f 97//151 98//152 88//153
f 95//154 15//155 73//156
f 22//157 54//158 63//159
f 4//160 5//161 99//162
f 22//163 23//164 54//165
f 31//166 66//167 85//168
f 76//169 86//170 75//171
f 59//172 25//173 100//174
f 101//175 61//176 60//177
f 102//178 34//179 36//180
f 103//181 95//182 19//183
f 98//184 104//185 96//186
f 105//187 67//188 52//189
f 32//190 43//191 33//192
f 106//193 57//194 97//195
f 29//196 45//197 107//198
f 108//199 24//200 20//201
f 9//202 53//203 91//204
f 17//205 109//206 73//207
f 90//208 60//209 88//210
f 104//211 110//212 96//213
f 93//214 92//215 82//216
f 111//217 112//218 113//219
f 67//220 114//221 89//222
f 108//223 50//224 40//225
f 39//226 48//227 94//228
f 99//229 115//230 19//231
f 77//232 116//233 78//234
f 117//235 118//236 85//237
f 56//238 83//239 81//240
f 26//241 61//242 101//243
f 16//244 4//245 99//246
f 28//247 79//248 44//249
f 83//250 93//251 82//252
f 15//253 95//254 103//255
f 67//256 53//257 114//258
f 102//259 87//260 68//261
f 62//262 14//263 23//264
f 119//265 2//266 120//267
f 88//268 98//269 89//270
f 11//271 106//272 97//273
f 121//274 10//275 91//276
f 112//277 14//278 78//279
f 110//280 122//281 96//282
f 123//283 11//284 60//285
f 52//286 124//287 125//288
f 107//289 12//290 79//291
f 43//292 69//293 33//294
f 97//295 110//296 104//297
f 116//298 112//299 78//300
f 1//301 16//302 83//303
f 113//304 112//305 116//306
f 1//307 126//308 16//309
f 9//310 114//311 53//312
f 99//313 18//314 16//315
f 19//316 95//317 17//318
f 59//319 100//320 123//321
f 43//322 84//323 117//324
f 79//325 112//326 80//327
f 48//328 39//329 127//330
f 108//331 94//332 48//333
f 76//334 70//335 86//336
f 71//337 124//338 52//339
f 122//340 71//341 96//342
f 108//343 21//344 24//345
f 108//346 8//347 21//348
f 12//349 45//350 13//351
f 63//352 54//353 92//354
f 87//355 34//356 71//357
f 111//358 80//359 112//360
f 35//361 109//362 36//363
f 128//364 97//365 58//366
f 36//367 129//368 102//369
f 102//370 68//371 34//372
f 108//373 40//374 8//375
f 56//376 55//377 83//378
f 28//379 64//380 29//381
f 14//382 63//383 23//384
f 55//385 63//386 92//387
f 83//388 55//389 93//390
f 56//391 92//392 54//393
f 35//394 74//395 109//396
f 105//397 53//398 67//399
f 122//400 69//401 71//402
f 60//403 59//404 123//405
f 14//406 112//407 12//408
f 105//409 52//410 51//411
f 81//412 16//413 5//414
f 76//415 125//416 124//417
f 57//418 106//419 10//420
f 54//421 23//422 55//423
f 68//424 87//425 52//426
f 67//427 89//428 96//429
f 34//430 68//431 67//432
f 13//433 24//434 14//435
f 78//436 14//437 62//438
f 40//439 50//440 130//441
f 73//442 109//443 74//444
f 76//445 31//446 125//447
f 73//448 15//449 18//450
f 18//451 99//452 19//453
f 60//454 11//455 97//456
f 24//457 77//458 20//459
f 97//460 88//461 60//462
f 69//463 43//464 70//465
f 52//466 131//467 91//468
f 125//469 131//470 52//471
f 115//472 99//473 103//474
f 123//475 114//476 9//477
f 114//478 90//479 89//480
f 121//481 131//482 125//483
f 108//484 20//485 94//486
f 18//487 15//488 16//489
f 81//490 83//491 16//492
f 17//493 73//494 18//495
f 129//496 36//497 109//498
f 128//499 110//500 97//501
f 116//502 13//503 113//504
f 39//505 94//506 40//507
f 116//508 77//509 24//510
f 4//511 126//512 3//513
f 104//514 98//515 97//516
f 101//517 60//518 114//519
f 10//520 125//521 31//522
f 100//523 114//524 123//525
f 10//526 121//527 125//528
f 31//529 33//530 57//531
f 4//532 16//533 126//534
f 13//535 80//536 113//537
f 7//538 78//539 62//540
f 69//541 110//542 128//543
f 80//544 45//545 44//546
f 15//547 103//548 99//549
f 57//550 58//551 97//552
f 90//553 114//554 60//555
f 30//556 79//557 132//558
f 130//559 127//560 37//561
f 117//562 85//563 42//564
f 30//565 107//566 79//567
f 100//568 133//569 101//570
f 133//571 27//572 101//573
f 107//574 45//575 12//576
f 32//577 31//578 85//579
f 134//580 127//581 130//582
f 118//583 84//584 85//585
f 134//586 130//587 49//588
f 11//589 10//590 106//591
f 98//592 96//593 89//594
f 2//595 1//596 135//597
f 135//598 1//599 120//600
f 61//601 47//602 65//603
f 134//604 49//605 48//606
f 41//607 117//608 42//609
f 127//610 38//611 37//612
f 28//613 30//614 132//615
f 133//616 25//617 27//618
f 92//619 56//620 82//621
f 114//622 100//623 101//624
f 110//625 69//626 122//627
f 48//628 50//629 108//630
f 20//631 77//632 7//633
f 32//634 84//635 43//636
f 82//637 119//638 1//639
f 79//640 12//641 112//642
f 33//643 69//644 128//645
f 24//646 13//647 116//648
f 8//649 40//650 94//651
f 74//652 129//653 72//654
f 45//655 80//656 13//657
f 3//658 81//659 5//660
f 102//661 35//662 87//663
f 129//664 35//665 102//666
f 87//667 35//668 34//669
f 63//670 14//671 22//672
f 76//673 124//674 71//675
f 43//676 66//677 70//678
f 96//679 71//680 34//681
f 57//682 10//683 31//684
f 10//685 9//686 91//687
f 119//688 120//689 1//690
f 23//691 21//692 62//693
f 72//694 109//695 17//696
f 72//697 129//698 109//699
f 82//700 81//701 119//702
f 3//703 119//704 81//705
f 129//706 74//707 35//708
f 72//709 95//710 73//711
f 99//712 5//713 15//714

