<?xml version="1.0" encoding="utf-8"?>
<COLLADA version="1.4.0" xmlns="http://www.collada.org/2005/11/COLLADASchema">
	<asset>
		<contributor>
			<author>NxuStream2 converter - http://www.ageia.com</author>
			<authoring_tool>PhysX Rocket, PhysX Viewer, or CreateDynamics</authoring_tool>
			<comments>questions to: jratcliff@ageia.com</comments>
			<copyright></copyright>
			<source_data>chair_gothic_tilted</source_data>
		</contributor>
		<unit meter="1" name="meter"/>
		<up_axis>Y_UP</up_axis>
	</asset>
   <library_materials>
      <material id="Material" name="Material">
         <instance_effect url="#Material-fx"></instance_effect>
      </material>
   </library_materials>
   <library_effects>
      <effect id="Material-fx" name="Material">
         <profile_COMMON>
            <technique id="Material-fx-COMMON" sid="COMMON">
               <phong>
                  <ambient>
                     <color>0.803922 0.588235 0.92549 1</color>
                  </ambient>
                  <diffuse>
                     <color>0.803922 0.588235 0.92549 1</color>
                  </diffuse>
                  <specular>
                     <color>0.631373 0.631373 0.631373 1</color>
                  </specular>
                  <shininess>
                     <float>1</float>
                  </shininess>
                  <reflective>
                     <color>0 0 0 1</color>
                  </reflective>
                  <transparent>
                     <color>1 1 1 1</color>
                  </transparent>
                  <transparency>
                     <float>0</float>
                  </transparency>
               </phong>
           </technique>
         </profile_COMMON>
      </effect>
   </library_effects>
  <library_geometries>
    <geometry id="/tmp/buildd/ros-hydro-pr2-description-1.11.4-0precise-20150329-0527/meshes/shoulder_v0/convex/shoulder_pan_0-Mesh" name="/tmp/buildd/ros-hydro-pr2-description-1.11.4-0precise-20150329-0527/meshes/shoulder_v0/convex/shoulder_pan_0-Mesh">
      <convex_mesh>
        <source id="/tmp/buildd/ros-hydro-pr2-description-1.11.4-0precise-20150329-0527/meshes/shoulder_v0/convex/shoulder_pan_0-Position">
          <float_array count="36" id="/tmp/buildd/ros-hydro-pr2-description-1.11.4-0precise-20150329-0527/meshes/shoulder_v0/convex/shoulder_pan_0-Position-array">
            0.138320386 0.079386517 0.118573189  0.184576005 0.079334997 0.098470002  0.138320386 0.091643021 0.119365931  0.137701824 0.126029402 -0.073193967  
            0.137701824 0.079961844 -0.122294851  0.138320386 0.123220496 0.108436689  0.193874002 0.123179004 0.066757001  0.201373994 0.125990003 -0.040391002  
            0.144362003 0.123277001 -0.109026  0.225773007 0.079354003 0.026249001  0.224163994 0.079392001 -0.029159  0.196522996 0.079380997 -0.085349001  
          </float_array>
          <technique_common>
            <accessor count="12" source="#/tmp/buildd/ros-hydro-pr2-description-1.11.4-0precise-20150329-0527/meshes/shoulder_v0/convex/shoulder_pan_0-Position-array" stride="3">
              <param name="X" type="float"/>
              <param name="Y" type="float"/>
              <param name="Z" type="float"/>
            </accessor>
    		   </technique_common>
				 </source>
   		 <vertices id="/tmp/buildd/ros-hydro-pr2-description-1.11.4-0precise-20150329-0527/meshes/shoulder_v0/convex/shoulder_pan_0-Vertex">
					<input semantic="POSITION" source="#/tmp/buildd/ros-hydro-pr2-description-1.11.4-0precise-20150329-0527/meshes/shoulder_v0/convex/shoulder_pan_0-Position"/>
				</vertices>
				<triangles material="Material" count="20">
					<input offset="0" semantic="VERTEX" source="#/tmp/buildd/ros-hydro-pr2-description-1.11.4-0precise-20150329-0527/meshes/shoulder_v0/convex/shoulder_pan_0-Vertex"/>
           <p>
             0 1 2  3 4 0  3 0 2  5 2 1  
             5 1 6  5 3 2  5 7 3  5 6 7  
             8 4 3  8 3 7  9 10 7  9 7 6  
             9 6 1  11 10 9  11 9 1  11 4 8  
             11 7 10  11 8 7  11 1 0  11 0 4  
           </p>
				</triangles>
      </convex_mesh>
		</geometry>
    <geometry id="/tmp/buildd/ros-hydro-pr2-description-1.11.4-0precise-20150329-0527/meshes/shoulder_v0/convex/shoulder_pan_1-Mesh" name="/tmp/buildd/ros-hydro-pr2-description-1.11.4-0precise-20150329-0527/meshes/shoulder_v0/convex/shoulder_pan_1-Mesh">
      <convex_mesh>
        <source id="/tmp/buildd/ros-hydro-pr2-description-1.11.4-0precise-20150329-0527/meshes/shoulder_v0/convex/shoulder_pan_1-Position">
          <float_array count="36" id="/tmp/buildd/ros-hydro-pr2-description-1.11.4-0precise-20150329-0527/meshes/shoulder_v0/convex/shoulder_pan_1-Position-array">
            0.139781386 -0.125462279 0.093552396  0.167383999 -0.125170007 0.091022998  0.139781386 -0.079405658 0.119269051  0.190323994 -0.123767003 -0.074395001  
            0.210576996 -0.079360001 -0.066063002  0.136671647 -0.096080557 -0.119508214  0.136671647 -0.123323642 -0.109132946  0.213917002 -0.120296001 0.035974  
            0.192465007 -0.079337999 0.089613996  0.228695005 -0.079411 0.01283  0.136671647 -0.079340719 -0.118251421  0.223456994 -0.11434 -0.012252  
          </float_array>
          <technique_common>
            <accessor count="12" source="#/tmp/buildd/ros-hydro-pr2-description-1.11.4-0precise-20150329-0527/meshes/shoulder_v0/convex/shoulder_pan_1-Position-array" stride="3">
              <param name="X" type="float"/>
              <param name="Y" type="float"/>
              <param name="Z" type="float"/>
            </accessor>
    		   </technique_common>
				 </source>
   		 <vertices id="/tmp/buildd/ros-hydro-pr2-description-1.11.4-0precise-20150329-0527/meshes/shoulder_v0/convex/shoulder_pan_1-Vertex">
					<input semantic="POSITION" source="#/tmp/buildd/ros-hydro-pr2-description-1.11.4-0precise-20150329-0527/meshes/shoulder_v0/convex/shoulder_pan_1-Position"/>
				</vertices>
				<triangles material="Material" count="20">
					<input offset="0" semantic="VERTEX" source="#/tmp/buildd/ros-hydro-pr2-description-1.11.4-0precise-20150329-0527/meshes/shoulder_v0/convex/shoulder_pan_1-Vertex"/>
           <p>
             0 1 2  3 1 0  4 3 5  6 5 3  
             6 3 0  6 0 2  7 1 3  8 7 9  
             8 2 1  8 1 7  8 9 4  10 2 8  
             10 8 4  10 5 6  10 6 2  10 4 5  
             11 9 7  11 7 3  11 3 4  11 4 9  
           </p>
				</triangles>
      </convex_mesh>
		</geometry>
    <geometry id="/tmp/buildd/ros-hydro-pr2-description-1.11.4-0precise-20150329-0527/meshes/shoulder_v0/convex/shoulder_pan_2-Mesh" name="/tmp/buildd/ros-hydro-pr2-description-1.11.4-0precise-20150329-0527/meshes/shoulder_v0/convex/shoulder_pan_2-Mesh">
      <convex_mesh>
        <source id="/tmp/buildd/ros-hydro-pr2-description-1.11.4-0precise-20150329-0527/meshes/shoulder_v0/convex/shoulder_pan_2-Position">
          <float_array count="36" id="/tmp/buildd/ros-hydro-pr2-description-1.11.4-0precise-20150329-0527/meshes/shoulder_v0/convex/shoulder_pan_2-Position-array">
            0.050867762 0.000016733 0.141945839  0.058424097 0.000016733 0.14194636  0.050867762 0.117189035 0.141952679  0.050867762 0.073657639 -0.174657494  
            0.138320386 0.091643021 0.119365931  0.061713848 0.000028347 -0.129542947  0.050867762 0.126088694 -0.120187908  0.138320386 0.123220496 0.108436689  
            0.137701824 0.12348076 -0.109605037  0.137701824 0.079348296 -0.122262254  0.050867762 0.098803103 -0.174657494  0.050867762 0.000028347 -0.127474368  
          </float_array>
          <technique_common>
            <accessor count="12" source="#/tmp/buildd/ros-hydro-pr2-description-1.11.4-0precise-20150329-0527/meshes/shoulder_v0/convex/shoulder_pan_2-Position-array" stride="3">
              <param name="X" type="float"/>
              <param name="Y" type="float"/>
              <param name="Z" type="float"/>
            </accessor>
    		   </technique_common>
				 </source>
   		 <vertices id="/tmp/buildd/ros-hydro-pr2-description-1.11.4-0precise-20150329-0527/meshes/shoulder_v0/convex/shoulder_pan_2-Vertex">
					<input semantic="POSITION" source="#/tmp/buildd/ros-hydro-pr2-description-1.11.4-0precise-20150329-0527/meshes/shoulder_v0/convex/shoulder_pan_2-Position"/>
				</vertices>
				<triangles material="Material" count="20">
					<input offset="0" semantic="VERTEX" source="#/tmp/buildd/ros-hydro-pr2-description-1.11.4-0precise-20150329-0527/meshes/shoulder_v0/convex/shoulder_pan_2-Vertex"/>
           <p>
             0 1 2  2 3 0  4 2 1  5 1 0  
             6 3 2  7 8 6  7 6 2  7 2 4  
             9 8 7  9 7 4  9 5 3  9 4 1  
             9 1 5  10 8 9  10 9 3  10 3 6  
             10 6 8  11 0 3  11 3 5  11 5 0  
           </p>
				</triangles>
      </convex_mesh>
		</geometry>
    <geometry id="/tmp/buildd/ros-hydro-pr2-description-1.11.4-0precise-20150329-0527/meshes/shoulder_v0/convex/shoulder_pan_3-Mesh" name="/tmp/buildd/ros-hydro-pr2-description-1.11.4-0precise-20150329-0527/meshes/shoulder_v0/convex/shoulder_pan_3-Mesh">
      <convex_mesh>
        <source id="/tmp/buildd/ros-hydro-pr2-description-1.11.4-0precise-20150329-0527/meshes/shoulder_v0/convex/shoulder_pan_3-Position">
          <float_array count="36" id="/tmp/buildd/ros-hydro-pr2-description-1.11.4-0precise-20150329-0527/meshes/shoulder_v0/convex/shoulder_pan_3-Position-array">
            0.050867762 -0.116910383 0.141949415  0.050867762 0.000016733 0.141945839  0.050867762 -0.094399683 -0.174657494  0.058424097 0.000016733 0.14194636  
            0.061713848 0.000028347 -0.129542947  0.136671647 -0.079340719 -0.118251421  0.136671647 -0.123323642 -0.109132946  0.139781386 -0.12636514 -0.016352409  
            0.050867762 -0.125398964 -0.130237028  0.139781386 -0.125462279 0.093552396  0.139781386 -0.096241415 0.118813165  0.139781386 -0.079405658 0.119269051  
          </float_array>
          <technique_common>
            <accessor count="12" source="#/tmp/buildd/ros-hydro-pr2-description-1.11.4-0precise-20150329-0527/meshes/shoulder_v0/convex/shoulder_pan_3-Position-array" stride="3">
              <param name="X" type="float"/>
              <param name="Y" type="float"/>
              <param name="Z" type="float"/>
            </accessor>
    		   </technique_common>
				 </source>
   		 <vertices id="/tmp/buildd/ros-hydro-pr2-description-1.11.4-0precise-20150329-0527/meshes/shoulder_v0/convex/shoulder_pan_3-Vertex">
					<input semantic="POSITION" source="#/tmp/buildd/ros-hydro-pr2-description-1.11.4-0precise-20150329-0527/meshes/shoulder_v0/convex/shoulder_pan_3-Position"/>
				</vertices>
				<triangles material="Material" count="20">
					<input offset="0" semantic="VERTEX" source="#/tmp/buildd/ros-hydro-pr2-description-1.11.4-0precise-20150329-0527/meshes/shoulder_v0/convex/shoulder_pan_3-Vertex"/>
           <p>
             0 1 2  1 0 3  4 2 1  4 1 3  
             5 2 4  6 2 5  6 5 7  8 6 7  
             8 0 2  8 2 6  9 0 8  9 8 7  
             9 7 10  9 10 0  11 10 7  11 7 5  
             11 4 3  11 5 4  11 3 0  11 0 10  
           </p>
				</triangles>
      </convex_mesh>
		</geometry>
    <geometry id="/tmp/buildd/ros-hydro-pr2-description-1.11.4-0precise-20150329-0527/meshes/shoulder_v0/convex/shoulder_pan_4-Mesh" name="/tmp/buildd/ros-hydro-pr2-description-1.11.4-0precise-20150329-0527/meshes/shoulder_v0/convex/shoulder_pan_4-Mesh">
      <convex_mesh>
        <source id="/tmp/buildd/ros-hydro-pr2-description-1.11.4-0precise-20150329-0527/meshes/shoulder_v0/convex/shoulder_pan_4-Position">
          <float_array count="36" id="/tmp/buildd/ros-hydro-pr2-description-1.11.4-0precise-20150329-0527/meshes/shoulder_v0/convex/shoulder_pan_4-Position-array">
            0.043595999 -0.120136 -0.487403989  -0.118248999 0.026621999 -0.491270989  0.068392999 0.075970002 -0.48516801  0.050867762 -0.126403764 0.101700105  
            -0.090816997 -0.089610003 -0.484062999  -0.126925007 -0.003543 0.141940996  -0.072977997 0.104098998 0.141919002  0.047821 0.123989001 0.141956002  
            -0.028982 0.123933002 -0.485020012  -0.062555999 -0.110678002 0.141904995  0.050867762 -0.116910383 0.141949415  0.045088001 0.121315002 -0.484829009  
          </float_array>
          <technique_common>
            <accessor count="12" source="#/tmp/buildd/ros-hydro-pr2-description-1.11.4-0precise-20150329-0527/meshes/shoulder_v0/convex/shoulder_pan_4-Position-array" stride="3">
              <param name="X" type="float"/>
              <param name="Y" type="float"/>
              <param name="Z" type="float"/>
            </accessor>
    		   </technique_common>
				 </source>
   		 <vertices id="/tmp/buildd/ros-hydro-pr2-description-1.11.4-0precise-20150329-0527/meshes/shoulder_v0/convex/shoulder_pan_4-Vertex">
					<input semantic="POSITION" source="#/tmp/buildd/ros-hydro-pr2-description-1.11.4-0precise-20150329-0527/meshes/shoulder_v0/convex/shoulder_pan_4-Position"/>
				</vertices>
				<triangles material="Material" count="20">
					<input offset="0" semantic="VERTEX" source="#/tmp/buildd/ros-hydro-pr2-description-1.11.4-0precise-20150329-0527/meshes/shoulder_v0/convex/shoulder_pan_4-Vertex"/>
           <p>
             0 1 2  0 2 3  4 5 1  4 1 0  
             6 5 7  6 7 8  6 1 5  6 8 1  
             9 0 3  9 4 0  9 5 4  10 7 5  
             10 5 9  10 9 3  10 2 7  10 3 2  
             11 2 1  11 1 8  11 7 2  11 8 7  
           </p>
				</triangles>
      </convex_mesh>
		</geometry>
  </library_geometries>
  <library_visual_scenes>
	  <visual_scene id="Scene0-Visual" name="Scene0-Visual">
      <node id="/tmp/buildd/ros-hydro-pr2-description-1.11.4-0precise-20150329-0527/meshes/shoulder_v0/convex/shoulder_pan-Node" name="/tmp/buildd/ros-hydro-pr2-description-1.11.4-0precise-20150329-0527/meshes/shoulder_v0/convex/shoulder_pan" type="NODE">
        <translate>0 0 0</translate>
        <rotate>1 0 0  0</rotate>
      </node>
  	  </visual_scene>
  </library_visual_scenes>
  <library_physics_materials>
    <physics_material id="pmat0_0-PhysicsMaterial" name="pmat0_0-PhysicsMaterial">
      <technique_common>
        <dynamic_friction>0.5</dynamic_friction>
        <restitution>0</restitution>
        <static_friction>0.5</static_friction>
      </technique_common>
    </physics_material>
  </library_physics_materials>
  <library_physics_models>
    <physics_model id="Scene0-PhysicsModel">
      <rigid_body sid="/tmp/buildd/ros-hydro-pr2-description-1.11.4-0precise-20150329-0527/meshes/shoulder_v0/convex/shoulder_pan-RigidBody" name="/tmp/buildd/ros-hydro-pr2-description-1.11.4-0precise-20150329-0527/meshes/shoulder_v0/convex/shoulder_pan">
        <technique_common>
          <instance_physics_material url="#pmat0_0-PhysicsMaterial"/>
         <shape>
            <translate>0 0 0</translate>
            <rotate>1 0 0  0</rotate>
            <instance_physics_material url="#pmat0_0-PhysicsMaterial"/>
            <density>1</density>
            <extra>
              <technique profile="PhysX">
               <skinWidth>0</skinWidth>
              </technique>
            </extra>
            <instance_geometry url="/tmp/buildd/ros-hydro-pr2-description-1.11.4-0precise-20150329-0527/meshes/shoulder_v0/convex/shoulder_pan_0-Mesh"/>
         </shape>
         <shape>
            <translate>0 0 0</translate>
            <rotate>1 0 0  0</rotate>
            <instance_physics_material url="#pmat0_0-PhysicsMaterial"/>
            <density>1</density>
            <extra>
              <technique profile="PhysX">
               <skinWidth>0</skinWidth>
              </technique>
            </extra>
            <instance_geometry url="/tmp/buildd/ros-hydro-pr2-description-1.11.4-0precise-20150329-0527/meshes/shoulder_v0/convex/shoulder_pan_1-Mesh"/>
         </shape>
         <shape>
            <translate>0 0 0</translate>
            <rotate>1 0 0  0</rotate>
            <instance_physics_material url="#pmat0_0-PhysicsMaterial"/>
            <density>1</density>
            <extra>
              <technique profile="PhysX">
               <skinWidth>0</skinWidth>
              </technique>
            </extra>
            <instance_geometry url="/tmp/buildd/ros-hydro-pr2-description-1.11.4-0precise-20150329-0527/meshes/shoulder_v0/convex/shoulder_pan_2-Mesh"/>
         </shape>
         <shape>
            <translate>0 0 0</translate>
            <rotate>1 0 0  0</rotate>
            <instance_physics_material url="#pmat0_0-PhysicsMaterial"/>
            <density>1</density>
            <extra>
              <technique profile="PhysX">
               <skinWidth>0</skinWidth>
              </technique>
            </extra>
            <instance_geometry url="/tmp/buildd/ros-hydro-pr2-description-1.11.4-0precise-20150329-0527/meshes/shoulder_v0/convex/shoulder_pan_3-Mesh"/>
         </shape>
         <shape>
            <translate>0 0 0</translate>
            <rotate>1 0 0  0</rotate>
            <instance_physics_material url="#pmat0_0-PhysicsMaterial"/>
            <density>1</density>
            <extra>
              <technique profile="PhysX">
               <skinWidth>0</skinWidth>
              </technique>
            </extra>
            <instance_geometry url="/tmp/buildd/ros-hydro-pr2-description-1.11.4-0precise-20150329-0527/meshes/shoulder_v0/convex/shoulder_pan_4-Mesh"/>
         </shape>
        <dynamic>true</dynamic>
        <mass>1</mass>
		   	</technique_common>
        <extra>
          <technique profile="PhysX">
            <extra>
              <technique profile="PhysX">
                <linearDamping>0</linearDamping>
                <angularDamping>0</angularDamping>
                <solverIterationCount>32</solverIterationCount>
              </technique>
            </extra>
            <disable_collision>false</disable_collision>
          </technique>
        </extra>
  	  </rigid_body>
    </physics_model>
  </library_physics_models>
  <library_physics_scenes>
    <physics_scene id="Scene0-Physics">
      <instance_physics_model url="#Scene0-PhysicsModel">
        <instance_rigid_body target="#/tmp/buildd/ros-hydro-pr2-description-1.11.4-0precise-20150329-0527/meshes/shoulder_v0/convex/shoulder_pan-Node" body="/tmp/buildd/ros-hydro-pr2-description-1.11.4-0precise-20150329-0527/meshes/shoulder_v0/convex/shoulder_pan-RigidBody"/>
      <extra>
        <technique profile="PhysX">
        </technique>
      </extra>
      </instance_physics_model>
      <technique_common>
        <gravity>0 -9.800000191 0</gravity>
      </technique_common>
    </physics_scene>
  </library_physics_scenes>
  <scene>
    <instance_visual_scene url="#Scene0-Visual"/>
    <instance_physics_scene url="#Scene0-Physics"/>
  </scene>
</COLLADA>
