# /tmp/buildd/ros-hydro-pr2-description-1.11.4-0precise-20150329-0527/meshes/shoulder_v0/convex/shoulder_pan.obj created by IVCON.
# Original data in /tmp/buildd/ros-hydro-pr2-description-1.11.4-0precise-20150329-0527/meshes/shoulder_v0//shoulder_pan.stl.

g IVCON

v -0.069338 -0.106227 -0.488010
v 0.002295 -0.126713 -0.487800
v -0.028446 -0.124688 -0.483808
v -0.090817 -0.089610 -0.484063
v -0.106883 -0.067869 -0.488306
v -0.122043 -0.036222 -0.486696
v -0.118249 0.026622 -0.491271
v -0.126993 -0.007652 -0.482574
v -0.126385 0.014381 -0.483782
v 0.110372 0.112029 0.122479
v 0.136302 0.123222 0.109951
v 0.054278 0.117817 0.120110
v 0.028677 0.127037 0.098482
v 0.061679 0.079537 0.127800
v 0.120827 0.079406 0.126176
v 0.047821 0.123989 0.141956
v 0.058836 0.099405 0.141944
v 0.001342 0.126860 -0.487826
v -0.028982 0.123933 -0.485020
v -0.029188 0.124177 -0.350265
v -0.058511 0.112288 -0.488280
v -0.020292 0.125428 0.141935
v -0.072978 0.104099 0.141919
v -0.096510 0.083593 -0.485020
v 0.026702 0.126178 -0.162785
v -0.090509 0.089381 0.141934
v -0.119642 0.044494 -0.483373
v -0.115083 0.055379 0.141939
v -0.051601 0.116389 0.141936
v -0.126925 -0.003543 0.141941
v 0.052678 0.126082 -0.116997
v 0.062199 -0.079569 0.127377
v 0.057965 -0.110759 0.141949
v 0.054960 -0.116817 0.120605
v 0.034980 -0.126572 0.103156
v 0.040992 -0.125470 0.141950
v 0.030766 -0.125252 -0.148896
v -0.039694 -0.121301 -0.313608
v -0.062556 -0.110678 0.141905
v -0.091920 -0.088580 0.141944
v -0.018247 -0.125958 0.141940
v 0.065235 -0.125504 -0.116901
v -0.113781 -0.056763 -0.021204
v -0.118683 -0.045580 0.141934
v -0.125708 -0.019331 -0.136315
v 0.200920 -0.126869 0.028866
v 0.167384 -0.125170 0.091023
v 0.190324 -0.123767 -0.074395
v 0.192465 -0.079338 0.089614
v 0.228695 -0.079411 0.012830
v 0.210577 -0.079360 -0.066063
v 0.089030 -0.079336 -0.128658
v 0.159756 -0.079343 -0.113209
v 0.129394 -0.079419 0.125116
v 0.062113 -0.076093 -0.143538
v 0.130906 -0.123276 -0.112866
v 0.212217 -0.124400 -0.018311
v 0.169645 -0.113809 -0.103215
v 0.084945 -0.114570 -0.123772
v 0.122395 -0.106432 -0.123404
v 0.210018 -0.107759 -0.059225
v 0.213917 -0.120296 0.035974
v 0.223457 -0.114340 -0.012252
v 0.114230 -0.119123 0.119561
v 0.150138 -0.113014 0.112529
v 0.190797 -0.112522 0.082882
v 0.214443 -0.104644 0.050770
v 0.210581 0.125310 0.019583
v 0.201374 0.125990 -0.040391
v 0.144362 0.123277 -0.109026
v 0.184576 0.079335 0.098470
v 0.225773 0.079354 0.026249
v 0.196523 0.079381 -0.085349
v 0.224164 0.079392 -0.029159
v 0.137170 0.079348 -0.122596
v 0.086749 0.079393 -0.127663
v 0.063121 0.075272 -0.143005
v 0.193795 0.121248 -0.073612
v 0.193874 0.123179 0.066757
v 0.221389 0.115699 -0.018701
v 0.172276 0.117794 0.096330
v 0.203495 0.108151 0.069325
v 0.220785 0.111867 0.028401
v 0.082799 0.114985 -0.123777
v 0.122651 0.113978 -0.121576
v 0.161811 0.107789 -0.108643
v 0.206160 0.105574 -0.068818
v 0.154154 0.102719 0.113202
v 0.068245 -0.098516 -0.133513
v 0.048290 -0.110058 -0.163986
v 0.052880 -0.118960 -0.135205
v 0.053121 -0.075299 -0.171950
v 0.062402 -0.066364 -0.127993
v 0.056406 0.115957 -0.136186
v 0.053738 0.075125 -0.164860
v 0.049061 0.110035 -0.163695
v 0.061015 0.067453 -0.131117
v 0.056165 -0.075145 -0.272353
v 0.063570 -0.094452 -0.398895
v 0.059928 -0.108772 -0.482185
v 0.043596 -0.120136 -0.487404
v 0.066549 -0.068914 -0.411179
v 0.067432 -0.077158 -0.488196
v 0.054907 0.077969 -0.219108
v 0.052332 0.111572 -0.317517
v 0.066137 0.075911 -0.383118
v 0.068393 0.075970 -0.485168
v 0.061934 0.103624 -0.489106
v 0.045088 0.121315 -0.484829
v 0.055363 -0.054806 -0.398514
v 0.020817 0.045991 -0.173852
v 0.020644 -0.046405 -0.169708
v 0.061816 0.052728 -0.431584
v 0.031589 -0.061498 -0.171615
v 0.067744 -0.042495 -0.447405
v 0.067817 0.010541 -0.455313
v 0.061478 -0.095138 -0.490629
v 0.032523 -0.001664 -0.151827
v 0.040435 0.041240 -0.140501
v 0.042002 0.045030 -0.126923
v 0.034187 -0.002694 -0.126923
v 0.028171 0.046516 -0.152647
v 0.043373 -0.050246 -0.138221
v 0.043324 -0.047448 -0.126923
v 0.033500 -0.052091 -0.147601
v 0.031842 0.061052 -0.164961
v 0.067990 0.056466 -0.434568

vn -0.143723 -0.511226 -0.847344
vn -0.143723 -0.511226 -0.847344
vn -0.143723 -0.511226 -0.847344
vn -0.525960 -0.520006 -0.673023
vn -0.525960 -0.520006 -0.673023
vn -0.525960 -0.520006 -0.673023
vn -0.223138 -0.057376 -0.973097
vn -0.223138 -0.057376 -0.973097
vn -0.223138 -0.057376 -0.973097
vn -0.703832 -0.019504 -0.710098
vn -0.703832 -0.019504 -0.710098
vn -0.703832 -0.019504 -0.710098
vn 0.042133 0.700123 0.712778
vn 0.042133 0.700123 0.712778
vn 0.042133 0.700123 0.712778
vn -0.010463 0.915314 0.402604
vn -0.010463 0.915314 0.402604
vn -0.010463 0.915314 0.402604
vn -0.021528 0.192928 0.980977
vn -0.021528 0.192928 0.980977
vn -0.021528 0.192928 0.980977
vn 0.027524 0.121263 0.992239
vn 0.027524 0.121263 0.992239
vn 0.027524 0.121263 0.992239
vn 0.428692 0.894611 -0.126072
vn 0.428693 0.894611 -0.126072
vn 0.428692 0.894611 -0.126072
vn 0.901953 0.404042 0.152413
vn 0.901953 0.404042 0.152413
vn 0.901953 0.404042 0.152413
vn 0.982349 0.179069 -0.054075
vn 0.982349 0.179069 -0.054075
vn 0.982349 0.179069 -0.054075
vn -0.096275 0.995353 -0.001953
vn -0.096275 0.995353 -0.001953
vn -0.096275 0.995353 -0.001953
vn -0.366649 0.930357 -0.002248
vn -0.366649 0.930357 -0.002248
vn -0.366649 0.930357 -0.002248
vn -0.091470 0.995807 -0.000877
vn -0.091470 0.995807 -0.000877
vn -0.091470 0.995807 -0.000877
vn -0.602809 0.797878 -0.003471
vn -0.602809 0.797878 -0.003471
vn -0.602809 0.797878 -0.003471
vn -0.001559 0.999996 0.002221
vn -0.001559 0.999996 0.002221
vn -0.001559 0.999996 0.002221
vn -0.642979 0.765883 -0.000916
vn -0.642979 0.765883 -0.000916
vn -0.642979 0.765883 -0.000916
vn -0.860700 0.509106 -0.002587
vn -0.860700 0.509106 -0.002587
vn -0.860700 0.509106 -0.002587
vn -0.975842 0.218451 0.003312
vn -0.975842 0.218451 0.003312
vn -0.975842 0.218451 0.003312
vn -0.367563 0.929997 -0.002023
vn -0.367563 0.929997 -0.002023
vn -0.367563 0.929997 -0.002023
vn -0.277362 0.960762 0.002571
vn -0.277362 0.960762 0.002571
vn -0.277362 0.960762 0.002571
vn -0.498433 0.866928 -0.000177
vn -0.498433 0.866928 -0.000177
vn -0.498433 0.866928 -0.000177
vn -0.035506 0.999365 -0.003016
vn -0.035506 0.999365 -0.003016
vn -0.035506 0.999365 -0.003016
vn 0.021062 0.997935 0.060680
vn 0.021062 0.997935 0.060680
vn 0.021062 0.997935 0.060680
vn -0.810483 0.585757 0.002350
vn -0.810483 0.585757 0.002350
vn -0.810483 0.585757 0.002350
vn -0.980386 0.197030 0.004797
vn -0.980386 0.197030 0.004797
vn -0.980386 0.197030 0.004797
vn -0.999619 0.027600 -0.000073
vn -0.999619 0.027600 -0.000073
vn -0.999619 0.027600 -0.000073
vn 0.009599 0.999948 -0.003359
vn 0.009599 0.999948 -0.003359
vn 0.009599 0.999948 -0.003359
vn 0.980670 -0.174497 -0.088522
vn 0.980670 -0.174497 -0.088522
vn 0.980670 -0.174498 -0.088522
vn 0.471843 -0.880369 -0.048105
vn 0.471843 -0.880369 -0.048105
vn 0.471843 -0.880369 -0.048105
vn 0.650114 -0.750080 0.121375
vn 0.650114 -0.750080 0.121375
vn 0.650114 -0.750080 0.121375
vn -0.064463 -0.997873 0.009716
vn -0.064463 -0.997873 0.009716
vn -0.064463 -0.997873 0.009716
vn -0.410677 -0.911737 -0.008998
vn -0.410677 -0.911737 -0.008998
vn -0.410677 -0.911737 -0.008998
vn -0.446146 -0.894959 -0.001519
vn -0.446146 -0.894959 -0.001519
vn -0.446146 -0.894959 -0.001519
vn -0.611791 -0.791019 0.000998
vn -0.611791 -0.791019 0.000998
vn -0.611791 -0.791019 0.000998
vn -0.601301 -0.799022 0.000256
vn -0.601301 -0.799022 0.000256
vn -0.601301 -0.799022 0.000256
vn 0.002156 -0.999996 -0.002065
vn 0.002156 -0.999996 -0.002065
vn 0.002156 -0.999996 -0.002065
vn -0.004370 -0.999985 -0.003165
vn -0.004370 -0.999985 -0.003165
vn -0.004370 -0.999985 -0.003165
vn -0.016754 -0.999834 -0.007159
vn -0.016754 -0.999834 -0.007159
vn -0.016754 -0.999834 -0.007159
vn -0.257212 -0.966352 0.002231
vn -0.257212 -0.966352 0.002231
vn -0.257212 -0.966353 0.002231
vn 0.008235 -0.999598 0.027131
vn 0.008235 -0.999598 0.027131
vn 0.008235 -0.999598 0.027131
vn -0.326019 -0.945346 0.005685
vn -0.326019 -0.945346 0.005685
vn -0.326019 -0.945346 0.005685
vn -0.901912 -0.431908 -0.003050
vn -0.901912 -0.431908 -0.003050
vn -0.901912 -0.431908 -0.003050
vn -0.804451 -0.594015 0.002244
vn -0.804451 -0.594015 0.002244
vn -0.804451 -0.594015 0.002244
vn -0.920581 -0.390551 -0.000894
vn -0.920581 -0.390551 -0.000894
vn -0.920581 -0.390551 -0.000894
vn -0.970033 -0.242967 0.001567
vn -0.970033 -0.242967 0.001567
vn -0.970033 -0.242967 0.001567
vn -0.985369 -0.170423 -0.002090
vn -0.985369 -0.170423 -0.002090
vn -0.985369 -0.170423 -0.002090
vn -0.822969 -0.568086 -0.000515
vn -0.822969 -0.568086 -0.000515
vn -0.822969 -0.568086 -0.000515
vn -0.848939 -0.528382 0.010708
vn -0.848939 -0.528382 0.010708
vn -0.848939 -0.528382 0.010708
vn -0.996028 -0.089040 0.000694
vn -0.996028 -0.089040 0.000694
vn -0.996028 -0.089040 0.000694
vn -0.981296 -0.192392 0.006623
vn -0.981296 -0.192392 0.006623
vn -0.981296 -0.192392 0.006623
vn -0.004222 -0.999976 -0.005437
vn -0.004222 -0.999976 -0.005437
vn -0.004222 -0.999976 -0.005437
vn 0.013772 -0.999301 0.034754
vn 0.013772 -0.999301 0.034754
vn 0.013772 -0.999301 0.034754
vn 0.024947 -0.999158 -0.032580
vn 0.024947 -0.999158 -0.032580
vn 0.024947 -0.999158 -0.032580
vn 0.002259 0.999997 0.000120
vn 0.002259 0.999997 0.000120
vn 0.002259 0.999997 0.000120
vn -0.001880 0.999998 -0.000362
vn -0.001880 0.999998 -0.000362
vn -0.001880 0.999998 -0.000362
vn -0.000254 1.000000 0.000885
vn -0.000254 1.000000 0.000885
vn -0.000254 1.000000 0.000885
vn 0.000031 1.000000 0.000332
vn 0.000031 1.000000 0.000332
vn 0.000031 1.000000 0.000332
vn -0.002299 0.999996 -0.001808
vn -0.002299 0.999996 -0.001808
vn -0.002299 0.999996 -0.001808
vn 0.112668 0.993551 0.012713
vn 0.112668 0.993551 0.012713
vn 0.112668 0.993551 0.012713
vn 0.038227 -0.996689 -0.071763
vn 0.038227 -0.996689 -0.071764
vn 0.038227 -0.996689 -0.071764
vn 0.065004 -0.997212 -0.036633
vn 0.065004 -0.997212 -0.036633
vn 0.065004 -0.997212 -0.036633
vn 0.321724 -0.799590 -0.507099
vn 0.321724 -0.799590 -0.507099
vn 0.321724 -0.799590 -0.507099
vn 0.113898 -0.484954 -0.867091
vn 0.113898 -0.484954 -0.867091
vn 0.113898 -0.484954 -0.867091
vn 0.310757 -0.386320 -0.868440
vn 0.310757 -0.386320 -0.868440
vn 0.310757 -0.386320 -0.868440
vn 0.366515 -0.160578 -0.916450
vn 0.366515 -0.160578 -0.916450
vn 0.366515 -0.160578 -0.916450
vn 0.212846 0.073153 -0.974344
vn 0.212846 0.073153 -0.974344
vn 0.212846 0.073153 -0.974344
vn 0.723048 -0.299775 -0.622364
vn 0.723048 -0.299775 -0.622364
vn 0.723048 -0.299775 -0.622364
vn 0.680000 -0.017442 -0.733005
vn 0.680000 -0.017442 -0.733005
vn 0.680000 -0.017442 -0.733005
vn 0.737452 -0.171785 -0.653188
vn 0.737452 -0.171785 -0.653188
vn 0.737452 -0.171785 -0.653188
vn 0.426561 -0.902792 0.054887
vn 0.426561 -0.902792 0.054887
vn 0.426561 -0.902792 0.054887
vn 0.720197 -0.631045 -0.288269
vn 0.720197 -0.631045 -0.288269
vn 0.720197 -0.631045 -0.288269
vn 0.346328 -0.913881 0.211845
vn 0.346328 -0.913881 0.211845
vn 0.346328 -0.913881 0.211845
vn 0.248053 -0.744549 0.619771
vn 0.248053 -0.744549 0.619771
vn 0.248053 -0.744549 0.619771
vn 0.513331 -0.502496 0.695693
vn 0.513331 -0.502496 0.695693
vn 0.513331 -0.502496 0.695693
vn 0.538896 -0.746968 0.389395
vn 0.538896 -0.746969 0.389395
vn 0.538896 -0.746969 0.389395
vn 0.729178 -0.617415 -0.295124
vn 0.729178 -0.617415 -0.295124
vn 0.729178 -0.617415 -0.295124
vn 0.655469 -0.754340 0.036500
vn 0.655469 -0.754340 0.036500
vn 0.655469 -0.754340 0.036500
vn 0.954433 -0.087480 -0.285315
vn 0.954433 -0.087480 -0.285315
vn 0.954433 -0.087480 -0.285315
vn 0.967137 -0.191094 0.167718
vn 0.967137 -0.191094 0.167718
vn 0.967137 -0.191094 0.167718
vn 0.766914 -0.454301 0.453270
vn 0.766914 -0.454301 0.453270
vn 0.766914 -0.454301 0.453270
vn 0.813290 -0.154655 0.560929
vn 0.813290 -0.154655 0.560929
vn 0.813290 -0.154655 0.560929
vn 0.946792 -0.268944 0.176786
vn 0.946792 -0.268944 0.176786
vn 0.946792 -0.268944 0.176786
vn 0.579938 -0.189854 0.792229
vn 0.579938 -0.189854 0.792229
vn 0.579938 -0.189854 0.792229
vn 0.223177 -0.218167 0.950050
vn 0.223177 -0.218167 0.950050
vn 0.223177 -0.218167 0.950050
vn 0.490408 -0.023605 0.871173
vn 0.490408 -0.023605 0.871173
vn 0.490408 -0.023605 0.871173
vn 0.974527 0.014552 -0.223799
vn 0.974527 0.014552 -0.223799
vn 0.974527 0.014552 -0.223799
vn 0.896805 0.129539 0.423036
vn 0.896805 0.129539 0.423036
vn 0.896805 0.129539 0.423036
vn 0.013509 0.999866 0.009265
vn 0.013509 0.999866 0.009265
vn 0.013509 0.999866 0.009265
vn 0.030274 0.998391 0.047949
vn 0.030274 0.998391 0.047949
vn 0.030274 0.998391 0.047949
vn 0.002745 0.999988 -0.004123
vn 0.002745 0.999988 -0.004123
vn 0.002745 0.999988 -0.004123
vn 0.036568 0.996892 -0.069779
vn 0.036568 0.996892 -0.069779
vn 0.036568 0.996892 -0.069779
vn -0.001979 -0.999997 -0.001400
vn -0.001979 -0.999997 -0.001400
vn -0.001979 -0.999997 -0.001400
vn -0.001083 -0.999999 0.000047
vn -0.001083 -0.999999 0.000047
vn -0.001083 -0.999999 0.000047
vn -0.002281 -0.999994 -0.002666
vn -0.002281 -0.999994 -0.002666
vn -0.002281 -0.999994 -0.002666
vn 0.001909 -0.999998 -0.000737
vn 0.001909 -0.999998 -0.000737
vn 0.001909 -0.999998 -0.000737
vn -0.001172 -0.999995 0.002763
vn -0.001172 -0.999996 0.002763
vn -0.001172 -0.999995 0.002763
vn -0.000313 -1.000000 0.000534
vn -0.000313 -1.000000 0.000534
vn -0.000313 -1.000000 0.000534
vn 0.161437 -0.986747 0.016400
vn 0.161437 -0.986747 0.016400
vn 0.161437 -0.986747 0.016400
vn 0.166219 0.970179 -0.176418
vn 0.166219 0.970179 -0.176418
vn 0.166219 0.970179 -0.176418
vn 0.047024 0.996987 0.061684
vn 0.047024 0.996987 0.061684
vn 0.047024 0.996987 0.061684
vn 0.643108 0.723802 -0.250045
vn 0.643108 0.723802 -0.250045
vn 0.643108 0.723802 -0.250045
vn 0.514522 0.854673 -0.069294
vn 0.514522 0.854673 -0.069294
vn 0.514522 0.854673 -0.069294
vn 0.271204 0.892425 0.360591
vn 0.271204 0.892425 0.360591
vn 0.271204 0.892425 0.360591
vn 0.753376 0.545118 0.367793
vn 0.753376 0.545118 0.367793
vn 0.753376 0.545118 0.367793
vn 0.055211 0.754166 -0.654359
vn 0.055211 0.754166 -0.654359
vn 0.055211 0.754166 -0.654359
vn 0.343476 0.365557 -0.865097
vn 0.343476 0.365557 -0.865097
vn 0.343476 0.365557 -0.865097
vn 0.501676 0.548633 -0.668823
vn 0.501676 0.548633 -0.668822
vn 0.501676 0.548633 -0.668823
vn 0.646548 0.294851 -0.703590
vn 0.646548 0.294851 -0.703590
vn 0.646548 0.294851 -0.703590
vn 0.099811 0.071072 -0.992465
vn 0.099811 0.071072 -0.992465
vn 0.099811 0.071072 -0.992465
vn 0.332881 0.166894 -0.928082
vn 0.332881 0.166894 -0.928082
vn 0.332881 0.166894 -0.928082
vn 0.658665 0.213097 -0.721630
vn 0.658665 0.213097 -0.721630
vn 0.658665 0.213097 -0.721630
vn 0.647196 0.510966 0.565730
vn 0.647196 0.510966 0.565730
vn 0.647196 0.510966 0.565730
vn 0.775342 0.628579 0.061095
vn 0.775342 0.628579 0.061095
vn 0.775342 0.628579 0.061095
vn 0.785684 0.514968 -0.342795
vn 0.785684 0.514968 -0.342795
vn 0.785684 0.514968 -0.342795
vn 0.673607 0.688146 0.269644
vn 0.673607 0.688146 0.269644
vn 0.673607 0.688146 0.269644
vn 0.374595 0.454296 0.808266
vn 0.374595 0.454296 0.808266
vn 0.374595 0.454296 0.808266
vn 0.267655 0.373836 0.888035
vn 0.267655 0.373836 0.888035
vn 0.267655 0.373836 0.888035
vn 0.896120 -0.051511 -0.440813
vn 0.896120 -0.051511 -0.440813
vn 0.896120 -0.051511 -0.440813
vn 0.934435 0.162665 -0.316815
vn 0.934435 0.162665 -0.316815
vn 0.934435 0.162665 -0.316815
vn 0.996011 0.084430 -0.028868
vn 0.996011 0.084430 -0.028868
vn 0.996011 0.084430 -0.028868
vn 0.988373 0.149996 0.024890
vn 0.988373 0.149996 0.024890
vn 0.988373 0.149996 0.024890
vn 0.911447 0.113674 0.395402
vn 0.911447 0.113674 0.395402
vn 0.911447 0.113674 0.395402
vn 0.241240 0.185267 0.952617
vn 0.241240 0.185267 0.952617
vn 0.241240 0.185267 0.952617
vn 0.676445 0.254804 0.691012
vn 0.676445 0.254804 0.691012
vn 0.676445 0.254804 0.691012
vn 0.558374 0.223050 0.799041
vn 0.558374 0.223050 0.799041
vn 0.558374 0.223050 0.799041
vn 0.397830 -0.059222 0.915546
vn 0.397830 -0.059222 0.915546
vn 0.397830 -0.059222 0.915546
vn 0.866557 -0.068977 0.494288
vn 0.866557 -0.068977 0.494288
vn 0.866557 -0.068977 0.494288
vn 0.531030 -0.044971 -0.846159
vn 0.531030 -0.044971 -0.846159
vn 0.531030 -0.044971 -0.846159
vn 0.442443 -0.262386 -0.857553
vn 0.442443 -0.262386 -0.857553
vn 0.442443 -0.262386 -0.857553
vn 0.369852 -0.169565 -0.913486
vn 0.369852 -0.169565 -0.913486
vn 0.369852 -0.169565 -0.913486
vn 0.838899 -0.013837 -0.544112
vn 0.838899 -0.013837 -0.544112
vn 0.838899 -0.013837 -0.544112
vn 0.352653 -0.189236 -0.916420
vn 0.352653 -0.189236 -0.916420
vn 0.352653 -0.189236 -0.916420
vn 0.286932 -0.824133 -0.488339
vn 0.286932 -0.824133 -0.488339
vn 0.286932 -0.824133 -0.488339
vn 0.069104 -0.617130 -0.783821
vn 0.069104 -0.617130 -0.783821
vn 0.069104 -0.617130 -0.783821
vn 0.534205 -0.614661 -0.580359
vn 0.534204 -0.614662 -0.580359
vn 0.534204 -0.614661 -0.580359
vn 0.932798 -0.198556 -0.300771
vn 0.932798 -0.198556 -0.300771
vn 0.932798 -0.198556 -0.300771
vn 0.775121 -0.558073 -0.296213
vn 0.775121 -0.558073 -0.296213
vn 0.775121 -0.558073 -0.296213
vn 0.441090 -0.835126 -0.328640
vn 0.441090 -0.835126 -0.328640
vn 0.441090 -0.835126 -0.328640
vn 0.040540 -0.141869 -0.989055
vn 0.040540 -0.141869 -0.989055
vn 0.040540 -0.141869 -0.989055
vn 0.999591 -0.028604 -0.000684
vn 0.999591 -0.028604 -0.000684
vn 0.999591 -0.028604 -0.000684
vn 0.425381 0.144754 -0.893363
vn 0.425381 0.144754 -0.893363
vn 0.425381 0.144754 -0.893363
vn 0.897308 0.212895 -0.386671
vn 0.897308 0.212895 -0.386671
vn 0.897308 0.212895 -0.386671
vn 0.084324 0.676092 -0.731976
vn 0.084324 0.676092 -0.731976
vn 0.084324 0.676092 -0.731976
vn 0.229361 0.878547 -0.418985
vn 0.229361 0.878547 -0.418985
vn 0.229361 0.878547 -0.418985
vn 0.543477 0.781393 -0.306688
vn 0.543477 0.781393 -0.306688
vn 0.543477 0.781393 -0.306688
vn 0.547494 0.775964 -0.313259
vn 0.547494 0.775964 -0.313259
vn 0.547494 0.775964 -0.313259
vn 0.057672 0.114686 -0.991726
vn 0.057672 0.114686 -0.991726
vn 0.057672 0.114686 -0.991726
vn 0.503221 0.222976 -0.834895
vn 0.503221 0.222976 -0.834895
vn 0.503221 0.222976 -0.834895
vn 0.949366 0.136630 -0.282908
vn 0.949366 0.136630 -0.282908
vn 0.949366 0.136630 -0.282908
vn 0.999994 0.003267 0.000965
vn 0.999994 0.003267 0.000965
vn 0.999994 0.003267 0.000965
vn 0.968911 -0.247245 0.009053
vn 0.968911 -0.247245 0.009053
vn 0.968911 -0.247245 0.009053
vn 0.999942 0.010299 -0.003047
vn 0.999942 0.010299 -0.003047
vn 0.999942 0.010299 -0.003047
vn -0.802911 0.187468 -0.565852
vn -0.802911 0.187468 -0.565852
vn -0.802911 0.187468 -0.565852
vn -0.559199 0.298252 -0.773526
vn -0.559199 0.298252 -0.773526
vn -0.559199 0.298252 -0.773526
vn -0.226276 0.191145 -0.955125
vn -0.226276 0.191145 -0.955124
vn -0.226276 0.191145 -0.955125
vn -0.129715 0.558274 -0.819454
vn -0.129715 0.558274 -0.819454
vn -0.129715 0.558274 -0.819454
vn -0.665573 -0.014143 -0.746198
vn -0.665573 -0.014143 -0.746198
vn -0.665573 -0.014143 -0.746198
vn 0.983225 0.179896 0.030086
vn 0.983225 0.179896 0.030086
vn 0.983225 0.179896 0.030086
vn 0.990591 -0.124813 0.056141
vn 0.990591 -0.124813 0.056141
vn 0.990591 -0.124813 0.056141
vn 0.567297 -0.823329 0.017421
vn 0.567297 -0.823329 0.017421
vn 0.567297 -0.823329 0.017421
vn 0.994124 -0.081984 0.070680
vn 0.994124 -0.081984 0.070680
vn 0.994124 -0.081984 0.070680
vn 0.661762 -0.749588 0.013752
vn 0.661762 -0.749588 0.013752
vn 0.661762 -0.749588 0.013752
vn 0.909304 -0.414933 0.031580
vn 0.909304 -0.414933 0.031580
vn 0.909304 -0.414933 0.031580
vn 0.972842 -0.231453 -0.002743
vn 0.972842 -0.231453 -0.002743
vn 0.972842 -0.231453 -0.002743
vn 0.157341 -0.987504 -0.008962
vn 0.157341 -0.987504 -0.008962
vn 0.157341 -0.987504 -0.008962
vn -0.000312 -0.000610 1.000000
vn -0.000312 -0.000610 1.000000
vn -0.000312 -0.000610 1.000000
vn -0.000046 0.000199 1.000000
vn -0.000046 0.000199 1.000000
vn -0.000046 0.000199 1.000000
vn -0.000073 0.000025 1.000000
vn -0.000073 0.000025 1.000000
vn -0.000073 0.000025 1.000000
vn 0.001793 -0.001146 0.999998
vn 0.001793 -0.001146 0.999998
vn 0.001793 -0.001146 0.999998
vn -0.000625 -0.000241 1.000000
vn -0.000625 -0.000241 1.000000
vn -0.000625 -0.000241 1.000000
vn 0.000180 0.000249 1.000000
vn 0.000180 0.000249 1.000000
vn 0.000180 0.000249 1.000000
vn -0.000016 0.000045 1.000000
vn -0.000016 0.000045 1.000000
vn -0.000016 0.000045 1.000000
vn -0.000166 -0.000213 1.000000
vn -0.000166 -0.000213 1.000000
vn -0.000166 -0.000213 1.000000
vn -0.000171 0.000233 1.000000
vn -0.000171 0.000233 1.000000
vn -0.000171 0.000233 1.000000
vn -0.000364 0.001203 0.999999
vn -0.000364 0.001203 0.999999
vn -0.000364 0.001203 0.999999
vn -0.000002 0.000230 1.000000
vn -0.000002 0.000230 1.000000
vn -0.000002 0.000230 1.000000
vn -0.000366 -0.002231 0.999997
vn -0.000366 -0.002231 0.999997
vn -0.000366 -0.002231 0.999997
vn 0.979265 -0.004054 0.202542
vn 0.979265 -0.004054 0.202542
vn 0.979265 -0.004054 0.202542
vn 0.958902 0.002379 0.283727
vn 0.958902 0.002379 0.283727
vn 0.958902 0.002379 0.283727
vn 0.990872 0.131807 0.028263
vn 0.990872 0.131807 0.028263
vn 0.990872 0.131807 0.028263
vn 0.989667 0.141614 0.022461
vn 0.989667 0.141614 0.022461
vn 0.989667 0.141614 0.022461
vn 0.972874 0.230319 0.021639
vn 0.972875 0.230319 0.021639
vn 0.972874 0.230319 0.021639
vn 0.964167 0.257758 0.062786
vn 0.964167 0.257758 0.062786
vn 0.964167 0.257758 0.062786
vn 0.954228 0.296439 0.039667
vn 0.954228 0.296439 0.039667
vn 0.954228 0.296439 0.039667
vn 0.725211 0.688471 0.008694
vn 0.725211 0.688471 0.008694
vn 0.725211 0.688471 0.008694
vn 0.585796 0.810198 0.020553
vn 0.585796 0.810198 0.020553
vn 0.585796 0.810198 0.020553
vn 0.589745 0.807304 0.021480
vn 0.589745 0.807304 0.021480
vn 0.589745 0.807304 0.021480
vn 0.126264 0.991966 -0.007769
vn 0.126264 0.991966 -0.007769
vn 0.126264 0.991966 -0.007769
vn 0.988697 0.004866 0.149849
vn 0.988697 0.004866 0.149849
vn 0.988697 0.004866 0.149849
vn 0.987568 -0.011031 0.156808
vn 0.987568 -0.011031 0.156808
vn 0.987568 -0.011031 0.156808
vn 0.760583 0.641706 0.098620
vn 0.760583 0.641706 0.098620
vn 0.760583 0.641706 0.098620
vn 0.860921 0.397102 0.318001
vn 0.860921 0.397102 0.318001
vn 0.860921 0.397102 0.318001
vn 0.966527 0.036540 0.253949
vn 0.966527 0.036540 0.253949
vn 0.966527 0.036540 0.253949
vn 0.811408 0.575513 0.101994
vn 0.811408 0.575512 0.101994
vn 0.811408 0.575513 0.101994
vn 0.973966 0.011193 0.226419
vn 0.973966 0.011193 0.226419
vn 0.973966 0.011193 0.226419
vn 0.817073 0.569978 0.086698
vn 0.817073 0.569978 0.086698
vn 0.817073 0.569978 0.086698
vn 0.553085 -0.483222 -0.678670
vn 0.553085 -0.483222 -0.678670
vn 0.553085 -0.483222 -0.678670
vn 0.925139 -0.270289 -0.266572
vn 0.925139 -0.270289 -0.266572
vn 0.925139 -0.270289 -0.266572
vn 0.984191 -0.163557 -0.067947
vn 0.984191 -0.163557 -0.067947
vn 0.984191 -0.163557 -0.067947
vn 0.984264 -0.161180 -0.072430
vn 0.984264 -0.161180 -0.072430
vn 0.984264 -0.161180 -0.072430
vn 0.714048 0.052610 -0.698117
vn 0.714048 0.052610 -0.698117
vn 0.714048 0.052610 -0.698117
vn 0.941194 0.079420 -0.328400
vn 0.941194 0.079420 -0.328400
vn 0.941194 0.079420 -0.328400
vn 0.977650 0.202380 -0.056952
vn 0.977650 0.202380 -0.056952
vn 0.977650 0.202380 -0.056952
vn 0.978782 0.199832 -0.045307
vn 0.978782 0.199831 -0.045307
vn 0.978782 0.199831 -0.045307
vn -0.187288 -0.024870 -0.981990
vn -0.187288 -0.024870 -0.981990
vn -0.187288 -0.024870 -0.981990
vn -0.027679 0.004529 -0.999607
vn -0.027679 0.004529 -0.999607
vn -0.027679 0.004529 -0.999607
vn -0.070114 -0.014313 -0.997436
vn -0.070114 -0.014313 -0.997436
vn -0.070114 -0.014313 -0.997436
vn 0.539739 0.841647 0.017655
vn 0.539739 0.841647 0.017655
vn 0.539739 0.841647 0.017655
vn 0.859836 -0.024486 -0.509983
vn 0.859836 -0.024486 -0.509983
vn 0.859836 -0.024486 -0.509983
vn 0.861251 -0.025846 -0.507521
vn 0.861251 -0.025846 -0.507521
vn 0.861251 -0.025846 -0.507521
vn 0.692638 -0.046899 -0.719759
vn 0.692638 -0.046899 -0.719759
vn 0.692638 -0.046899 -0.719759
vn 0.671607 -0.738844 0.055258
vn 0.671607 -0.738844 0.055258
vn 0.671607 -0.738844 0.055258
vn 0.781027 -0.619273 0.080604
vn 0.781027 -0.619273 0.080604
vn 0.781027 -0.619273 0.080604
vn 0.889629 -0.437768 0.130074
vn 0.889629 -0.437768 0.130074
vn 0.889629 -0.437768 0.130074
vn 0.596337 -0.743556 0.302500
vn 0.596337 -0.743556 0.302500
vn 0.596337 -0.743556 0.302500
vn 0.568179 -0.340544 0.749134
vn 0.568179 -0.340544 0.749134
vn 0.568179 -0.340544 0.749134
vn 0.540470 -0.840738 -0.032437
vn 0.540470 -0.840738 -0.032437
vn 0.540469 -0.840738 -0.032437
vn 0.998244 -0.048689 0.033749
vn 0.998244 -0.048689 0.033749
vn 0.998244 -0.048689 0.033749
vn 0.985065 -0.152956 -0.079061
vn 0.985065 -0.152956 -0.079061
vn 0.985065 -0.152956 -0.079061
vn 0.999965 -0.006382 0.005334
vn 0.999965 -0.006382 0.005334
vn 0.999965 -0.006382 0.005334
vn 0.999981 -0.002227 -0.005747
vn 0.999981 -0.002227 -0.005747
vn 0.999981 -0.002227 -0.005747
vn 0.560053 0.012861 -0.828357
vn 0.560053 0.012861 -0.828357
vn 0.560053 0.012861 -0.828357
vn 0.361959 0.006314 -0.932173
vn 0.361959 0.006314 -0.932173
vn 0.361959 0.006314 -0.932173
vn 0.105854 0.327746 -0.938817
vn 0.105854 0.327746 -0.938817
vn 0.105854 0.327746 -0.938817
vn 0.767845 -0.634498 0.088472
vn 0.767845 -0.634498 0.088472
vn 0.767845 -0.634498 0.088472
vn 0.672689 -0.569752 -0.472094
vn 0.672689 -0.569752 -0.472094
vn 0.672689 -0.569752 -0.472094
vn 0.845890 -0.452601 -0.282176
vn 0.845890 -0.452601 -0.282176
vn 0.845890 -0.452601 -0.282176
vn 0.704958 -0.643463 -0.298312
vn 0.704958 -0.643463 -0.298312
vn 0.704958 -0.643463 -0.298312
vn 0.517668 -0.803379 -0.294282
vn 0.517668 -0.803379 -0.294282
vn 0.517668 -0.803379 -0.294282
vn 0.632353 -0.231828 -0.739179
vn 0.632353 -0.231828 -0.739179
vn 0.632353 -0.231828 -0.739179
vn 0.688790 0.704386 -0.171490
vn 0.688790 0.704386 -0.171490
vn 0.688790 0.704386 -0.171490
vn 0.757073 0.585613 -0.289649
vn 0.757073 0.585613 -0.289649
vn 0.757073 0.585613 -0.289649
vn 0.630904 0.287603 -0.720586
vn 0.630904 0.287603 -0.720586
vn 0.630904 0.287603 -0.720586
vn 0.616178 0.662431 -0.426039
vn 0.616178 0.662431 -0.426039
vn 0.616178 0.662431 -0.426039
vn 0.634424 0.701256 -0.325185
vn 0.634424 0.701256 -0.325185
vn 0.634424 0.701256 -0.325185
vn 0.532313 0.834008 -0.145167
vn 0.532313 0.834008 -0.145167
vn 0.532313 0.834008 -0.145167
vn 0.999965 -0.006280 0.005558
vn 0.999965 -0.006280 0.005558
vn 0.999965 -0.006280 0.005558
vn 0.999083 0.036675 0.022108
vn 0.999083 0.036675 0.022108
vn 0.999083 0.036675 0.022108
vn -0.006307 0.007678 -0.999951
vn -0.006307 0.007678 -0.999951
vn -0.006307 0.007678 -0.999951
vn -0.003564 0.045731 -0.998947
vn -0.003564 0.045731 -0.998947
vn -0.003564 0.045731 -0.998947
vn 0.018486 0.022017 -0.999587
vn 0.018486 0.022017 -0.999587
vn 0.018486 0.022017 -0.999587
vn -0.014750 -0.061773 -0.997981
vn -0.014750 -0.061773 -0.997981
vn -0.014750 -0.061773 -0.997981
vn -0.017879 -0.025229 -0.999522
vn -0.017879 -0.025229 -0.999522
vn -0.017879 -0.025229 -0.999522
vn -0.019243 -0.033672 -0.999248
vn -0.019243 -0.033672 -0.999248
vn -0.019243 -0.033672 -0.999248
vn 0.033602 -0.151500 -0.987886
vn 0.033602 -0.151500 -0.987886
vn 0.033602 -0.151500 -0.987886
vn 0.034833 -0.962559 0.268823
vn 0.034833 -0.962559 0.268823
vn 0.034833 -0.962559 0.268823
vn 0.010291 -0.180792 0.983467
vn 0.010291 -0.180792 0.983467
vn 0.010291 -0.180792 0.983467
vn 0.033571 -0.151055 0.987955
vn 0.033571 -0.151055 0.987955
vn 0.033571 -0.151055 0.987955
vn -0.024504 -0.860376 0.509070
vn -0.024504 -0.860376 0.509070
vn -0.024504 -0.860376 0.509070

f 1//1 2//2 3//3
f 4//4 5//5 1//6
f 5//7 6//8 7//9
f 6//10 8//11 9//12
f 10//13 11//14 12//15
f 12//16 11//17 13//18
f 10//19 12//20 14//21
f 14//22 15//23 10//24
f 12//25 13//26 16//27
f 17//28 12//29 16//30
f 12//31 17//32 14//33
f 18//34 19//35 20//36
f 20//37 19//38 21//39
f 22//40 18//41 20//42
f 23//43 21//44 24//45
f 25//46 18//47 22//48
f 23//49 24//50 26//51
f 24//52 27//53 28//54
f 28//55 27//56 9//57
f 29//58 20//59 21//60
f 29//61 22//62 20//63
f 29//64 21//65 23//66
f 25//67 22//68 13//69
f 13//70 22//71 16//72
f 26//73 24//74 28//75
f 28//76 9//77 30//78
f 9//79 8//80 30//81
f 25//82 13//83 31//84
f 32//85 33//86 34//87
f 35//88 34//89 36//90
f 34//91 33//92 36//93
f 2//94 37//95 3//96
f 38//97 1//98 3//99
f 1//100 38//101 39//102
f 1//103 39//104 4//105
f 4//106 39//107 40//108
f 3//109 37//110 41//111
f 41//112 37//113 42//114
f 35//115 41//116 42//117
f 3//118 41//119 38//120
f 36//121 41//122 35//123
f 38//124 41//125 39//126
f 6//127 5//128 43//129
f 5//130 4//131 43//132
f 43//133 44//134 6//135
f 6//136 44//137 45//138
f 6//139 45//140 8//141
f 43//142 4//143 40//144
f 40//145 44//146 43//147
f 8//148 45//149 30//150
f 45//151 44//152 30//153
f 35//154 42//155 46//156
f 35//157 46//158 47//159
f 48//160 46//161 42//162
f 49//163 50//164 51//165
f 49//166 51//167 32//168
f 52//169 32//170 51//171
f 52//172 51//173 53//174
f 49//175 32//176 54//177
f 32//178 52//179 55//180
f 42//181 56//182 48//183
f 48//184 57//185 46//186
f 48//187 56//188 58//189
f 56//190 59//191 60//192
f 60//193 58//194 56//195
f 58//196 60//197 53//198
f 52//199 53//200 60//201
f 48//202 58//203 61//204
f 58//205 53//206 51//207
f 58//208 51//209 61//210
f 46//211 57//212 62//213
f 57//214 48//215 63//216
f 46//217 62//218 47//219
f 64//220 47//221 65//222
f 65//223 47//224 66//225
f 47//226 62//227 66//228
f 63//229 48//230 61//231
f 57//232 63//233 62//234
f 61//235 51//236 63//237
f 67//238 62//239 63//240
f 66//241 62//242 67//243
f 66//244 67//245 49//246
f 63//247 50//248 67//249
f 65//250 66//251 49//252
f 64//253 65//254 54//255
f 54//256 65//257 49//258
f 51//259 50//260 63//261
f 50//262 49//263 67//264
f 68//265 69//266 13//267
f 68//268 13//269 11//270
f 13//271 69//272 31//273
f 31//274 69//275 70//276
f 71//277 14//278 72//279
f 72//280 14//281 73//282
f 15//283 14//284 71//285
f 74//286 72//287 73//288
f 75//289 73//290 76//291
f 73//292 14//293 76//294
f 76//295 14//296 77//297
f 70//298 69//299 78//300
f 68//301 11//302 79//303
f 69//304 80//305 78//306
f 80//307 69//308 68//309
f 79//310 11//311 81//312
f 79//313 82//314 83//315
f 84//316 70//317 85//318
f 86//319 85//320 70//321
f 70//322 78//323 86//324
f 86//325 78//326 87//327
f 85//328 75//329 76//330
f 85//331 86//332 75//333
f 86//334 87//335 73//336
f 82//337 79//338 81//339
f 80//340 68//341 83//342
f 78//343 80//344 87//345
f 68//346 79//347 83//348
f 81//349 11//350 88//351
f 11//352 10//353 88//354
f 74//355 73//356 87//357
f 74//358 87//359 80//360
f 72//361 74//362 80//363
f 83//364 72//365 80//366
f 83//367 82//368 72//369
f 88//370 10//371 15//372
f 81//373 71//374 82//375
f 81//376 88//377 71//378
f 88//379 15//380 71//381
f 72//382 82//383 71//384
f 73//385 75//386 86//387
f 89//388 55//389 52//390
f 59//391 89//392 52//393
f 89//394 90//395 55//396
f 59//397 91//398 89//399
f 91//400 59//401 42//402
f 59//403 56//404 42//405
f 91//406 42//407 37//408
f 90//409 92//410 55//411
f 89//412 91//413 90//414
f 90//415 91//416 37//417
f 52//418 60//419 59//420
f 32//421 55//422 93//423
f 94//424 84//425 76//426
f 94//427 77//428 95//429
f 70//430 84//431 31//432
f 84//433 94//434 31//435
f 31//436 94//437 25//438
f 94//439 96//440 25//441
f 84//442 85//443 76//444
f 94//445 76//446 77//447
f 95//448 96//449 94//450
f 32//451 93//452 14//453
f 14//454 97//455 77//456
f 14//457 93//458 97//459
f 9//460 27//461 7//462
f 7//463 27//464 24//465
f 24//466 21//467 7//468
f 21//469 19//470 18//471
f 6//472 9//473 7//474
f 98//475 92//476 99//477
f 92//478 90//479 99//480
f 100//481 90//482 101//483
f 99//484 102//485 98//486
f 90//487 37//488 101//489
f 99//490 90//491 100//492
f 99//493 100//494 103//495
f 37//496 2//497 101//498
f 17//499 16//500 22//501
f 22//502 29//503 17//504
f 29//505 33//506 17//507
f 23//508 26//509 28//510
f 23//511 33//512 29//513
f 23//514 28//515 33//516
f 28//517 30//518 33//519
f 44//520 33//521 30//522
f 36//523 33//524 41//525
f 33//526 39//527 41//528
f 40//529 33//530 44//531
f 33//532 40//533 39//534
f 17//535 33//536 14//537
f 33//538 32//539 14//540
f 96//541 95//542 104//543
f 104//544 105//545 96//546
f 106//547 107//548 108//549
f 104//550 106//551 105//552
f 105//553 106//554 108//555
f 105//556 108//557 109//558
f 25//559 96//560 105//561
f 109//562 25//563 105//564
f 109//565 18//566 25//567
f 110//568 111//569 112//570
f 110//571 113//572 111//573
f 98//574 110//575 114//576
f 110//577 102//578 115//579
f 115//580 116//581 110//582
f 114//583 110//584 112//585
f 116//586 113//587 110//588
f 102//589 110//590 98//591
f 100//592 101//593 117//594
f 100//595 117//596 103//597
f 118//598 119//599 120//600
f 121//601 118//602 120//603
f 118//604 122//605 119//606
f 122//607 118//608 111//609
f 118//610 121//611 123//612
f 123//613 121//614 124//615
f 97//616 93//617 120//618
f 93//619 121//620 120//621
f 93//622 124//623 121//624
f 114//625 92//626 98//627
f 112//628 111//629 118//630
f 112//631 118//632 125//633
f 125//634 118//635 123//636
f 106//637 104//638 126//639
f 126//640 111//641 106//642
f 106//643 111//644 113//645
f 106//646 113//647 127//648
f 127//649 113//650 116//651
f 126//652 104//653 95//654
f 115//655 99//656 103//657
f 115//658 102//659 99//660
f 107//661 116//662 103//663
f 116//664 115//665 103//666
f 103//667 108//668 107//669
f 108//670 103//671 117//672
f 18//673 109//674 108//675
f 120//676 119//677 97//678
f 97//679 122//680 126//681
f 126//682 122//683 111//684
f 97//685 95//686 77//687
f 97//688 126//689 95//690
f 97//691 119//692 122//693
f 124//694 93//695 123//696
f 112//697 125//698 114//699
f 123//700 93//701 125//702
f 125//703 93//704 55//705
f 114//706 125//707 55//708
f 55//709 92//710 114//711
f 127//712 116//713 107//714
f 107//715 106//716 127//717
f 21//718 108//719 117//720
f 18//721 108//722 21//723
f 21//724 117//725 7//726
f 2//727 1//728 117//729
f 5//730 117//731 1//732
f 7//733 117//734 5//735
f 101//736 2//737 117//738
f 35//739 47//740 64//741
f 32//742 34//743 64//744
f 32//745 64//746 54//747
f 34//748 35//749 64//750

