########################################################################
# Approximate convex decomposition for triangle mesh /tmp/buildd/ros-hydro-pr2-description-1.11.4-0precise-20150329-0527/meshes/shoulder_v0/convex/shoulder_yaw.obj
# Input Mesh has 502 vertices and 1000 triangles.
# Recursion depth: 5
# Concavity Threshold Percentage: 5.00
# Hull Merge Volume Percentage: 10.00
# Maximum output vertices per hull: 12
# Hull Skin Width: 0.00
########################################################################
########################################################################
## Hull Piece 1 with 12 vertices and 20 triangles.
########################################################################
v 0.176961005 0.079392001 -0.101310998
v 0.226503000 0.079393998 0.014043000
v 0.138097495 0.079398997 0.120943181
v 0.137276307 0.079408832 -0.121165872
v 0.137276307 0.125525564 -0.100109875
v 0.138097495 0.126995325 0.049438935
v 0.205594003 0.124402002 -0.037847001
v 0.196339995 0.121258996 0.066335000
v 0.138097495 0.118697956 0.112938248
v 0.224163994 0.079392001 -0.029159000
v 0.180401996 0.121262997 -0.086613998
v 0.220669001 0.079395004 0.040890999
f 1 2 3
f 3 4 1
f 5 6 7
f 5 4 3
f 8 2 7
f 8 7 6
f 9 3 8
f 9 8 6
f 9 6 5
f 9 5 3
f 10 2 1
f 10 7 2
f 11 7 10
f 11 10 1
f 11 5 7
f 11 1 4
f 11 4 5
f 12 3 2
f 12 2 8
f 12 8 3
########################################################################
## Hull Piece 2 with 12 vertices and 20 triangles.
########################################################################
v 0.137784004 -0.079398416 -0.120416284
v 0.137771234 -0.079410896 0.121398062
v 0.225876004 -0.079392001 -0.017441999
v 0.203509003 -0.079407997 0.074386001
v 0.137771234 -0.125275433 0.098850355
v 0.137784004 -0.126947656 -0.083600208
v 0.171564996 -0.127006993 0.061691001
v 0.213358000 -0.123866998 -0.006075000
v 0.180401996 -0.121262997 -0.086613998
v 0.197762996 -0.079396002 -0.081758998
v 0.137784004 -0.118537888 -0.113687873
v 0.207987994 -0.120166004 0.048401002
f 13 14 15
f 16 15 14
f 17 16 14
f 17 14 13
f 17 13 18
f 17 18 19
f 20 19 18
f 20 18 21
f 20 21 15
f 22 13 15
f 22 15 21
f 22 21 13
f 23 13 21
f 23 21 18
f 23 18 13
f 24 19 20
f 24 15 16
f 24 20 15
f 24 16 17
f 24 17 19
########################################################################
## Hull Piece 3 with 12 vertices and 20 triangles.
########################################################################
v 0.049692001 -0.118896931 0.141943514
v 0.049692001 -0.000046931 0.141944006
v 0.049692001 -0.102962345 -0.174529001
v 0.058870718 -0.000046931 0.141944006
v 0.049692001 -0.000033961 -0.126922995
v 0.137771234 -0.112687111 0.116255946
v 0.137784004 -0.126947656 -0.083600208
v 0.137784004 -0.079398416 -0.120416284
v 0.049692001 -0.127020672 -0.110849455
v 0.137771234 -0.079410896 0.121398062
v 0.137784004 -0.118537888 -0.113687873
v 0.051221900 -0.073278882 -0.174529001
f 25 26 27
f 26 25 28
f 29 27 26
f 29 26 28
f 30 25 31
f 32 29 28
f 32 30 31
f 33 25 27
f 33 31 25
f 34 30 32
f 34 32 28
f 34 28 25
f 34 25 30
f 35 31 33
f 35 33 27
f 35 27 32
f 35 32 31
f 36 27 29
f 36 29 32
f 36 32 27
########################################################################
## Hull Piece 4 with 12 vertices and 20 triangles.
########################################################################
v 0.049692001 -0.000046931 0.141944006
v 0.058870718 -0.000046931 0.141944006
v 0.050127000 0.121437997 0.141944006
v 0.062295500 -0.000033961 -0.126922995
v 0.049692001 0.072250403 -0.174529001
v 0.049692001 0.125356629 -0.125210613
v 0.137276307 0.079408832 -0.121165872
v 0.049692001 0.103727475 -0.174529001
v 0.137276307 0.125525564 -0.100109875
v 0.138097495 0.126719490 0.093457304
v 0.138097495 0.104211204 0.118071057
v 0.138097495 0.079398997 0.120943181
f 37 38 39
f 40 37 41
f 40 38 37
f 42 41 37
f 42 37 39
f 43 40 41
f 44 45 43
f 44 43 41
f 44 41 42
f 44 42 45
f 46 43 45
f 46 45 42
f 46 42 39
f 46 39 47
f 48 43 46
f 48 46 47
f 48 38 40
f 48 40 43
f 48 39 38
f 48 47 39
########################################################################
## Hull Piece 5 with 12 vertices and 20 triangles.
########################################################################
v -0.127119005 0.003812000 0.141944006
v 0.023114000 -0.126986995 0.141944006
v 0.049692001 0.121531747 0.141944006
v 0.060451001 -0.107006997 -0.483204991
v -0.057018999 -0.106445998 -0.490925014
v -0.126324996 -0.014508000 -0.483058006
v -0.065084003 0.109269999 -0.484548986
v -0.072979003 0.104066998 0.141944006
v -0.084997997 -0.094729997 0.141944006
v 0.031249000 0.123545997 -0.486728013
v 0.068173997 0.080649003 -0.479582012
v 0.049692001 -0.118896931 0.141943514
f 49 50 51
f 52 50 53
f 54 49 55
f 54 55 53
f 56 49 51
f 56 55 49
f 57 49 54
f 57 54 53
f 57 53 50
f 57 50 49
f 58 55 56
f 58 56 51
f 58 59 52
f 58 52 53
f 58 51 59
f 58 53 55
f 60 59 51
f 60 52 59
f 60 51 50
f 60 50 52
