########################################################################
# Approximate convex decomposition for triangle mesh /tmp/buildd/ros-hydro-pr2-description-1.11.4-0precise-20150329-0527/meshes/shoulder_v0/convex/upper_arm_roll.obj
# Input Mesh has 502 vertices and 996 triangles.
# Recursion depth: 5
# Concavity Threshold Percentage: 5.00
# Hull Merge Volume Percentage: 10.00
# Maximum output vertices per hull: 12
# Hull Skin Width: 0.00
########################################################################
########################################################################
## Hull Piece 1 with 12 vertices and 20 triangles.
########################################################################
v 0.121370003 0.027782645 -0.016891388
v 0.117370002 0.028101459 -0.017091712
v 0.120709404 0.061335742 -0.037974197
v 0.117610097 0.023265379 0.022820141
v 0.117370002 0.063607998 -0.000000000
v 0.121370003 0.071865000 0.006472000
v 0.118869998 0.069649003 -0.018770000
v 0.121370003 0.023257539 0.022812301
v 0.120077245 0.051118281 0.050673041
v 0.118869998 0.068512000 0.022576001
v 0.121370003 0.064263999 0.032988001
v 0.117380194 0.054071028 -0.033409473
f 1 2 3
f 4 2 1
f 5 2 4
f 6 1 3
f 7 6 3
f 8 1 6
f 8 9 4
f 8 4 1
f 10 6 7
f 10 7 5
f 10 4 9
f 10 5 4
f 11 6 10
f 11 10 9
f 11 9 8
f 11 8 6
f 12 2 5
f 12 5 7
f 12 3 2
f 12 7 3
########################################################################
## Hull Piece 2 with 12 vertices and 20 triangles.
########################################################################
v 0.138370007 -0.029887000 -0.065454997
v 0.118869998 -0.000039000 -0.072086997
v 0.140369996 0.026089000 -0.064999998
v 0.118869998 0.032772001 -0.064179003
v 0.118869998 0.061241366 -0.037914895
v 0.118869998 -0.033599000 -0.063635997
v 0.121370003 -0.056317002 -0.043396000
v 0.117370002 -0.027938001 -0.017617000
v 0.140369996 -0.027059000 -0.055000000
v 0.121370003 0.027782645 -0.016891388
v 0.117370002 0.028101459 -0.017091712
v 0.140369996 0.027275000 -0.055000000
f 13 14 15
f 16 15 14
f 16 17 15
f 18 14 13
f 18 13 19
f 18 20 14
f 18 19 20
f 21 13 15
f 21 22 20
f 21 20 19
f 21 19 13
f 23 17 16
f 23 14 20
f 23 16 14
f 23 20 22
f 23 22 17
f 24 22 21
f 24 21 15
f 24 15 17
f 24 17 22
########################################################################
## Hull Piece 3 with 12 vertices and 20 triangles.
########################################################################
v 0.121370003 -0.057734001 0.043033000
v 0.117370002 -0.045455001 0.044291999
v 0.117619999 -0.040975001 0.011505000
v 0.117370643 0.045103263 0.044658024
v 0.118869998 0.001772000 0.072045997
v 0.140369996 -0.027887000 0.064158000
v 0.140369996 0.028103000 0.055828001
v 0.121370003 0.023257539 0.022812301
v 0.118869998 0.038424999 0.061057001
v 0.138370007 0.026474999 0.067000002
v 0.121370003 0.051073406 0.050628167
v 0.118869998 -0.027984999 0.066349998
f 25 26 27
f 28 27 26
f 28 26 29
f 30 25 27
f 30 27 31
f 32 31 27
f 32 27 28
f 33 28 29
f 34 33 29
f 34 29 30
f 34 30 31
f 35 28 33
f 35 33 34
f 35 34 31
f 35 31 32
f 35 32 28
f 36 25 30
f 36 30 29
f 36 29 26
f 36 26 25
