########################################################################
# Approximate convex decomposition for triangle mesh /tmp/buildd/ros-hydro-pr2-description-1.11.4-0precise-20150329-0527/meshes/shoulder_v0/convex/upper_arm_roll_L.obj
# Input Mesh has 56 vertices and 100 triangles.
# Recursion depth: 5
# Concavity Threshold Percentage: 5.00
# Hull Merge Volume Percentage: 10.00
# Maximum output vertices per hull: 12
# Hull Skin Width: 0.00
########################################################################
########################################################################
## Hull Piece 1 with 12 vertices and 20 triangles.
########################################################################
v 0.118869998 0.035376385 -0.005047694
v 0.121370003 0.035379175 -0.005027923
v 0.119534552 0.044154659 0.057131734
v 0.121370003 0.070654936 -0.010028198
v 0.121370003 0.068741001 0.022630000
v 0.118869998 0.070654936 -0.010028198
v 0.118869998 0.068741001 0.022630000
v 0.121370003 0.056859002 0.044551000
v 0.118869998 0.072177999 0.000000000
v 0.118869998 0.057884999 0.043060001
v 0.121370003 0.044116832 0.056863781
v 0.121370003 0.072177999 0.000000000
f 1 2 3
f 4 5 2
f 4 1 6
f 4 2 1
f 7 6 1
f 8 2 5
f 9 6 7
f 9 7 5
f 9 4 6
f 10 3 8
f 10 5 7
f 10 8 5
f 10 1 3
f 10 7 1
f 11 3 2
f 11 2 8
f 11 8 3
f 12 5 4
f 12 4 9
f 12 9 5
########################################################################
## Hull Piece 2 with 12 vertices and 20 triangles.
########################################################################
v 0.121370003 -0.035376385 0.005047694
v 0.119534552 -0.044154659 -0.057131734
v 0.118869998 -0.035376385 0.005047694
v 0.121370003 -0.070654936 0.010028198
v 0.121370003 -0.068741001 -0.022630000
v 0.118869998 -0.070654936 0.010028198
v 0.118869998 -0.072177999 0.000000000
v 0.118869998 -0.068741001 -0.022630000
v 0.121370003 -0.056859002 -0.044551000
v 0.118869998 -0.057884999 -0.043060001
v 0.121370003 -0.044116832 -0.056863781
v 0.121370003 -0.072177999 -0.000000000
f 13 14 15
f 13 16 17
f 13 15 16
f 18 19 16
f 18 16 15
f 18 15 19
f 20 19 15
f 20 17 19
f 21 13 17
f 22 14 21
f 22 17 20
f 22 21 17
f 22 15 14
f 22 20 15
f 23 14 13
f 23 13 21
f 23 21 14
f 24 17 16
f 24 16 19
f 24 19 17
########################################################################
## Hull Piece 3 with 10 vertices and 16 triangles.
########################################################################
v 0.118869998 -0.035376385 0.005047694
v 0.121370003 -0.040368047 -0.030309910
v 0.121370003 -0.035376385 0.005047694
v 0.118869998 0.070654936 -0.010028198
v 0.118869998 0.057064507 -0.044171859
v 0.121370003 0.068741001 -0.022630000
v 0.118869998 -0.040368047 -0.030309910
v 0.121370003 0.056992847 -0.044161741
v 0.121370003 0.070654936 -0.010028198
v 0.118869998 0.068741001 -0.022630000
f 25 26 27
f 28 29 25
f 28 25 27
f 30 27 26
f 31 25 29
f 31 29 26
f 31 26 25
f 32 26 29
f 32 29 30
f 32 30 26
f 33 28 27
f 33 27 30
f 33 30 28
f 34 29 28
f 34 28 30
f 34 30 29
########################################################################
## Hull Piece 4 with 12 vertices and 20 triangles.
########################################################################
v 0.121370003 -0.070654936 0.010028198
v 0.118869998 -0.070654936 0.010028198
v 0.118869998 0.035376385 -0.005047694
v 0.118869998 -0.068741001 0.022630000
v 0.118869998 0.040368047 0.030309910
v 0.119493768 -0.057114992 0.044178985
v 0.121370003 0.040368047 0.030309910
v 0.121370003 0.035379175 -0.005027923
v 0.121370003 -0.068741001 0.022630000
v 0.121370003 -0.056841087 0.044140317
v 0.118869998 -0.057064507 0.044171859
v 0.121370003 -0.057884999 0.043060001
f 35 36 37
f 38 37 36
f 38 36 35
f 39 37 38
f 39 40 41
f 39 41 37
f 42 35 37
f 42 37 41
f 42 41 35
f 43 38 35
f 43 35 41
f 44 41 40
f 44 43 41
f 45 38 40
f 45 40 39
f 45 39 38
f 46 43 44
f 46 44 40
f 46 40 38
f 46 38 43
########################################################################
## Hull Piece 5 with 12 vertices and 20 triangles.
########################################################################
v 0.119534552 -0.044154659 -0.057131734
v 0.118869998 -0.040368047 -0.030309910
v 0.118869998 0.000000000 -0.072177999
v 0.121370003 -0.040368047 -0.030309910
v 0.118869998 0.057064507 -0.044171859
v 0.140369996 -0.030072000 -0.067005999
v 0.140369996 0.030072000 -0.067005999
v 0.140369996 0.030072000 -0.052994002
v 0.121370003 0.030072000 -0.067005999
v 0.140369996 -0.030072000 -0.052994002
v 0.121370003 -0.030072000 -0.067005999
v 0.121326759 0.057064507 -0.044171859
f 47 48 49
f 48 47 50
f 51 49 48
f 51 48 50
f 52 49 53
f 54 52 53
f 55 49 51
f 55 51 53
f 55 53 49
f 56 52 54
f 56 54 50
f 56 50 47
f 56 47 52
f 57 47 49
f 57 49 52
f 57 52 47
f 58 53 51
f 58 54 53
f 58 51 50
f 58 50 54
########################################################################
## Hull Piece 6 with 12 vertices and 20 triangles.
########################################################################
v 0.119534552 0.044154659 0.057131734
v 0.118869998 0.040368047 0.030309910
v 0.118869998 -0.000000000 0.072177999
v 0.140369996 0.030072000 0.052994002
v 0.140369996 -0.030072000 0.067005999
v 0.121370003 0.000000000 0.072177999
v 0.140369996 0.030072000 0.067005999
v 0.140369996 -0.030072000 0.052994002
v 0.119493768 -0.057114992 0.044178985
v 0.121370003 -0.030072000 0.067005999
v 0.121370003 0.030072000 0.067005999
v 0.118869998 -0.043060001 0.057884999
f 59 60 61
f 62 60 59
f 63 64 61
f 65 64 63
f 65 63 62
f 65 62 59
f 65 61 64
f 66 62 63
f 66 63 67
f 66 67 60
f 66 60 62
f 68 63 61
f 69 59 61
f 69 61 65
f 69 65 59
f 70 67 63
f 70 63 68
f 70 68 61
f 70 61 60
f 70 60 67
