########################################################################
# Approximate convex decomposition for triangle mesh /tmp/buildd/ros-hydro-pr2-description-1.11.4-0precise-20150329-0527/meshes/upper_arm_v0/convex/elbow_flex.obj
# Input Mesh has 74 vertices and 148 triangles.
# Recursion depth: 5
# Concavity Threshold Percentage: 5.00
# Hull Merge Volume Percentage: 10.00
# Maximum output vertices per hull: 12
# Hull Skin Width: 0.00
########################################################################
########################################################################
## Hull Piece 1 with 12 vertices and 20 triangles.
########################################################################
v 0.051194835 -0.000568702 -0.073464490
v 0.050496336 -0.000568702 -0.061026540
v 0.006105000 -0.000568702 -0.078682326
v 0.050492451 0.018640514 -0.060957368
v 0.051021915 0.009987243 -0.070385389
v 0.022382000 0.017398000 -0.077192001
v 0.013445000 0.018347999 -0.077815004
v 0.006105000 -0.000568702 -0.077353373
v 0.006105000 0.017618675 -0.078037605
v 0.006105000 0.018202648 -0.078149430
v 0.051079217 0.008345103 -0.071405724
v 0.051184688 0.000889043 -0.073283784
f 1 2 3
f 2 1 4
f 5 4 1
f 6 7 4
f 6 4 5
f 6 1 3
f 6 3 7
f 8 2 4
f 8 4 9
f 8 3 2
f 8 9 3
f 10 7 3
f 10 3 9
f 10 4 7
f 10 9 4
f 11 5 1
f 11 6 5
f 12 1 6
f 12 6 11
f 12 11 1
########################################################################
## Hull Piece 2 with 12 vertices and 20 triangles.
########################################################################
v -0.053666383 0.018293517 0.056507010
v -0.054630607 -0.018472575 0.057471234
v -0.078960769 -0.018420791 0.000084500
v -0.077799425 0.018339604 0.000084500
v -0.055366974 0.015385127 0.058207601
v -0.066051997 -0.018399000 0.044286001
v -0.074865997 0.017383000 0.029372999
v -0.074362002 -0.018224001 0.028378000
v -0.079613782 0.017125938 0.000084500
v -0.055319048 0.017585274 0.058159675
v -0.079190999 -0.018408000 0.006350000
v -0.074390002 0.018453000 0.026887000
f 13 14 15
f 13 15 16
f 13 17 14
f 18 17 19
f 18 19 20
f 18 14 17
f 21 16 15
f 22 19 17
f 22 17 13
f 23 19 21
f 23 21 15
f 23 15 14
f 23 14 18
f 23 18 20
f 23 20 19
f 24 19 22
f 24 22 13
f 24 16 21
f 24 21 19
f 24 13 16
########################################################################
## Hull Piece 3 with 12 vertices and 20 triangles.
########################################################################
v 0.006105000 -0.018365070 0.076996073
v 0.059687670 0.018480716 0.050243851
v 0.059828985 -0.001233274 0.050385166
v 0.060608417 -0.018334188 0.051164597
v 0.041352000 -0.018439000 0.067739002
v 0.044504002 0.017263001 0.066634998
v 0.021095000 -0.018261001 0.076935999
v 0.019684000 0.017387001 0.077848002
v 0.006105000 -0.017880075 0.079093687
v 0.006105000 0.017316613 0.078976899
v 0.006105000 0.018301615 0.077167407
v 0.060353737 0.017696276 0.050909922
f 25 26 27
f 28 25 27
f 28 27 26
f 29 30 31
f 29 28 30
f 29 31 25
f 29 25 28
f 32 30 26
f 32 31 30
f 33 31 32
f 33 32 34
f 33 34 25
f 33 25 31
f 35 34 32
f 35 32 26
f 35 26 25
f 35 25 34
f 36 26 30
f 36 30 28
f 36 28 26
########################################################################
## Hull Piece 4 with 12 vertices and 20 triangles.
########################################################################
v -0.054877680 0.017998127 -0.057325501
v -0.072384998 0.017535999 -0.034754001
v -0.077799425 0.018339604 0.000084500
v -0.080296002 0.017089000 -0.004124000
v -0.075112998 -0.018071000 -0.027156999
v -0.066027001 -0.017391000 -0.045600999
v -0.054890480 -0.017466180 -0.057338297
v -0.053546216 -0.018800467 -0.055994034
v -0.078960769 -0.018420791 0.000084500
v -0.079613782 0.017125938 0.000084500
v -0.078597002 -0.018440999 -0.009815000
v -0.066081002 -0.018741000 -0.043148000
f 37 38 39
f 40 39 38
f 40 38 41
f 42 41 38
f 42 38 37
f 42 37 43
f 44 43 37
f 44 37 39
f 44 39 45
f 46 45 39
f 46 39 40
f 46 40 45
f 47 45 40
f 47 40 41
f 48 44 45
f 48 45 47
f 48 47 41
f 48 42 43
f 48 43 44
f 48 41 42
########################################################################
## Hull Piece 5 with 12 vertices and 20 triangles.
########################################################################
v 0.006105000 -0.018445995 -0.077010863
v -0.018800000 -0.018719999 -0.076669000
v -0.007285000 -0.017653000 -0.079990000
v -0.053546216 -0.018800467 -0.055994034
v 0.006105000 0.018202648 -0.078149430
v -0.054877680 0.017998127 -0.057325501
v -0.037691999 0.017890001 -0.070092998
v -0.049139999 -0.017504999 -0.063399002
v -0.011400000 0.017856000 -0.078947000
v -0.030587999 -0.017504999 -0.073990002
v -0.054890480 -0.017466180 -0.057338297
v 0.006105000 -0.017965419 -0.078627385
f 49 50 51
f 50 49 52
f 53 52 49
f 53 54 52
f 55 54 53
f 56 54 55
f 56 50 52
f 57 53 51
f 57 55 53
f 58 55 57
f 58 51 50
f 58 57 51
f 58 50 56
f 58 56 55
f 59 52 54
f 59 54 56
f 59 56 52
f 60 49 51
f 60 51 53
f 60 53 49
########################################################################
## Hull Piece 6 with 12 vertices and 20 triangles.
########################################################################
v 0.006105000 0.018301615 0.077167407
v 0.006105000 -0.018365070 0.076996073
v -0.053666383 0.018293517 0.056507010
v -0.054630607 -0.018472575 0.057471234
v -0.037537001 -0.018305000 0.070184998
v -0.028756000 0.017704999 0.074680999
v -0.005203000 0.017258000 0.079916999
v -0.001296000 -0.017692000 0.080159001
v -0.054669000 0.017592000 0.059117001
v 0.006105000 -0.005317373 0.079343759
v 0.006105000 -0.017880075 0.079093687
v 0.006105000 0.017316613 0.078976899
f 61 62 63
f 64 63 62
f 64 62 65
f 66 67 61
f 66 61 63
f 68 67 66
f 68 66 65
f 68 65 62
f 69 65 66
f 69 66 63
f 69 63 64
f 69 64 65
f 70 62 61
f 70 67 68
f 71 68 62
f 71 62 70
f 71 70 68
f 72 61 67
f 72 67 70
f 72 70 61
########################################################################
## Hull Piece 7 with 12 vertices and 20 triangles.
########################################################################
v 0.077788875 0.045344904 0.000308310
v 0.092398591 -0.000568702 0.000308310
v 0.092330016 0.045074511 0.000308310
v 0.092378259 -0.000568702 -0.072067022
v 0.051194835 -0.000568702 -0.073464490
v 0.078077056 -0.000568702 0.000308310
v 0.092416003 0.040840000 -0.020517001
v 0.091261998 0.012101000 -0.067492001
v 0.050492451 0.018640514 -0.060957368
v 0.050496336 -0.000568702 -0.061026540
v 0.076985002 0.043834001 -0.016217001
v 0.051021915 0.009987243 -0.070385389
f 73 74 75
f 76 74 77
f 78 77 74
f 78 74 73
f 79 80 81
f 79 76 80
f 79 75 74
f 79 74 76
f 82 78 73
f 82 73 81
f 82 77 78
f 82 81 77
f 83 81 73
f 83 79 81
f 83 73 75
f 83 75 79
f 84 77 81
f 84 81 80
f 84 76 77
f 84 80 76
########################################################################
## Hull Piece 8 with 12 vertices and 20 triangles.
########################################################################
v 0.060608417 -0.018334188 0.051164597
v 0.059687670 0.018480716 0.050243851
v 0.078289263 -0.046731386 0.000308310
v 0.060353737 0.017696276 0.050909922
v 0.092320770 -0.044743888 0.000308310
v 0.092330016 0.045074511 0.000308310
v 0.077788875 0.045344904 0.000308310
v 0.092436999 0.037158001 0.027167000
v 0.092253998 0.021245001 0.040876999
v 0.092451997 -0.037696999 0.026759000
v 0.092347004 -0.023296000 0.040130999
v 0.092308998 -0.000133000 0.046452001
f 85 86 87
f 86 85 88
f 89 87 90
f 91 87 86
f 91 90 87
f 92 90 91
f 92 91 86
f 92 86 88
f 92 88 93
f 94 89 90
f 94 90 92
f 94 87 89
f 94 85 87
f 94 95 85
f 96 95 94
f 96 94 92
f 96 92 93
f 96 85 95
f 96 88 85
f 96 93 88
########################################################################
## Hull Piece 9 with 12 vertices and 20 triangles.
########################################################################
v 0.006105000 -0.000568702 -0.078682326
v 0.092353001 -0.001866000 -0.072228998
v 0.006105000 -0.017965419 -0.078627385
v 0.078077056 -0.000568702 0.000308310
v 0.092398591 -0.000568702 0.000308310
v 0.092320770 -0.044743888 0.000308310
v 0.078289263 -0.046731386 0.000308310
v 0.092386998 -0.044162001 -0.015036000
v 0.091945000 -0.010658000 -0.069383003
v 0.076265998 -0.043310001 -0.017391000
v 0.020102000 -0.018292001 -0.077202998
v 0.092378259 -0.000568702 -0.072067022
f 97 98 99
f 100 101 97
f 100 97 99
f 100 102 101
f 103 102 100
f 103 100 99
f 104 102 103
f 104 101 102
f 105 98 104
f 106 103 99
f 106 99 104
f 106 104 103
f 107 104 99
f 107 105 104
f 107 99 98
f 107 98 105
f 108 101 104
f 108 104 98
f 108 98 97
f 108 97 101
