# /tmp/buildd/ros-hydro-pr2-description-1.11.4-0precise-20150329-0527/meshes/upper_arm_v0/convex/elbow_flex.obj created by IVCON.
# Original data in /tmp/buildd/ros-hydro-pr2-description-1.11.4-0precise-20150329-0527/meshes/upper_arm_v0//elbow_flex.stl.

g IVCON

v 0.091945 -0.010658 -0.069383
v 0.092506 0.005991 -0.071248
v 0.092387 -0.044162 -0.015036
v 0.092353 -0.001866 -0.072229
v 0.092275 -0.045146 0.010912
v 0.092430 0.045319 -0.006889
v 0.092452 -0.037697 0.026759
v 0.092416 0.040840 -0.020517
v 0.092192 0.044737 0.010244
v 0.092437 0.037158 0.027167
v 0.092347 -0.023296 0.040131
v 0.092309 -0.000133 0.046452
v 0.092254 0.021245 0.040877
v 0.091262 0.012101 -0.067492
v 0.029665 -0.001768 -0.074344
v 0.042030 -0.012902 -0.068546
v 0.036035 0.009200 -0.071463
v 0.052052 0.017196 -0.061504
v 0.019684 0.017387 0.077848
v 0.025187 0.018322 0.074553
v -0.003833 0.018291 0.078529
v 0.052892 0.018304 0.058394
v 0.044504 0.017263 0.066635
v -0.005203 0.017258 0.079917
v 0.065736 0.018638 0.042990
v 0.067589 0.017107 0.043653
v -0.072385 0.017536 -0.034754
v -0.072785 0.018360 -0.029725
v -0.055970 0.018005 -0.056514
v -0.074866 0.017383 0.029373
v -0.054669 0.017592 0.059117
v -0.074390 0.018453 0.026887
v -0.051650 0.018278 0.059389
v -0.028756 0.017705 0.074681
v -0.027708 0.018283 0.073192
v -0.080296 0.017089 -0.004124
v -0.078449 0.018318 -0.005022
v 0.022382 0.017398 -0.077192
v 0.013445 0.018348 -0.077815
v 0.049477 0.018087 -0.062092
v -0.011400 0.017856 -0.078947
v 0.062794 0.025346 -0.047212
v 0.076985 0.043834 -0.016217
v 0.066056 -0.018771 0.043196
v 0.065079 -0.002600 0.046945
v 0.074680 0.040260 0.023402
v 0.078064 0.045862 0.005964
v 0.076266 -0.043310 -0.017391
v 0.078428 -0.046966 0.001522
v 0.073865 -0.039119 0.026518
v 0.051335 -0.018550 -0.060160
v 0.066592 -0.028752 -0.042242
v 0.038840 -0.018408 -0.069030
v 0.058910 -0.018198 0.053649
v 0.041352 -0.018439 0.067739
v 0.021095 -0.018261 0.076936
v -0.001296 -0.017692 0.080159
v -0.018083 -0.018533 0.077093
v -0.037537 -0.018305 0.070185
v -0.054254 -0.018475 0.057906
v -0.066052 -0.018399 0.044286
v -0.074362 -0.018224 0.028378
v -0.079191 -0.018408 0.006350
v -0.078597 -0.018441 -0.009815
v -0.075113 -0.018071 -0.027157
v -0.066027 -0.017391 -0.045601
v -0.049140 -0.017505 -0.063399
v -0.037692 0.017890 -0.070093
v -0.030588 -0.017505 -0.073990
v -0.007285 -0.017653 -0.079990
v 0.020102 -0.018292 -0.077203
v -0.066081 -0.018741 -0.043148
v -0.018800 -0.018720 -0.076669
v -0.046267 -0.018835 -0.063454

vn 0.998826 -0.037171 -0.031050
vn 0.998826 -0.037171 -0.031050
vn 0.998826 -0.037171 -0.031050
vn 0.997854 -0.026976 0.059669
vn 0.997854 -0.026976 0.059669
vn 0.997854 -0.026976 0.059669
vn 0.999987 0.002573 0.004412
vn 0.999987 0.002573 0.004412
vn 0.999987 0.002573 0.004412
vn 1.000000 -0.000118 -0.000948
vn 1.000000 -0.000118 -0.000948
vn 1.000000 -0.000118 -0.000948
vn 0.999883 0.005974 0.014080
vn 0.999883 0.005974 0.014080
vn 0.999883 0.005974 0.014080
vn 0.999949 -0.004869 -0.008841
vn 0.999949 -0.004869 -0.008841
vn 0.999949 -0.004869 -0.008841
vn 0.999997 -0.000790 0.002320
vn 0.999997 -0.000790 0.002320
vn 0.999997 -0.000790 0.002320
vn 0.999970 0.000155 0.007691
vn 0.999970 0.000155 0.007691
vn 0.999970 0.000155 0.007691
vn 0.999897 0.000276 -0.014359
vn 0.999897 0.000276 -0.014359
vn 0.999897 0.000276 -0.014359
vn 0.999996 0.002117 -0.001801
vn 0.999996 0.002117 -0.001801
vn 0.999996 0.002117 -0.001801
vn 0.999878 0.001828 0.015489
vn 0.999878 0.001828 0.015489
vn 0.999878 0.001828 0.015489
vn 0.920567 0.322703 -0.220042
vn 0.920567 0.322703 -0.220042
vn 0.920567 0.322703 -0.220042
vn 0.005630 -0.456916 -0.889492
vn 0.005630 -0.456916 -0.889492
vn 0.005630 -0.456916 -0.889492
vn 0.031576 -0.309188 -0.950477
vn 0.031576 -0.309188 -0.950477
vn 0.031576 -0.309188 -0.950477
vn 0.033644 0.123237 -0.991807
vn 0.033644 0.123237 -0.991807
vn 0.033644 0.123237 -0.991807
vn 0.017583 0.244419 -0.969510
vn 0.017583 0.244419 -0.969510
vn 0.017583 0.244419 -0.969510
vn 0.033253 0.528276 -0.848421
vn 0.033253 0.528276 -0.848421
vn 0.033253 0.528276 -0.848421
vn 0.004562 0.776181 -0.630493
vn 0.004562 0.776181 -0.630494
vn 0.004562 0.776181 -0.630493
vn 0.045978 0.938156 0.343147
vn 0.045978 0.938156 0.343147
vn 0.045978 0.938156 0.343147
vn 0.172067 0.940201 0.293966
vn 0.172067 0.940201 0.293966
vn 0.172067 0.940201 0.293966
vn 0.048025 0.778241 0.626126
vn 0.048025 0.778241 0.626126
vn 0.048025 0.778241 0.626126
vn 0.484092 0.767494 0.420247
vn 0.484092 0.767494 0.420247
vn 0.484092 0.767494 0.420247
vn 0.329650 0.607144 0.722985
vn 0.329650 0.607144 0.722985
vn 0.329650 0.607144 0.722985
vn 0.703526 -0.070917 0.707122
vn 0.703526 -0.070916 0.707122
vn 0.703526 -0.070916 0.707122
vn -0.260826 0.949151 -0.176300
vn -0.260826 0.949151 -0.176300
vn -0.260825 0.949151 -0.176300
vn -0.430137 0.856245 0.286054
vn -0.430137 0.856245 0.286054
vn -0.430137 0.856245 0.286054
vn -0.232833 0.957888 0.168046
vn -0.232833 0.957888 0.168046
vn -0.232833 0.957888 0.168046
vn -0.152003 0.952670 0.263276
vn -0.152003 0.952670 0.263276
vn -0.152003 0.952670 0.263276
vn -0.071227 0.945613 0.317400
vn -0.071227 0.945613 0.317400
vn -0.071227 0.945613 0.317400
vn -0.696443 0.697257 -0.169704
vn -0.696443 0.697257 -0.169704
vn -0.696443 0.697257 -0.169704
vn -0.101253 0.843543 0.527430
vn -0.101253 0.843543 0.527430
vn -0.101253 0.843543 0.527430
vn -0.237346 0.890267 0.388704
vn -0.237346 0.890267 0.388704
vn -0.237346 0.890267 0.388704
vn -0.773224 0.622697 0.119887
vn -0.773224 0.622697 0.119887
vn -0.773224 0.622697 0.119887
vn -0.531263 0.844783 0.064034
vn -0.531263 0.844783 0.064034
vn -0.531263 0.844783 0.064034
vn -0.593675 0.793337 -0.134785
vn -0.593675 0.793337 -0.134785
vn -0.593675 0.793337 -0.134785
vn 0.119874 0.958460 -0.258812
vn 0.119874 0.958460 -0.258812
vn 0.119874 0.958460 -0.258812
vn 0.048411 -0.187978 -0.980979
vn 0.048411 -0.187978 -0.980979
vn 0.048411 -0.187978 -0.980979
vn 0.376235 0.654352 -0.655950
vn 0.376235 0.654352 -0.655950
vn 0.376235 0.654352 -0.655950
vn 0.032946 0.857343 -0.513690
vn 0.032946 0.857343 -0.513690
vn 0.032946 0.857343 -0.513690
vn 0.019900 0.852637 -0.522125
vn 0.019900 0.852637 -0.522125
vn 0.019900 0.852637 -0.522125
vn 0.025966 0.853267 -0.520827
vn 0.025966 0.853267 -0.520827
vn 0.025966 0.853267 -0.520827
vn 0.067019 -0.262565 0.962584
vn 0.067019 -0.262565 0.962584
vn 0.067019 -0.262565 0.962584
vn 0.037875 -0.223503 0.973967
vn 0.037875 -0.223503 0.973967
vn 0.037875 -0.223503 0.973967
vn 0.002950 0.164394 0.986390
vn 0.002950 0.164394 0.986390
vn 0.002950 0.164394 0.986390
vn 0.066399 0.251978 0.965452
vn 0.066399 0.251978 0.965452
vn 0.066399 0.251978 0.965452
vn 0.030019 0.427319 0.903602
vn 0.030019 0.427319 0.903602
vn 0.030019 0.427319 0.903602
vn -0.003777 0.652719 0.757591
vn -0.003776 0.652719 0.757591
vn -0.003777 0.652719 0.757591
vn -0.036743 0.679237 0.732998
vn -0.036743 0.679237 0.732998
vn -0.036743 0.679237 0.732998
vn -0.015901 0.952856 0.303007
vn -0.015901 0.952856 0.303007
vn -0.015901 0.952856 0.303007
vn 0.072853 0.910627 0.406755
vn 0.072853 0.910627 0.406755
vn 0.072853 0.910627 0.406755
vn -0.041970 0.995152 -0.088945
vn -0.041970 0.995152 -0.088945
vn -0.041970 0.995152 -0.088945
vn 0.068847 0.997019 0.034841
vn 0.068847 0.997019 0.034841
vn 0.068847 0.997019 0.034841
vn 0.096810 0.945524 -0.310825
vn 0.096810 0.945524 -0.310825
vn 0.096810 0.945524 -0.310825
vn -0.024585 -0.982048 -0.187020
vn -0.024585 -0.982048 -0.187020
vn -0.024585 -0.982048 -0.187020
vn 0.154679 -0.987280 -0.036779
vn 0.154679 -0.987280 -0.036779
vn 0.154679 -0.987280 -0.036779
vn -0.069246 -0.955346 0.287260
vn -0.069246 -0.955346 0.287260
vn -0.069246 -0.955346 0.287260
vn 0.063624 -0.903445 0.423957
vn 0.063624 -0.903445 0.423957
vn 0.063624 -0.903445 0.423957
vn 0.042506 -0.679658 0.732297
vn 0.042506 -0.679658 0.732297
vn 0.042506 -0.679658 0.732297
vn -0.020187 -0.638393 0.769446
vn -0.020187 -0.638393 0.769446
vn -0.020187 -0.638393 0.769446
vn 0.026940 -0.815027 -0.578796
vn 0.026940 -0.815027 -0.578796
vn 0.026940 -0.815027 -0.578796
vn 0.026572 -0.858799 -0.511623
vn 0.026571 -0.858799 -0.511623
vn 0.026571 -0.858799 -0.511623
vn 0.046103 -0.850166 -0.524492
vn 0.046103 -0.850166 -0.524492
vn 0.046103 -0.850166 -0.524492
vn 0.029754 -0.857374 -0.513833
vn 0.029754 -0.857374 -0.513833
vn 0.029754 -0.857374 -0.513834
vn 0.558003 -0.253787 -0.790079
vn 0.558003 -0.253787 -0.790079
vn 0.558003 -0.253787 -0.790079
vn 0.820697 -0.081527 0.565517
vn 0.820697 -0.081527 0.565517
vn 0.820697 -0.081527 0.565517
vn 0.699555 0.030186 0.713941
vn 0.699555 0.030186 0.713941
vn 0.699555 0.030186 0.713941
vn 0.705376 0.027161 0.708313
vn 0.705376 0.027161 0.708313
vn 0.705376 0.027161 0.708313
vn 0.625826 -0.031165 0.779340
vn 0.625826 -0.031165 0.779340
vn 0.625826 -0.031165 0.779340
vn 0.413325 -0.008345 0.910545
vn 0.413325 -0.008345 0.910545
vn 0.413325 -0.008345 0.910545
vn 0.411653 -0.007020 0.911314
vn 0.411653 -0.007020 0.911314
vn 0.411653 -0.007020 0.911314
vn 0.141961 -0.019695 0.989676
vn 0.141961 -0.019695 0.989676
vn 0.141961 -0.019695 0.989676
vn 0.082768 0.016153 0.996438
vn 0.082768 0.016153 0.996438
vn 0.082768 0.016153 0.996438
vn -0.179059 -0.013202 0.983750
vn -0.179059 -0.013202 0.983750
vn -0.179059 -0.013202 0.983750
vn -0.216995 0.001048 0.976172
vn -0.216995 0.001048 0.976172
vn -0.216995 0.001048 0.976172
vn -0.334748 -0.035935 0.941622
vn -0.334748 -0.035935 0.941622
vn -0.334748 -0.035935 0.941622
vn -0.514859 0.018539 0.857074
vn -0.514859 0.018539 0.857074
vn -0.514859 0.018539 0.857074
vn -0.591438 -0.033867 0.805639
vn -0.591438 -0.033867 0.805639
vn -0.591438 -0.033867 0.805639
vn -0.755559 -0.030677 0.654362
vn -0.755559 -0.030677 0.654362
vn -0.755559 -0.030677 0.654362
vn -0.827030 0.030261 0.561342
vn -0.827030 0.030261 0.561342
vn -0.827030 0.030261 0.561342
vn -0.886186 -0.025453 0.462629
vn -0.886186 -0.025453 0.462629
vn -0.886186 -0.025453 0.462629
vn -0.976584 -0.019792 0.214225
vn -0.976584 -0.019792 0.214225
vn -0.976584 -0.019792 0.214225
vn -0.987001 0.016432 0.159869
vn -0.987001 0.016432 0.159869
vn -0.987001 0.016432 0.159869
vn -0.998451 -0.041897 -0.036615
vn -0.998451 -0.041897 -0.036615
vn -0.998451 -0.041897 -0.036615
vn -0.980243 -0.015303 -0.197203
vn -0.980243 -0.015303 -0.197203
vn -0.980243 -0.015303 -0.197203
vn -0.968089 0.020901 -0.249734
vn -0.968089 0.020901 -0.249734
vn -0.968089 0.020901 -0.249734
vn -0.896382 -0.025724 -0.442535
vn -0.896382 -0.025724 -0.442535
vn -0.896382 -0.025724 -0.442535
vn -0.798079 0.041425 -0.601127
vn -0.798079 0.041425 -0.601127
vn -0.798079 0.041425 -0.601127
vn -0.725435 -0.006082 -0.688264
vn -0.725435 -0.006082 -0.688264
vn -0.725435 -0.006082 -0.688264
vn -0.595687 0.040958 -0.802172
vn -0.595687 0.040958 -0.802172
vn -0.595687 0.040958 -0.802171
vn -0.495771 -0.003893 -0.868445
vn -0.495771 -0.003893 -0.868445
vn -0.495771 -0.003893 -0.868445
vn -0.318832 0.040268 -0.946956
vn -0.318832 0.040268 -0.946956
vn -0.318831 0.040268 -0.946956
vn -0.249348 -0.000442 -0.968414
vn -0.249348 -0.000442 -0.968414
vn -0.249348 -0.000442 -0.968414
vn 0.052322 0.035385 -0.998003
vn 0.052322 0.035385 -0.998003
vn 0.052322 0.035385 -0.998003
vn 0.101115 -0.006165 -0.994856
vn 0.101115 -0.006165 -0.994856
vn 0.101115 -0.006165 -0.994856
vn 0.393484 0.012904 -0.919241
vn 0.393484 0.012904 -0.919241
vn 0.393484 0.012904 -0.919241
vn 0.318000 -0.020036 -0.947879
vn 0.318000 -0.020036 -0.947879
vn 0.318000 -0.020036 -0.947879
vn 0.379217 -0.059703 -0.923380
vn 0.379217 -0.059703 -0.923380
vn 0.379217 -0.059703 -0.923380
vn 0.394554 -0.148829 -0.906740
vn 0.394554 -0.148829 -0.906740
vn 0.394554 -0.148829 -0.906740
vn 0.332930 0.397903 -0.854886
vn 0.332930 0.397903 -0.854886
vn 0.332930 0.397903 -0.854886
vn 0.474356 0.189150 -0.859772
vn 0.474356 0.189150 -0.859772
vn 0.474356 0.189150 -0.859772
vn -0.170764 -0.983760 -0.055285
vn -0.170764 -0.983760 -0.055285
vn -0.170764 -0.983760 -0.055285
vn 0.007661 -0.974278 0.225219
vn 0.007661 -0.974278 0.225219
vn 0.007661 -0.974278 0.225219
vn 0.006639 -0.958470 -0.285116
vn 0.006639 -0.958470 -0.285116
vn 0.006639 -0.958470 -0.285116
vn -0.394281 -0.836355 -0.380859
vn -0.394281 -0.836355 -0.380859
vn -0.394281 -0.836355 -0.380859
vn -0.180370 -0.906075 -0.382747
vn -0.180370 -0.906075 -0.382747
vn -0.180370 -0.906075 -0.382747
vn -0.687162 -0.630027 -0.361765
vn -0.687162 -0.630027 -0.361765
vn -0.687162 -0.630027 -0.361765
vn -0.344376 -0.719387 -0.603231
vn -0.344376 -0.719387 -0.603231
vn -0.344376 -0.719387 -0.603231
vn -0.463625 -0.771933 -0.434938
vn -0.463625 -0.771933 -0.434938
vn -0.463625 -0.771933 -0.434938
vn -0.240370 -0.289699 -0.926443
vn -0.240370 -0.289699 -0.926443
vn -0.240370 -0.289700 -0.926443
vn 0.990311 -0.058926 -0.125742
vn 0.990311 -0.058926 -0.125742
vn 0.990311 -0.058926 -0.125742
vn 0.976793 -0.007972 -0.214038
vn 0.976793 -0.007972 -0.214038
vn 0.976793 -0.007972 -0.214038
vn 0.818786 -0.034885 -0.573039
vn 0.818786 -0.034885 -0.573039
vn 0.818786 -0.034885 -0.573039
vn 0.748304 -0.137144 -0.649024
vn 0.748304 -0.137144 -0.649024
vn 0.748304 -0.137144 -0.649024
vn 0.886131 -0.018166 -0.463080
vn 0.886131 -0.018166 -0.463080
vn 0.886131 -0.018166 -0.463080
vn 0.592037 -0.009423 -0.805855
vn 0.592037 -0.009423 -0.805855
vn 0.592037 -0.009423 -0.805855
vn 0.498490 -0.062851 -0.864614
vn 0.498490 -0.062851 -0.864614
vn 0.498490 -0.062851 -0.864614
vn 0.334436 -0.012393 -0.942337
vn 0.334436 -0.012393 -0.942337
vn 0.334436 -0.012393 -0.942337
vn 0.217911 -0.046305 -0.974870
vn 0.217911 -0.046305 -0.974870
vn 0.217911 -0.046305 -0.974870
vn -0.004268 0.040620 -0.999166
vn -0.004268 0.040620 -0.999166
vn -0.004268 0.040620 -0.999166
vn -0.135499 -0.049295 -0.989550
vn -0.135499 -0.049295 -0.989550
vn -0.135499 -0.049295 -0.989550
vn -0.413461 -0.013048 -0.910428
vn -0.413461 -0.013048 -0.910428
vn -0.413461 -0.013048 -0.910428
vn -0.502894 -0.061320 -0.862170
vn -0.502894 -0.061320 -0.862170
vn -0.502894 -0.061320 -0.862170
vn -0.625854 -0.001787 -0.779938
vn -0.625854 -0.001787 -0.779938
vn -0.625854 -0.001787 -0.779938
vn -0.767912 -0.010097 -0.640476
vn -0.767912 -0.010097 -0.640476
vn -0.767912 -0.010097 -0.640476
vn -0.825491 -0.063174 -0.560869
vn -0.825491 -0.063174 -0.560869
vn -0.825491 -0.063174 -0.560869
vn -0.910258 -0.010069 -0.413919
vn -0.910258 -0.010069 -0.413919
vn -0.910258 -0.010069 -0.413919
vn -0.906584 -0.007258 -0.421963
vn -0.906584 -0.007258 -0.421963
vn -0.906584 -0.007258 -0.421963
vn -0.983464 0.004801 -0.181041
vn -0.983464 0.004801 -0.181041
vn -0.983464 0.004801 -0.181041
vn -0.981843 0.002632 -0.189678
vn -0.981843 0.002632 -0.189678
vn -0.981843 0.002632 -0.189678
vn 0.999286 -0.008797 0.036750
vn 0.999286 -0.008797 0.036750
vn 0.999286 -0.008797 0.036750
vn 0.974190 -0.033021 0.223301
vn 0.974190 -0.033021 0.223301
vn 0.974190 -0.033021 0.223301
vn 0.846081 -0.039447 0.531593
vn 0.846081 -0.039447 0.531593
vn 0.846081 -0.039447 0.531593
vn 0.935482 0.042100 0.350857
vn 0.935482 0.042100 0.350857
vn 0.935482 0.042100 0.350857
vn 0.714675 0.056929 0.697136
vn 0.714675 0.056929 0.697136
vn 0.714675 0.056929 0.697136
vn 0.596367 0.005883 0.802691
vn 0.596367 0.005883 0.802691
vn 0.596367 0.005883 0.802691
vn 0.432529 0.061638 0.899511
vn 0.432529 0.061638 0.899511
vn 0.432529 0.061638 0.899511
vn 0.319125 -0.005536 0.947696
vn 0.319125 -0.005536 0.947696
vn 0.319125 -0.005536 0.947696
vn -0.046806 0.071529 0.996340
vn -0.046806 0.071529 0.996340
vn -0.046806 0.071529 0.996340
vn 0.013511 0.019164 0.999725
vn 0.013511 0.019164 0.999725
vn 0.013511 0.019164 0.999725
vn -0.399425 -0.057273 0.914975
vn -0.399425 -0.057273 0.914975
vn -0.399425 -0.057273 0.914975
vn -0.399642 -0.057448 0.914870
vn -0.399642 -0.057448 0.914870
vn -0.399642 -0.057448 0.914870
vn -0.578714 0.013650 0.815416
vn -0.578714 0.013650 0.815416
vn -0.578714 0.013650 0.815416
vn -0.744526 -0.002558 0.667588
vn -0.744526 -0.002558 0.667588
vn -0.744526 -0.002558 0.667588
vn -0.759545 0.006425 0.650423
vn -0.759545 0.006425 0.650423
vn -0.759545 0.006425 0.650423
vn -0.903447 -0.024112 0.428022
vn -0.903447 -0.024112 0.428022
vn -0.903447 -0.024112 0.428022
vn -0.931334 0.002779 0.364156
vn -0.931334 0.002779 0.364156
vn -0.931334 0.002779 0.364156
vn -0.993359 0.006651 0.114865
vn -0.993359 0.006651 0.114865
vn -0.993359 0.006651 0.114865
vn -0.998772 -0.006273 0.049149
vn -0.998772 -0.006273 0.049149
vn -0.998772 -0.006273 0.049149

f 1//1 2//2 3//3
f 1//4 4//5 2//6
f 2//7 5//8 3//9
f 6//10 7//11 8//12
f 7//13 6//14 9//15
f 8//16 7//17 5//18
f 8//19 5//20 2//21
f 10//22 11//23 7//24
f 7//25 9//26 10//27
f 12//28 11//29 13//30
f 13//31 11//32 10//33
f 2//34 14//35 8//36
f 15//37 1//38 16//39
f 4//40 1//41 15//42
f 2//43 4//44 15//45
f 17//46 2//47 15//48
f 14//49 2//50 17//51
f 14//52 17//53 18//54
f 19//55 20//56 21//57
f 22//58 20//59 23//60
f 19//61 21//62 24//63
f 25//64 22//65 26//66
f 23//67 20//68 19//69
f 26//70 22//71 23//72
f 27//73 28//74 29//75
f 30//76 31//77 32//78
f 31//79 33//80 32//81
f 33//82 34//83 35//84
f 35//85 34//86 21//87
f 27//88 36//89 28//90
f 34//91 24//92 21//93
f 31//94 34//95 33//96
f 36//97 30//98 32//99
f 36//100 32//101 37//102
f 28//103 36//104 37//105
f 38//106 39//107 40//108
f 41//109 39//110 38//111
f 18//112 40//113 42//114
f 14//115 18//116 42//117
f 8//118 14//119 43//120
f 14//121 42//122 43//123
f 11//124 12//125 44//126
f 12//127 45//128 44//129
f 45//130 12//131 26//132
f 12//133 13//134 26//135
f 26//136 13//137 25//138
f 13//139 10//140 25//141
f 10//142 46//143 25//144
f 9//145 47//146 46//147
f 10//148 9//149 46//150
f 6//151 43//152 47//153
f 9//154 6//155 47//156
f 6//157 8//158 43//159
f 48//160 3//161 49//162
f 3//163 5//164 49//165
f 5//166 50//167 49//168
f 5//169 7//170 50//171
f 7//172 11//173 50//174
f 50//175 11//176 44//177
f 1//178 51//179 16//180
f 51//181 3//182 52//183
f 51//184 1//185 3//186
f 3//187 48//188 52//189
f 16//190 51//191 53//192
f 44//193 45//194 54//195
f 45//196 26//197 54//198
f 26//199 23//200 54//201
f 54//202 23//203 55//204
f 55//205 23//206 56//207
f 23//208 19//209 56//210
f 56//211 19//212 57//213
f 19//214 24//215 57//216
f 57//217 24//218 58//219
f 24//220 34//221 58//222
f 58//223 34//224 59//225
f 34//226 31//227 59//228
f 59//229 31//230 60//231
f 60//232 31//233 61//234
f 31//235 30//236 61//237
f 61//238 30//239 62//240
f 62//241 30//242 63//243
f 30//244 36//245 63//246
f 63//247 36//248 64//249
f 64//250 36//251 65//252
f 36//253 27//254 65//255
f 65//256 27//257 66//258
f 27//259 29//260 66//261
f 66//262 29//263 67//264
f 29//265 68//266 67//267
f 67//268 68//269 69//270
f 68//271 41//272 69//273
f 69//274 41//275 70//276
f 41//277 38//278 70//279
f 38//280 71//281 70//282
f 17//283 15//284 38//285
f 38//286 15//287 71//288
f 15//289 16//290 71//291
f 71//292 16//293 53//294
f 18//295 17//296 40//297
f 17//298 38//299 40//300
f 65//301 72//302 64//303
f 58//304 56//305 57//306
f 70//307 71//308 73//309
f 74//310 72//311 67//312
f 73//313 74//314 69//315
f 72//316 65//317 66//318
f 69//319 74//320 67//321
f 67//322 72//323 66//324
f 70//325 73//326 69//327
f 37//328 32//329 63//330
f 63//331 32//332 62//333
f 32//334 33//335 60//336
f 61//337 32//338 60//339
f 62//340 32//341 61//342
f 60//343 33//344 59//345
f 33//346 35//347 59//348
f 59//349 35//350 58//351
f 35//352 21//353 58//354
f 21//355 56//356 58//357
f 21//358 20//359 56//360
f 56//361 20//362 55//363
f 20//364 22//365 55//366
f 55//367 22//368 54//369
f 22//370 25//371 44//372
f 22//373 44//374 54//375
f 25//376 50//377 44//378
f 25//379 46//380 50//381
f 50//382 47//383 49//384
f 46//385 47//386 50//387
f 64//388 37//389 63//390
f 28//391 37//392 64//393
f 29//394 28//395 72//396
f 72//397 28//398 64//399
f 74//400 29//401 72//402
f 68//403 29//404 74//405
f 68//406 74//407 73//408
f 41//409 68//410 73//411
f 39//412 41//413 73//414
f 71//415 39//416 73//417
f 53//418 39//419 71//420
f 40//421 39//422 53//423
f 51//424 40//425 53//426
f 42//427 40//428 51//429
f 52//430 42//431 51//432
f 43//433 42//434 52//435
f 48//436 43//437 52//438
f 43//439 48//440 49//441
f 47//442 43//443 49//444

