########################################################################
# Approximate convex decomposition for triangle mesh /tmp/buildd/ros-hydro-pr2-description-1.11.4-0precise-20150329-0527/meshes/upper_arm_v0/convex/forearm_roll.obj
# Input Mesh has 504 vertices and 993 triangles.
# Recursion depth: 5
# Concavity Threshold Percentage: 5.00
# Hull Merge Volume Percentage: 10.00
# Maximum output vertices per hull: 12
# Hull Skin Width: 0.00
########################################################################
########################################################################
## Hull Piece 1 with 12 vertices and 20 triangles.
########################################################################
v 0.092398115 -0.028852180 -0.029629542
v 0.093900003 0.000178550 0.001350153
v 0.091899998 -0.000589842 0.002736147
v 0.080263428 -0.002874732 -0.006943000
v 0.091899998 0.015337566 -0.037679031
v 0.092399999 -0.000087000 -0.041299999
v 0.086971752 0.006603815 -0.003382447
v 0.087201491 -0.007454679 0.000298265
v 0.093900003 0.014138978 -0.038170539
v 0.081880808 0.002876000 -0.006942000
v 0.093900003 -0.018980000 -0.036389001
v 0.091899998 -0.017430000 -0.037005998
f 1 2 3
f 4 5 6
f 7 4 3
f 7 3 2
f 7 2 5
f 8 1 3
f 8 3 4
f 8 4 1
f 9 6 5
f 9 5 2
f 10 5 4
f 10 4 7
f 10 7 5
f 11 2 1
f 11 9 2
f 11 6 9
f 12 6 11
f 12 11 1
f 12 1 4
f 12 4 6
########################################################################
## Hull Piece 2 with 12 vertices and 20 triangles.
########################################################################
v 0.093900003 -0.000823681 0.000222288
v 0.084885135 -0.005314000 0.005314000
v 0.092737012 -0.026091749 0.031907439
v 0.106500000 -0.016233187 0.019545196
v 0.093724996 -0.027928818 -0.030083647
v 0.105999999 -0.037687000 -0.001467000
v 0.106504999 -0.037296001 -0.015037000
v 0.092414998 -0.041515999 -0.000527000
v 0.093401998 -0.036711000 0.019200999
v 0.106503002 -0.028053001 -0.015215000
v 0.105999999 -0.020087000 0.024377724
v 0.092390999 -0.037257999 -0.018208999
f 13 14 15
f 13 15 16
f 13 17 14
f 18 19 16
f 18 20 19
f 21 20 18
f 21 15 14
f 21 14 20
f 22 19 17
f 22 17 13
f 22 16 19
f 22 13 16
f 23 15 21
f 23 21 18
f 23 16 15
f 23 18 16
f 24 17 19
f 24 19 20
f 24 14 17
f 24 20 14
########################################################################
## Hull Piece 3 with 12 vertices and 20 triangles.
########################################################################
v -0.024499999 0.005314000 0.005314000
v -0.024499999 -0.000000000 -0.007514000
v -0.024499999 -0.007514000 0.000000000
v 0.083903685 0.007514000 0.000000000
v 0.088244200 0.000000000 0.007514000
v 0.091899998 0.001219287 0.002288519
v 0.086846024 -0.007514000 0.000000000
v 0.080421127 -0.000023806 -0.007509565
v -0.024499999 -0.002876000 0.006942000
v -0.024499999 0.006942000 -0.002876000
v 0.086971752 0.006603815 -0.003382447
v -0.024499999 -0.005314000 -0.005314000
f 25 26 27
f 28 25 29
f 30 31 32
f 30 29 31
f 30 28 29
f 33 27 31
f 33 31 29
f 33 29 25
f 33 25 27
f 34 26 25
f 34 25 28
f 35 34 28
f 35 32 26
f 35 26 34
f 35 28 30
f 35 30 32
f 36 32 31
f 36 31 27
f 36 27 26
f 36 26 32
########################################################################
## Hull Piece 4 with 12 vertices and 20 triangles.
########################################################################
v 0.092737012 -0.026091749 0.031907439
v 0.084999181 -0.005033538 0.005501281
v 0.093900003 -0.000823681 0.000222288
v 0.093396664 0.026515950 0.031555481
v 0.106500000 0.024707172 0.014774075
v 0.106500000 0.018573999 0.037960999
v 0.106500000 -0.019530000 0.037023000
v 0.106500000 -0.019587999 0.023751998
v 0.105999999 -0.011088000 0.041289002
v 0.093400002 -0.000088000 0.042800002
v 0.092403002 0.015613000 0.039825000
v 0.092384003 -0.015034000 0.040139001
f 37 38 39
f 40 39 38
f 41 39 40
f 42 43 41
f 42 41 40
f 44 39 41
f 44 41 43
f 44 37 39
f 44 43 37
f 45 43 42
f 45 42 46
f 47 46 42
f 47 42 40
f 47 40 38
f 48 46 47
f 48 47 38
f 48 37 43
f 48 43 45
f 48 45 46
f 48 38 37
########################################################################
## Hull Piece 5 with 12 vertices and 20 triangles.
########################################################################
v 0.093900003 0.000178550 0.001350153
v 0.083256654 0.006942000 0.002876000
v 0.092828915 0.014992249 -0.038505707
v 0.106500000 0.024707172 0.014774075
v 0.092391856 0.025963245 0.032064259
v 0.092386998 0.030787000 -0.027629999
v 0.091899998 0.040521000 -0.005227000
v 0.106500000 0.037413001 -0.014000000
v 0.093401998 0.038474001 0.014962000
v 0.089518867 0.001083228 0.007298560
v 0.106500000 0.027412999 -0.014000000
v 0.106500000 0.037333999 -0.002189000
f 49 50 51
f 52 53 49
f 54 51 50
f 54 50 55
f 54 56 51
f 54 55 56
f 57 53 52
f 57 50 53
f 57 55 50
f 58 49 53
f 58 53 50
f 58 50 49
f 59 51 56
f 59 56 52
f 59 49 51
f 59 52 49
f 60 56 55
f 60 55 57
f 60 52 56
f 60 57 52
