<?xml version="1.0" encoding="utf-8"?>
<COLLADA version="1.4.0" xmlns="http://www.collada.org/2005/11/COLLADASchema">
	<asset>
		<contributor>
			<author>NxuStream2 converter - http://www.ageia.com</author>
			<authoring_tool>PhysX Rocket, PhysX Viewer, or CreateDynamics</authoring_tool>
			<comments>questions to: jratcliff@ageia.com</comments>
			<copyright></copyright>
			<source_data>chair_gothic_tilted</source_data>
		</contributor>
		<unit meter="1" name="meter"/>
		<up_axis>Y_UP</up_axis>
	</asset>
   <library_materials>
      <material id="Material" name="Material">
         <instance_effect url="#Material-fx"></instance_effect>
      </material>
   </library_materials>
   <library_effects>
      <effect id="Material-fx" name="Material">
         <profile_COMMON>
            <technique id="Material-fx-COMMON" sid="COMMON">
               <phong>
                  <ambient>
                     <color>0.803922 0.588235 0.92549 1</color>
                  </ambient>
                  <diffuse>
                     <color>0.803922 0.588235 0.92549 1</color>
                  </diffuse>
                  <specular>
                     <color>0.631373 0.631373 0.631373 1</color>
                  </specular>
                  <shininess>
                     <float>1</float>
                  </shininess>
                  <reflective>
                     <color>0 0 0 1</color>
                  </reflective>
                  <transparent>
                     <color>1 1 1 1</color>
                  </transparent>
                  <transparency>
                     <float>0</float>
                  </transparency>
               </phong>
           </technique>
         </profile_COMMON>
      </effect>
   </library_effects>
  <library_geometries>
    <geometry id="/tmp/buildd/ros-hydro-pr2-description-1.11.4-0precise-20150329-0527/meshes/upper_arm_v0/convex/upper_arm_0-Mesh" name="/tmp/buildd/ros-hydro-pr2-description-1.11.4-0precise-20150329-0527/meshes/upper_arm_v0/convex/upper_arm_0-Mesh">
      <convex_mesh>
        <source id="/tmp/buildd/ros-hydro-pr2-description-1.11.4-0precise-20150329-0527/meshes/upper_arm_v0/convex/upper_arm_0-Position">
          <float_array count="36" id="/tmp/buildd/ros-hydro-pr2-description-1.11.4-0precise-20150329-0527/meshes/upper_arm_v0/convex/upper_arm_0-Position-array">
            -0.052209999 0.006984 -0.0208  0.083035856 0.00999135 0.003504046  0.016438 0.009998 -0.021411  -0.039414 -0.001706 -0.022991  
            -0.052195001 -0.010839 -0.017201001  -0.052244999 0.004 -0.001483  0.083016679 -0.013447107 0.002820553  -0.038922999 -0.003691 -0.002147  
            0.082675874 -0.013450221 -0.009326139  0.082681358 0.009985441 -0.009130625  0.013789 -0.013464 -0.021972001  -0.035790998 -0.010994 -0.006145  
          </float_array>
          <technique_common>
            <accessor count="12" source="#/tmp/buildd/ros-hydro-pr2-description-1.11.4-0precise-20150329-0527/meshes/upper_arm_v0/convex/upper_arm_0-Position-array" stride="3">
              <param name="X" type="float"/>
              <param name="Y" type="float"/>
              <param name="Z" type="float"/>
            </accessor>
    		   </technique_common>
				 </source>
   		 <vertices id="/tmp/buildd/ros-hydro-pr2-description-1.11.4-0precise-20150329-0527/meshes/upper_arm_v0/convex/upper_arm_0-Vertex">
					<input semantic="POSITION" source="#/tmp/buildd/ros-hydro-pr2-description-1.11.4-0precise-20150329-0527/meshes/upper_arm_v0/convex/upper_arm_0-Position"/>
				</vertices>
				<triangles material="Material" count="20">
					<input offset="0" semantic="VERTEX" source="#/tmp/buildd/ros-hydro-pr2-description-1.11.4-0precise-20150329-0527/meshes/upper_arm_v0/convex/upper_arm_0-Vertex"/>
           <p>
             0 1 2  0 2 3  4 0 3  5 0 4  
             5 1 0  6 1 5  6 5 7  6 8 1  
             9 1 8  9 8 2  9 2 1  10 8 6  
             10 4 3  10 3 2  10 2 8  11 4 10  
             11 10 6  11 6 7  11 7 5  11 5 4  
           </p>
				</triangles>
      </convex_mesh>
		</geometry>
    <geometry id="/tmp/buildd/ros-hydro-pr2-description-1.11.4-0precise-20150329-0527/meshes/upper_arm_v0/convex/upper_arm_1-Mesh" name="/tmp/buildd/ros-hydro-pr2-description-1.11.4-0precise-20150329-0527/meshes/upper_arm_v0/convex/upper_arm_1-Mesh">
      <convex_mesh>
        <source id="/tmp/buildd/ros-hydro-pr2-description-1.11.4-0precise-20150329-0527/meshes/upper_arm_v0/convex/upper_arm_1-Position">
          <float_array count="36" id="/tmp/buildd/ros-hydro-pr2-description-1.11.4-0precise-20150329-0527/meshes/upper_arm_v0/convex/upper_arm_1-Position-array">
            0.281820059 -0.0001537 0.014095739  0.215734005 -0.0001537 0.065286189  0.215734005 0.065210983 -0.008666822  0.215734005 0.04205076 0.068183467  
            0.221814007 0.059891 0.051706001  0.282406956 0.058473315 0.002410493  0.282406956 0.058442462 -0.008666822  0.231107488 -0.0001537 0.061332382  
            0.237608999 0.048647001 0.054765001  0.282406956 0.04513042 0.013357512  0.215734005 0.06036007 0.050904077  0.215734005 0.048625417 0.067491576  
          </float_array>
          <technique_common>
            <accessor count="12" source="#/tmp/buildd/ros-hydro-pr2-description-1.11.4-0precise-20150329-0527/meshes/upper_arm_v0/convex/upper_arm_1-Position-array" stride="3">
              <param name="X" type="float"/>
              <param name="Y" type="float"/>
              <param name="Z" type="float"/>
            </accessor>
    		   </technique_common>
				 </source>
   		 <vertices id="/tmp/buildd/ros-hydro-pr2-description-1.11.4-0precise-20150329-0527/meshes/upper_arm_v0/convex/upper_arm_1-Vertex">
					<input semantic="POSITION" source="#/tmp/buildd/ros-hydro-pr2-description-1.11.4-0precise-20150329-0527/meshes/upper_arm_v0/convex/upper_arm_1-Position"/>
				</vertices>
				<triangles material="Material" count="20">
					<input offset="0" semantic="VERTEX" source="#/tmp/buildd/ros-hydro-pr2-description-1.11.4-0precise-20150329-0527/meshes/upper_arm_v0/convex/upper_arm_1-Vertex"/>
           <p>
             0 1 2  3 2 1  4 5 2  6 0 2  
             6 2 5  7 3 1  7 1 0  8 3 7  
             8 5 4  9 5 8  9 7 0  9 8 7  
             9 0 6  9 6 5  10 2 3  10 4 2  
             11 4 10  11 10 3  11 3 8  11 8 4  
           </p>
				</triangles>
      </convex_mesh>
		</geometry>
    <geometry id="/tmp/buildd/ros-hydro-pr2-description-1.11.4-0precise-20150329-0527/meshes/upper_arm_v0/convex/upper_arm_2-Mesh" name="/tmp/buildd/ros-hydro-pr2-description-1.11.4-0precise-20150329-0527/meshes/upper_arm_v0/convex/upper_arm_2-Mesh">
      <convex_mesh>
        <source id="/tmp/buildd/ros-hydro-pr2-description-1.11.4-0precise-20150329-0527/meshes/upper_arm_v0/convex/upper_arm_2-Position">
          <float_array count="36" id="/tmp/buildd/ros-hydro-pr2-description-1.11.4-0precise-20150329-0527/meshes/upper_arm_v0/convex/upper_arm_2-Position-array">
            0.282406956 -0.059252143 0.005885352  0.215734005 -0.058176994 0.057281807  0.215734005 -0.064977154 -0.008666822  0.215734005 -0.03513493 0.068668358  
            0.215734005 -0.0001537 0.065286189  0.281820059 -0.0001537 0.014095739  0.282406956 -0.059017859 -0.008666822  0.231107488 -0.0001537 0.061332382  
            0.234328002 -0.043949001 0.060125001  0.282406956 -0.048418269 0.014341408  0.221310005 -0.057468999 0.058805  0.215734005 -0.056570627 0.061290249  
          </float_array>
          <technique_common>
            <accessor count="12" source="#/tmp/buildd/ros-hydro-pr2-description-1.11.4-0precise-20150329-0527/meshes/upper_arm_v0/convex/upper_arm_2-Position-array" stride="3">
              <param name="X" type="float"/>
              <param name="Y" type="float"/>
              <param name="Z" type="float"/>
            </accessor>
    		   </technique_common>
				 </source>
   		 <vertices id="/tmp/buildd/ros-hydro-pr2-description-1.11.4-0precise-20150329-0527/meshes/upper_arm_v0/convex/upper_arm_2-Vertex">
					<input semantic="POSITION" source="#/tmp/buildd/ros-hydro-pr2-description-1.11.4-0precise-20150329-0527/meshes/upper_arm_v0/convex/upper_arm_2-Position"/>
				</vertices>
				<triangles material="Material" count="20">
					<input offset="0" semantic="VERTEX" source="#/tmp/buildd/ros-hydro-pr2-description-1.11.4-0precise-20150329-0527/meshes/upper_arm_v0/convex/upper_arm_2-Vertex"/>
           <p>
             0 1 2  3 2 1  4 2 3  4 5 2  
             6 0 2  6 2 5  7 4 3  7 3 8  
             7 5 4  7 8 5  9 5 8  9 8 0  
             9 0 6  9 6 5  10 1 0  10 0 8  
             11 8 3  11 10 8  11 3 1  11 1 10  
           </p>
				</triangles>
      </convex_mesh>
		</geometry>
    <geometry id="/tmp/buildd/ros-hydro-pr2-description-1.11.4-0precise-20150329-0527/meshes/upper_arm_v0/convex/upper_arm_3-Mesh" name="/tmp/buildd/ros-hydro-pr2-description-1.11.4-0precise-20150329-0527/meshes/upper_arm_v0/convex/upper_arm_3-Mesh">
      <convex_mesh>
        <source id="/tmp/buildd/ros-hydro-pr2-description-1.11.4-0precise-20150329-0527/meshes/upper_arm_v0/convex/upper_arm_3-Position">
          <float_array count="36" id="/tmp/buildd/ros-hydro-pr2-description-1.11.4-0precise-20150329-0527/meshes/upper_arm_v0/convex/upper_arm_3-Position-array">
            0.082675874 -0.013450221 -0.009326139  0.126182169 -0.000818092 -0.075504817  0.126220003 -0.063056 -0.044116002  0.126024798 -0.076613128 -0.003323583  
            0.215734005 -0.06477347 -0.003323583  0.12584947 -0.013452136 -0.003323583  0.215734005 -0.060828704 -0.075852923  0.215734005 -0.028041381 -0.083560169  
            0.215734005 -0.000818092 -0.080435857  0.082686312 -0.000818092 -0.008954172  0.181988001 -0.053454001 -0.079979002  0.12582998 -0.000818092 -0.010221449  
          </float_array>
          <technique_common>
            <accessor count="12" source="#/tmp/buildd/ros-hydro-pr2-description-1.11.4-0precise-20150329-0527/meshes/upper_arm_v0/convex/upper_arm_3-Position-array" stride="3">
              <param name="X" type="float"/>
              <param name="Y" type="float"/>
              <param name="Z" type="float"/>
            </accessor>
    		   </technique_common>
				 </source>
   		 <vertices id="/tmp/buildd/ros-hydro-pr2-description-1.11.4-0precise-20150329-0527/meshes/upper_arm_v0/convex/upper_arm_3-Vertex">
					<input semantic="POSITION" source="#/tmp/buildd/ros-hydro-pr2-description-1.11.4-0precise-20150329-0527/meshes/upper_arm_v0/convex/upper_arm_3-Position"/>
				</vertices>
				<triangles material="Material" count="20">
					<input offset="0" semantic="VERTEX" source="#/tmp/buildd/ros-hydro-pr2-description-1.11.4-0precise-20150329-0527/meshes/upper_arm_v0/convex/upper_arm_3-Vertex"/>
           <p>
             0 1 2  3 0 2  3 4 5  6 4 3  
             6 3 2  6 7 4  8 7 1  8 4 7  
             9 8 1  9 0 3  9 3 5  9 1 0  
             10 1 7  10 7 6  10 2 1  10 6 2  
             11 8 9  11 9 5  11 5 4  11 4 8  
           </p>
				</triangles>
      </convex_mesh>
		</geometry>
    <geometry id="/tmp/buildd/ros-hydro-pr2-description-1.11.4-0precise-20150329-0527/meshes/upper_arm_v0/convex/upper_arm_4-Mesh" name="/tmp/buildd/ros-hydro-pr2-description-1.11.4-0precise-20150329-0527/meshes/upper_arm_v0/convex/upper_arm_4-Mesh">
      <convex_mesh>
        <source id="/tmp/buildd/ros-hydro-pr2-description-1.11.4-0precise-20150329-0527/meshes/upper_arm_v0/convex/upper_arm_4-Position">
          <float_array count="36" id="/tmp/buildd/ros-hydro-pr2-description-1.11.4-0precise-20150329-0527/meshes/upper_arm_v0/convex/upper_arm_4-Position-array">
            0.215734005 -0.000818092 -0.080435857  0.12582998 -0.000818092 -0.010221449  0.126182169 -0.000818092 -0.075504817  0.215734005 0.026957266 -0.082057796  
            0.215734005 0.06480667 -0.003323583  0.215734005 0.061755974 -0.071804903  0.126408339 0.075102024 -0.003323583  0.126252994 0.070849001 -0.029081  
            0.082681358 0.009985441 -0.009130625  0.185147002 0.054848 -0.079856999  0.126427993 0.054124001 -0.054499999  0.082686312 -0.000818092 -0.008954172  
          </float_array>
          <technique_common>
            <accessor count="12" source="#/tmp/buildd/ros-hydro-pr2-description-1.11.4-0precise-20150329-0527/meshes/upper_arm_v0/convex/upper_arm_4-Position-array" stride="3">
              <param name="X" type="float"/>
              <param name="Y" type="float"/>
              <param name="Z" type="float"/>
            </accessor>
    		   </technique_common>
				 </source>
   		 <vertices id="/tmp/buildd/ros-hydro-pr2-description-1.11.4-0precise-20150329-0527/meshes/upper_arm_v0/convex/upper_arm_4-Vertex">
					<input semantic="POSITION" source="#/tmp/buildd/ros-hydro-pr2-description-1.11.4-0precise-20150329-0527/meshes/upper_arm_v0/convex/upper_arm_4-Position"/>
				</vertices>
				<triangles material="Material" count="20">
					<input offset="0" semantic="VERTEX" source="#/tmp/buildd/ros-hydro-pr2-description-1.11.4-0precise-20150329-0527/meshes/upper_arm_v0/convex/upper_arm_4-Vertex"/>
           <p>
             0 1 2  0 2 3  0 4 1  0 3 4  
             5 4 3  6 4 5  6 5 7  6 7 8  
             9 7 5  9 3 2  9 5 3  10 7 9  
             10 9 2  10 2 8  10 8 7  11 4 6  
             11 6 8  11 1 4  11 2 1  11 8 2  
           </p>
				</triangles>
      </convex_mesh>
		</geometry>
    <geometry id="/tmp/buildd/ros-hydro-pr2-description-1.11.4-0precise-20150329-0527/meshes/upper_arm_v0/convex/upper_arm_5-Mesh" name="/tmp/buildd/ros-hydro-pr2-description-1.11.4-0precise-20150329-0527/meshes/upper_arm_v0/convex/upper_arm_5-Mesh">
      <convex_mesh>
        <source id="/tmp/buildd/ros-hydro-pr2-description-1.11.4-0precise-20150329-0527/meshes/upper_arm_v0/convex/upper_arm_5-Position">
          <float_array count="36" id="/tmp/buildd/ros-hydro-pr2-description-1.11.4-0precise-20150329-0527/meshes/upper_arm_v0/convex/upper_arm_5-Position-array">
            0.215734005 -0.06477347 -0.003323583  0.126024798 -0.076613128 -0.003323583  0.0830364 -0.0006665 0.003523608  0.215734005 -0.0006665 0.065304577  
            0.138324112 -0.0006665 0.076722905  0.191952005 -0.052739002 0.071889997  0.215734005 -0.056570627 0.061290249  0.126062006 -0.0006665 0.004994559  
            0.126040995 -0.014882 0.076617002  0.126111001 -0.052092999 0.058295  0.126067609 -0.0006665 0.075198077  0.126541004 -0.069502003 0.032917  
          </float_array>
          <technique_common>
            <accessor count="12" source="#/tmp/buildd/ros-hydro-pr2-description-1.11.4-0precise-20150329-0527/meshes/upper_arm_v0/convex/upper_arm_5-Position-array" stride="3">
              <param name="X" type="float"/>
              <param name="Y" type="float"/>
              <param name="Z" type="float"/>
            </accessor>
    		   </technique_common>
				 </source>
   		 <vertices id="/tmp/buildd/ros-hydro-pr2-description-1.11.4-0precise-20150329-0527/meshes/upper_arm_v0/convex/upper_arm_5-Vertex">
					<input semantic="POSITION" source="#/tmp/buildd/ros-hydro-pr2-description-1.11.4-0precise-20150329-0527/meshes/upper_arm_v0/convex/upper_arm_5-Position"/>
				</vertices>
				<triangles material="Material" count="20">
					<input offset="0" semantic="VERTEX" source="#/tmp/buildd/ros-hydro-pr2-description-1.11.4-0precise-20150329-0527/meshes/upper_arm_v0/convex/upper_arm_5-Vertex"/>
           <p>
             0 1 2  3 2 4  3 4 5  6 0 3  
             6 3 5  6 1 0  7 0 2  7 2 3  
             7 3 0  8 2 9  8 5 4  8 9 5  
             10 4 2  10 2 8  10 8 4  11 1 6  
             11 6 5  11 9 2  11 2 1  11 5 9  
           </p>
				</triangles>
      </convex_mesh>
		</geometry>
    <geometry id="/tmp/buildd/ros-hydro-pr2-description-1.11.4-0precise-20150329-0527/meshes/upper_arm_v0/convex/upper_arm_6-Mesh" name="/tmp/buildd/ros-hydro-pr2-description-1.11.4-0precise-20150329-0527/meshes/upper_arm_v0/convex/upper_arm_6-Mesh">
      <convex_mesh>
        <source id="/tmp/buildd/ros-hydro-pr2-description-1.11.4-0precise-20150329-0527/meshes/upper_arm_v0/convex/upper_arm_6-Position">
          <float_array count="36" id="/tmp/buildd/ros-hydro-pr2-description-1.11.4-0precise-20150329-0527/meshes/upper_arm_v0/convex/upper_arm_6-Position-array">
            0.215734005 0.048625417 0.067491576  0.160372004 0.02485 0.076912999  0.215734005 -0.0006665 0.065304577  0.215734005 0.06480667 -0.003323583  
            0.126408339 0.075102024 -0.003323583  0.082844287 0.009988198 -0.003323583  0.126117006 0.067273997 0.039083999  0.126067609 -0.0006665 0.075198077  
            0.126062006 -0.0006665 0.004994559  0.126122996 0.028919 0.072245002  0.0830364 -0.0006665 0.003523608  0.185440004 0.053557999 0.070960999  
          </float_array>
          <technique_common>
            <accessor count="12" source="#/tmp/buildd/ros-hydro-pr2-description-1.11.4-0precise-20150329-0527/meshes/upper_arm_v0/convex/upper_arm_6-Position-array" stride="3">
              <param name="X" type="float"/>
              <param name="Y" type="float"/>
              <param name="Z" type="float"/>
            </accessor>
    		   </technique_common>
				 </source>
   		 <vertices id="/tmp/buildd/ros-hydro-pr2-description-1.11.4-0precise-20150329-0527/meshes/upper_arm_v0/convex/upper_arm_6-Vertex">
					<input semantic="POSITION" source="#/tmp/buildd/ros-hydro-pr2-description-1.11.4-0precise-20150329-0527/meshes/upper_arm_v0/convex/upper_arm_6-Position"/>
				</vertices>
				<triangles material="Material" count="20">
					<input offset="0" semantic="VERTEX" source="#/tmp/buildd/ros-hydro-pr2-description-1.11.4-0precise-20150329-0527/meshes/upper_arm_v0/convex/upper_arm_6-Vertex"/>
           <p>
             0 1 2  0 2 3  4 3 5  4 5 6  
             4 6 3  7 2 1  8 2 7  8 5 3  
             8 3 2  9 6 5  9 7 1  10 7 9  
             10 9 5  10 5 8  10 8 7  11 6 9  
             11 1 0  11 9 1  11 3 6  11 0 3  
           </p>
				</triangles>
      </convex_mesh>
		</geometry>
    <geometry id="/tmp/buildd/ros-hydro-pr2-description-1.11.4-0precise-20150329-0527/meshes/upper_arm_v0/convex/upper_arm_7-Mesh" name="/tmp/buildd/ros-hydro-pr2-description-1.11.4-0precise-20150329-0527/meshes/upper_arm_v0/convex/upper_arm_7-Mesh">
      <convex_mesh>
        <source id="/tmp/buildd/ros-hydro-pr2-description-1.11.4-0precise-20150329-0527/meshes/upper_arm_v0/convex/upper_arm_7-Position">
          <float_array count="36" id="/tmp/buildd/ros-hydro-pr2-description-1.11.4-0precise-20150329-0527/meshes/upper_arm_v0/convex/upper_arm_7-Position-array">
            0.215734005 0.065210983 -0.008666822  0.215734005 -0.064977154 -0.008666822  0.283075184 0.058426633 -0.008666822  0.283075184 0.04220359 -0.084443182  
            0.283075184 -0.060668472 -0.064814001  0.215734005 0.055477329 -0.078752972  0.238762006 -0.01058 -0.086002  0.283075184 -0.05901416 -0.008666822  
            0.215734005 -0.060828704 -0.075852923  0.283075184 -0.04799968 -0.083279274  0.283075184 0.059010126 -0.073946126  0.215734005 -0.028041381 -0.083560169  
          </float_array>
          <technique_common>
            <accessor count="12" source="#/tmp/buildd/ros-hydro-pr2-description-1.11.4-0precise-20150329-0527/meshes/upper_arm_v0/convex/upper_arm_7-Position-array" stride="3">
              <param name="X" type="float"/>
              <param name="Y" type="float"/>
              <param name="Z" type="float"/>
            </accessor>
    		   </technique_common>
				 </source>
   		 <vertices id="/tmp/buildd/ros-hydro-pr2-description-1.11.4-0precise-20150329-0527/meshes/upper_arm_v0/convex/upper_arm_7-Vertex">
					<input semantic="POSITION" source="#/tmp/buildd/ros-hydro-pr2-description-1.11.4-0precise-20150329-0527/meshes/upper_arm_v0/convex/upper_arm_7-Position"/>
				</vertices>
				<triangles material="Material" count="20">
					<input offset="0" semantic="VERTEX" source="#/tmp/buildd/ros-hydro-pr2-description-1.11.4-0precise-20150329-0527/meshes/upper_arm_v0/convex/upper_arm_7-Vertex"/>
           <p>
             0 1 2  3 2 4  5 3 6  5 1 0  
             7 2 1  7 1 4  7 4 2  8 1 5  
             8 4 1  9 4 8  9 6 3  9 3 4  
             10 2 3  10 3 5  10 0 2  10 5 0  
             11 6 9  11 9 8  11 5 6  11 8 5  
           </p>
				</triangles>
      </convex_mesh>
		</geometry>
    <geometry id="/tmp/buildd/ros-hydro-pr2-description-1.11.4-0precise-20150329-0527/meshes/upper_arm_v0/convex/upper_arm_8-Mesh" name="/tmp/buildd/ros-hydro-pr2-description-1.11.4-0precise-20150329-0527/meshes/upper_arm_v0/convex/upper_arm_8-Mesh">
      <convex_mesh>
        <source id="/tmp/buildd/ros-hydro-pr2-description-1.11.4-0precise-20150329-0527/meshes/upper_arm_v0/convex/upper_arm_8-Position">
          <float_array count="36" id="/tmp/buildd/ros-hydro-pr2-description-1.11.4-0precise-20150329-0527/meshes/upper_arm_v0/convex/upper_arm_8-Position-array">
            0.347813725 0.048578858 0.063551478  0.350220889 0.058340084 -0.07374306  0.350416362 0.01047692 -0.084891587  0.43977499 0.047869001 -0.074924  
            0.474431992 0.020136001 -0.027139001  0.483713001 0.048237 -0.007187  0.34797743 0.019973628 0.054214347  0.438068986 0.019727999 0.069339998  
            0.401248008 0.051847 0.082547002  0.461308002 0.047476999 0.053385001  0.411121011 0.070263997 -0.005354  0.472772986 0.019939 0.027282  
          </float_array>
          <technique_common>
            <accessor count="12" source="#/tmp/buildd/ros-hydro-pr2-description-1.11.4-0precise-20150329-0527/meshes/upper_arm_v0/convex/upper_arm_8-Position-array" stride="3">
              <param name="X" type="float"/>
              <param name="Y" type="float"/>
              <param name="Z" type="float"/>
            </accessor>
    		   </technique_common>
				 </source>
   		 <vertices id="/tmp/buildd/ros-hydro-pr2-description-1.11.4-0precise-20150329-0527/meshes/upper_arm_v0/convex/upper_arm_8-Vertex">
					<input semantic="POSITION" source="#/tmp/buildd/ros-hydro-pr2-description-1.11.4-0precise-20150329-0527/meshes/upper_arm_v0/convex/upper_arm_8-Position"/>
				</vertices>
				<triangles material="Material" count="20">
					<input offset="0" semantic="VERTEX" source="#/tmp/buildd/ros-hydro-pr2-description-1.11.4-0precise-20150329-0527/meshes/upper_arm_v0/convex/upper_arm_8-Vertex"/>
           <p>
             0 1 2  3 2 1  4 2 3  4 3 5  
             6 7 8  6 8 0  6 2 7  6 0 2  
             9 8 7  10 8 9  10 9 5  10 5 3  
             10 3 1  10 1 0  10 0 8  11 4 5  
             11 5 9  11 9 7  11 7 2  11 2 4  
           </p>
				</triangles>
      </convex_mesh>
		</geometry>
    <geometry id="/tmp/buildd/ros-hydro-pr2-description-1.11.4-0precise-20150329-0527/meshes/upper_arm_v0/convex/upper_arm_9-Mesh" name="/tmp/buildd/ros-hydro-pr2-description-1.11.4-0precise-20150329-0527/meshes/upper_arm_v0/convex/upper_arm_9-Mesh">
      <convex_mesh>
        <source id="/tmp/buildd/ros-hydro-pr2-description-1.11.4-0precise-20150329-0527/meshes/upper_arm_v0/convex/upper_arm_9-Position">
          <float_array count="36" id="/tmp/buildd/ros-hydro-pr2-description-1.11.4-0precise-20150329-0527/meshes/upper_arm_v0/convex/upper_arm_9-Position-array">
            0.347829044 -0.048635289 0.062677771  0.350407779 0.000947073 -0.084400877  0.350216061 -0.058458846 -0.073467441  0.379070014 -0.019757999 0.074653998  
            0.421312988 -0.048416 0.081857003  0.473673999 -0.019890999 0.027287999  0.479719013 -0.048689 0.025996  0.467278987 -0.049320001 -0.050953999  
            0.414526999 -0.050060999 -0.08275  0.449016988 -0.020259 -0.062822998  0.347936183 -0.020214591 0.056565937  0.425076991 -0.068663001 0.008945  
          </float_array>
          <technique_common>
            <accessor count="12" source="#/tmp/buildd/ros-hydro-pr2-description-1.11.4-0precise-20150329-0527/meshes/upper_arm_v0/convex/upper_arm_9-Position-array" stride="3">
              <param name="X" type="float"/>
              <param name="Y" type="float"/>
              <param name="Z" type="float"/>
            </accessor>
    		   </technique_common>
				 </source>
   		 <vertices id="/tmp/buildd/ros-hydro-pr2-description-1.11.4-0precise-20150329-0527/meshes/upper_arm_v0/convex/upper_arm_9-Vertex">
					<input semantic="POSITION" source="#/tmp/buildd/ros-hydro-pr2-description-1.11.4-0precise-20150329-0527/meshes/upper_arm_v0/convex/upper_arm_9-Position"/>
				</vertices>
				<triangles material="Material" count="20">
					<input offset="0" semantic="VERTEX" source="#/tmp/buildd/ros-hydro-pr2-description-1.11.4-0precise-20150329-0527/meshes/upper_arm_v0/convex/upper_arm_9-Vertex"/>
           <p>
             0 1 2  3 0 4  3 4 5  3 5 1  
             6 7 5  6 5 4  8 2 1  9 7 8  
             9 8 1  9 1 5  9 5 7  10 1 0  
             10 0 3  10 3 1  11 2 8  11 8 7  
             11 7 6  11 6 4  11 4 0  11 0 2  
           </p>
				</triangles>
      </convex_mesh>
		</geometry>
    <geometry id="/tmp/buildd/ros-hydro-pr2-description-1.11.4-0precise-20150329-0527/meshes/upper_arm_v0/convex/upper_arm_10-Mesh" name="/tmp/buildd/ros-hydro-pr2-description-1.11.4-0precise-20150329-0527/meshes/upper_arm_v0/convex/upper_arm_10-Mesh">
      <convex_mesh>
        <source id="/tmp/buildd/ros-hydro-pr2-description-1.11.4-0precise-20150329-0527/meshes/upper_arm_v0/convex/upper_arm_10-Position">
          <float_array count="36" id="/tmp/buildd/ros-hydro-pr2-description-1.11.4-0precise-20150329-0527/meshes/upper_arm_v0/convex/upper_arm_10-Position-array">
            0.348764718 -0.063532874 0.009310882  0.350400418 0.045271654 -0.083981186  0.347813725 0.048578858 0.063551478  0.350384176 -0.04896412 -0.083056211  
            0.283075184 -0.009924058 -0.085265234  0.347829044 -0.048635289 0.062677771  0.282406956 -0.048418269 0.014341408  0.283075184 -0.058796015 -0.075268842  
            0.282406956 0.04513042 0.013357512  0.283075184 0.06087574 -0.061393134  0.283075184 0.04220359 -0.084443182  0.350220889 0.058340084 -0.07374306  
          </float_array>
          <technique_common>
            <accessor count="12" source="#/tmp/buildd/ros-hydro-pr2-description-1.11.4-0precise-20150329-0527/meshes/upper_arm_v0/convex/upper_arm_10-Position-array" stride="3">
              <param name="X" type="float"/>
              <param name="Y" type="float"/>
              <param name="Z" type="float"/>
            </accessor>
    		   </technique_common>
				 </source>
   		 <vertices id="/tmp/buildd/ros-hydro-pr2-description-1.11.4-0precise-20150329-0527/meshes/upper_arm_v0/convex/upper_arm_10-Vertex">
					<input semantic="POSITION" source="#/tmp/buildd/ros-hydro-pr2-description-1.11.4-0precise-20150329-0527/meshes/upper_arm_v0/convex/upper_arm_10-Position"/>
				</vertices>
				<triangles material="Material" count="20">
					<input offset="0" semantic="VERTEX" source="#/tmp/buildd/ros-hydro-pr2-description-1.11.4-0precise-20150329-0527/meshes/upper_arm_v0/convex/upper_arm_10-Vertex"/>
           <p>
             0 1 2  3 4 1  3 1 0  5 0 2  
             5 2 6  5 6 0  7 6 4  7 4 3  
             7 0 6  7 3 0  8 6 2  8 2 9  
             8 4 6  10 4 8  10 8 9  10 1 4  
             11 1 10  11 10 9  11 2 1  11 9 2  
           </p>
				</triangles>
      </convex_mesh>
		</geometry>
  </library_geometries>
  <library_visual_scenes>
	  <visual_scene id="Scene0-Visual" name="Scene0-Visual">
      <node id="/tmp/buildd/ros-hydro-pr2-description-1.11.4-0precise-20150329-0527/meshes/upper_arm_v0/convex/upper_arm-Node" name="/tmp/buildd/ros-hydro-pr2-description-1.11.4-0precise-20150329-0527/meshes/upper_arm_v0/convex/upper_arm" type="NODE">
        <translate>0 0 0</translate>
        <rotate>1 0 0  0</rotate>
      </node>
  	  </visual_scene>
  </library_visual_scenes>
  <library_physics_materials>
    <physics_material id="pmat0_0-PhysicsMaterial" name="pmat0_0-PhysicsMaterial">
      <technique_common>
        <dynamic_friction>0.5</dynamic_friction>
        <restitution>0</restitution>
        <static_friction>0.5</static_friction>
      </technique_common>
    </physics_material>
  </library_physics_materials>
  <library_physics_models>
    <physics_model id="Scene0-PhysicsModel">
      <rigid_body sid="/tmp/buildd/ros-hydro-pr2-description-1.11.4-0precise-20150329-0527/meshes/upper_arm_v0/convex/upper_arm-RigidBody" name="/tmp/buildd/ros-hydro-pr2-description-1.11.4-0precise-20150329-0527/meshes/upper_arm_v0/convex/upper_arm">
        <technique_common>
          <instance_physics_material url="#pmat0_0-PhysicsMaterial"/>
         <shape>
            <translate>0 0 0</translate>
            <rotate>1 0 0  0</rotate>
            <instance_physics_material url="#pmat0_0-PhysicsMaterial"/>
            <density>1</density>
            <extra>
              <technique profile="PhysX">
               <skinWidth>0</skinWidth>
              </technique>
            </extra>
            <instance_geometry url="/tmp/buildd/ros-hydro-pr2-description-1.11.4-0precise-20150329-0527/meshes/upper_arm_v0/convex/upper_arm_0-Mesh"/>
         </shape>
         <shape>
            <translate>0 0 0</translate>
            <rotate>1 0 0  0</rotate>
            <instance_physics_material url="#pmat0_0-PhysicsMaterial"/>
            <density>1</density>
            <extra>
              <technique profile="PhysX">
               <skinWidth>0</skinWidth>
              </technique>
            </extra>
            <instance_geometry url="/tmp/buildd/ros-hydro-pr2-description-1.11.4-0precise-20150329-0527/meshes/upper_arm_v0/convex/upper_arm_1-Mesh"/>
         </shape>
         <shape>
            <translate>0 0 0</translate>
            <rotate>1 0 0  0</rotate>
            <instance_physics_material url="#pmat0_0-PhysicsMaterial"/>
            <density>1</density>
            <extra>
              <technique profile="PhysX">
               <skinWidth>0</skinWidth>
              </technique>
            </extra>
            <instance_geometry url="/tmp/buildd/ros-hydro-pr2-description-1.11.4-0precise-20150329-0527/meshes/upper_arm_v0/convex/upper_arm_2-Mesh"/>
         </shape>
         <shape>
            <translate>0 0 0</translate>
            <rotate>1 0 0  0</rotate>
            <instance_physics_material url="#pmat0_0-PhysicsMaterial"/>
            <density>1</density>
            <extra>
              <technique profile="PhysX">
               <skinWidth>0</skinWidth>
              </technique>
            </extra>
            <instance_geometry url="/tmp/buildd/ros-hydro-pr2-description-1.11.4-0precise-20150329-0527/meshes/upper_arm_v0/convex/upper_arm_3-Mesh"/>
         </shape>
         <shape>
            <translate>0 0 0</translate>
            <rotate>1 0 0  0</rotate>
            <instance_physics_material url="#pmat0_0-PhysicsMaterial"/>
            <density>1</density>
            <extra>
              <technique profile="PhysX">
               <skinWidth>0</skinWidth>
              </technique>
            </extra>
            <instance_geometry url="/tmp/buildd/ros-hydro-pr2-description-1.11.4-0precise-20150329-0527/meshes/upper_arm_v0/convex/upper_arm_4-Mesh"/>
         </shape>
         <shape>
            <translate>0 0 0</translate>
            <rotate>1 0 0  0</rotate>
            <instance_physics_material url="#pmat0_0-PhysicsMaterial"/>
            <density>1</density>
            <extra>
              <technique profile="PhysX">
               <skinWidth>0</skinWidth>
              </technique>
            </extra>
            <instance_geometry url="/tmp/buildd/ros-hydro-pr2-description-1.11.4-0precise-20150329-0527/meshes/upper_arm_v0/convex/upper_arm_5-Mesh"/>
         </shape>
         <shape>
            <translate>0 0 0</translate>
            <rotate>1 0 0  0</rotate>
            <instance_physics_material url="#pmat0_0-PhysicsMaterial"/>
            <density>1</density>
            <extra>
              <technique profile="PhysX">
               <skinWidth>0</skinWidth>
              </technique>
            </extra>
            <instance_geometry url="/tmp/buildd/ros-hydro-pr2-description-1.11.4-0precise-20150329-0527/meshes/upper_arm_v0/convex/upper_arm_6-Mesh"/>
         </shape>
         <shape>
            <translate>0 0 0</translate>
            <rotate>1 0 0  0</rotate>
            <instance_physics_material url="#pmat0_0-PhysicsMaterial"/>
            <density>1</density>
            <extra>
              <technique profile="PhysX">
               <skinWidth>0</skinWidth>
              </technique>
            </extra>
            <instance_geometry url="/tmp/buildd/ros-hydro-pr2-description-1.11.4-0precise-20150329-0527/meshes/upper_arm_v0/convex/upper_arm_7-Mesh"/>
         </shape>
         <shape>
            <translate>0 0 0</translate>
            <rotate>1 0 0  0</rotate>
            <instance_physics_material url="#pmat0_0-PhysicsMaterial"/>
            <density>1</density>
            <extra>
              <technique profile="PhysX">
               <skinWidth>0</skinWidth>
              </technique>
            </extra>
            <instance_geometry url="/tmp/buildd/ros-hydro-pr2-description-1.11.4-0precise-20150329-0527/meshes/upper_arm_v0/convex/upper_arm_8-Mesh"/>
         </shape>
         <shape>
            <translate>0 0 0</translate>
            <rotate>1 0 0  0</rotate>
            <instance_physics_material url="#pmat0_0-PhysicsMaterial"/>
            <density>1</density>
            <extra>
              <technique profile="PhysX">
               <skinWidth>0</skinWidth>
              </technique>
            </extra>
            <instance_geometry url="/tmp/buildd/ros-hydro-pr2-description-1.11.4-0precise-20150329-0527/meshes/upper_arm_v0/convex/upper_arm_9-Mesh"/>
         </shape>
         <shape>
            <translate>0 0 0</translate>
            <rotate>1 0 0  0</rotate>
            <instance_physics_material url="#pmat0_0-PhysicsMaterial"/>
            <density>1</density>
            <extra>
              <technique profile="PhysX">
               <skinWidth>0</skinWidth>
              </technique>
            </extra>
            <instance_geometry url="/tmp/buildd/ros-hydro-pr2-description-1.11.4-0precise-20150329-0527/meshes/upper_arm_v0/convex/upper_arm_10-Mesh"/>
         </shape>
        <dynamic>true</dynamic>
        <mass>1</mass>
		   	</technique_common>
        <extra>
          <technique profile="PhysX">
            <extra>
              <technique profile="PhysX">
                <linearDamping>0</linearDamping>
                <angularDamping>0</angularDamping>
                <solverIterationCount>32</solverIterationCount>
              </technique>
            </extra>
            <disable_collision>false</disable_collision>
          </technique>
        </extra>
  	  </rigid_body>
    </physics_model>
  </library_physics_models>
  <library_physics_scenes>
    <physics_scene id="Scene0-Physics">
      <instance_physics_model url="#Scene0-PhysicsModel">
        <instance_rigid_body target="#/tmp/buildd/ros-hydro-pr2-description-1.11.4-0precise-20150329-0527/meshes/upper_arm_v0/convex/upper_arm-Node" body="/tmp/buildd/ros-hydro-pr2-description-1.11.4-0precise-20150329-0527/meshes/upper_arm_v0/convex/upper_arm-RigidBody"/>
      <extra>
        <technique profile="PhysX">
        </technique>
      </extra>
      </instance_physics_model>
      <technique_common>
        <gravity>0 -9.800000191 0</gravity>
      </technique_common>
    </physics_scene>
  </library_physics_scenes>
  <scene>
    <instance_visual_scene url="#Scene0-Visual"/>
    <instance_physics_scene url="#Scene0-Physics"/>
  </scene>
</COLLADA>
