<?xml version="1.0" encoding="utf-8"?>
<COLLADA version="1.4.0" xmlns="http://www.collada.org/2005/11/COLLADASchema">
	<asset>
		<contributor>
			<author>NxuStream2 converter - http://www.ageia.com</author>
			<authoring_tool>PhysX Rocket, PhysX Viewer, or CreateDynamics</authoring_tool>
			<comments>questions to: jratcliff@ageia.com</comments>
			<copyright></copyright>
			<source_data>chair_gothic_tilted</source_data>
		</contributor>
		<unit meter="1" name="meter"/>
		<up_axis>Y_UP</up_axis>
	</asset>
   <library_materials>
      <material id="Material" name="Material">
         <instance_effect url="#Material-fx"></instance_effect>
      </material>
   </library_materials>
   <library_effects>
      <effect id="Material-fx" name="Material">
         <profile_COMMON>
            <technique id="Material-fx-COMMON" sid="COMMON">
               <phong>
                  <ambient>
                     <color>0.803922 0.588235 0.92549 1</color>
                  </ambient>
                  <diffuse>
                     <color>0.803922 0.588235 0.92549 1</color>
                  </diffuse>
                  <specular>
                     <color>0.631373 0.631373 0.631373 1</color>
                  </specular>
                  <shininess>
                     <float>1</float>
                  </shininess>
                  <reflective>
                     <color>0 0 0 1</color>
                  </reflective>
                  <transparent>
                     <color>1 1 1 1</color>
                  </transparent>
                  <transparency>
                     <float>0</float>
                  </transparency>
               </phong>
           </technique>
         </profile_COMMON>
      </effect>
   </library_effects>
  <library_geometries>
    <geometry id="/tmp/buildd/ros-hydro-pr2-description-1.11.4-0precise-20150329-0527/meshes/base_v0/convex/base_L_0-Mesh" name="/tmp/buildd/ros-hydro-pr2-description-1.11.4-0precise-20150329-0527/meshes/base_v0/convex/base_L_0-Mesh">
      <convex_mesh>
        <source id="/tmp/buildd/ros-hydro-pr2-description-1.11.4-0precise-20150329-0527/meshes/base_v0/convex/base_L_0-Position">
          <float_array count="18" id="/tmp/buildd/ros-hydro-pr2-description-1.11.4-0precise-20150329-0527/meshes/base_v0/convex/base_L_0-Position-array">
            0.334120989 -0.167060494 0.147470504  0.334120989 0.167060494 0  0.334120989 0.167060494 0.147470504  0.167060494 -0.167060494 0  
            0.167060494 0.167060494 0  0.334120989 -0.167060494 0  
          </float_array>
          <technique_common>
            <accessor count="6" source="#/tmp/buildd/ros-hydro-pr2-description-1.11.4-0precise-20150329-0527/meshes/base_v0/convex/base_L_0-Position-array" stride="3">
              <param name="X" type="float"/>
              <param name="Y" type="float"/>
              <param name="Z" type="float"/>
            </accessor>
    		   </technique_common>
				 </source>
   		 <vertices id="/tmp/buildd/ros-hydro-pr2-description-1.11.4-0precise-20150329-0527/meshes/base_v0/convex/base_L_0-Vertex">
					<input semantic="POSITION" source="#/tmp/buildd/ros-hydro-pr2-description-1.11.4-0precise-20150329-0527/meshes/base_v0/convex/base_L_0-Position"/>
				</vertices>
				<triangles material="Material" count="8">
					<input offset="0" semantic="VERTEX" source="#/tmp/buildd/ros-hydro-pr2-description-1.11.4-0precise-20150329-0527/meshes/base_v0/convex/base_L_0-Vertex"/>
           <p>
             0 1 2  2 3 0  4 2 1  4 1 3  
             4 3 2  5 0 3  5 3 1  5 1 0  
           </p>
				</triangles>
      </convex_mesh>
		</geometry>
    <geometry id="/tmp/buildd/ros-hydro-pr2-description-1.11.4-0precise-20150329-0527/meshes/base_v0/convex/base_L_1-Mesh" name="/tmp/buildd/ros-hydro-pr2-description-1.11.4-0precise-20150329-0527/meshes/base_v0/convex/base_L_1-Mesh">
      <convex_mesh>
        <source id="/tmp/buildd/ros-hydro-pr2-description-1.11.4-0precise-20150329-0527/meshes/base_v0/convex/base_L_1-Position">
          <float_array count="36" id="/tmp/buildd/ros-hydro-pr2-description-1.11.4-0precise-20150329-0527/meshes/base_v0/convex/base_L_1-Position-array">
            0.334120989 -0.167060494 0.230193004  0.167060494 -0.167060494 0.230193004  0.334120989 -0.167060494 0.147470504  0.334120989 0.167060494 0.147470504  
            0.167060494 0.167060494 0.230193004  0.334120989 0.167060494 0.230193004  0.302368999 0.046282001 0.294941008  0.202369004 0.046282001 0.294941008  
            0.202369004 -0.046282001 0.294941008  0.302368999 -0.046282001 0.294941008  0.167060494 -0 0.241735011  0.167060494 -0.046282001 0.241735011  
          </float_array>
          <technique_common>
            <accessor count="12" source="#/tmp/buildd/ros-hydro-pr2-description-1.11.4-0precise-20150329-0527/meshes/base_v0/convex/base_L_1-Position-array" stride="3">
              <param name="X" type="float"/>
              <param name="Y" type="float"/>
              <param name="Z" type="float"/>
            </accessor>
    		   </technique_common>
				 </source>
   		 <vertices id="/tmp/buildd/ros-hydro-pr2-description-1.11.4-0precise-20150329-0527/meshes/base_v0/convex/base_L_1-Vertex">
					<input semantic="POSITION" source="#/tmp/buildd/ros-hydro-pr2-description-1.11.4-0precise-20150329-0527/meshes/base_v0/convex/base_L_1-Position"/>
				</vertices>
				<triangles material="Material" count="20">
					<input offset="0" semantic="VERTEX" source="#/tmp/buildd/ros-hydro-pr2-description-1.11.4-0precise-20150329-0527/meshes/base_v0/convex/base_L_1-Vertex"/>
           <p>
             0 1 2  3 0 2  3 2 1  4 3 1  
             5 3 4  5 4 6  5 6 0  5 0 3  
             7 6 4  8 6 7  8 1 0  9 0 6  
             9 6 8  9 8 0  10 8 7  10 4 1  
             10 7 4  11 1 8  11 8 10  11 10 1  
           </p>
				</triangles>
      </convex_mesh>
		</geometry>
    <geometry id="/tmp/buildd/ros-hydro-pr2-description-1.11.4-0precise-20150329-0527/meshes/base_v0/convex/base_L_2-Mesh" name="/tmp/buildd/ros-hydro-pr2-description-1.11.4-0precise-20150329-0527/meshes/base_v0/convex/base_L_2-Mesh">
      <convex_mesh>
        <source id="/tmp/buildd/ros-hydro-pr2-description-1.11.4-0precise-20150329-0527/meshes/base_v0/convex/base_L_2-Position">
          <float_array count="30" id="/tmp/buildd/ros-hydro-pr2-description-1.11.4-0precise-20150329-0527/meshes/base_v0/convex/base_L_2-Position-array">
            0.334120989 0.167060494 0.230193004  0.167060494 0.167060494 0.230193004  0.167060494 0.167060494 0  0.270455003 0.334120989 0.230193004  
            0.167060494 0.334120989 0  0.334120989 0.26878199 0  0.167060494 0.334120989 0.230193004  0.334120989 0.167060494 0  
            0.270455003 0.334120989 0  0.334120989 0.26878199 0.230193004  
          </float_array>
          <technique_common>
            <accessor count="10" source="#/tmp/buildd/ros-hydro-pr2-description-1.11.4-0precise-20150329-0527/meshes/base_v0/convex/base_L_2-Position-array" stride="3">
              <param name="X" type="float"/>
              <param name="Y" type="float"/>
              <param name="Z" type="float"/>
            </accessor>
    		   </technique_common>
				 </source>
   		 <vertices id="/tmp/buildd/ros-hydro-pr2-description-1.11.4-0precise-20150329-0527/meshes/base_v0/convex/base_L_2-Vertex">
					<input semantic="POSITION" source="#/tmp/buildd/ros-hydro-pr2-description-1.11.4-0precise-20150329-0527/meshes/base_v0/convex/base_L_2-Position"/>
				</vertices>
				<triangles material="Material" count="16">
					<input offset="0" semantic="VERTEX" source="#/tmp/buildd/ros-hydro-pr2-description-1.11.4-0precise-20150329-0527/meshes/base_v0/convex/base_L_2-Vertex"/>
           <p>
             0 1 2  1 0 3  4 5 2  4 2 1  
             6 1 3  6 3 4  6 4 1  7 0 2  
             7 2 5  7 5 0  8 3 5  8 5 4  
             8 4 3  9 3 0  9 0 5  9 5 3  
           </p>
				</triangles>
      </convex_mesh>
		</geometry>
    <geometry id="/tmp/buildd/ros-hydro-pr2-description-1.11.4-0precise-20150329-0527/meshes/base_v0/convex/base_L_3-Mesh" name="/tmp/buildd/ros-hydro-pr2-description-1.11.4-0precise-20150329-0527/meshes/base_v0/convex/base_L_3-Mesh">
      <convex_mesh>
        <source id="/tmp/buildd/ros-hydro-pr2-description-1.11.4-0precise-20150329-0527/meshes/base_v0/convex/base_L_3-Position">
          <float_array count="30" id="/tmp/buildd/ros-hydro-pr2-description-1.11.4-0precise-20150329-0527/meshes/base_v0/convex/base_L_3-Position-array">
            0.334120989 -0.167060494 0  0.270455003 -0.334120989 0  0.167060494 -0.334120989 0  0.270455003 -0.334120989 0.230193004  
            0.167060494 -0.167060494 0.230193004  0.334120989 -0.167060494 0.230193004  0.167060494 -0.167060494 0  0.167060494 -0.334120989 0.230193004  
            0.334120989 -0.26878199 0  0.334120989 -0.26878199 0.230193004  
          </float_array>
          <technique_common>
            <accessor count="10" source="#/tmp/buildd/ros-hydro-pr2-description-1.11.4-0precise-20150329-0527/meshes/base_v0/convex/base_L_3-Position-array" stride="3">
              <param name="X" type="float"/>
              <param name="Y" type="float"/>
              <param name="Z" type="float"/>
            </accessor>
    		   </technique_common>
				 </source>
   		 <vertices id="/tmp/buildd/ros-hydro-pr2-description-1.11.4-0precise-20150329-0527/meshes/base_v0/convex/base_L_3-Vertex">
					<input semantic="POSITION" source="#/tmp/buildd/ros-hydro-pr2-description-1.11.4-0precise-20150329-0527/meshes/base_v0/convex/base_L_3-Position"/>
				</vertices>
				<triangles material="Material" count="16">
					<input offset="0" semantic="VERTEX" source="#/tmp/buildd/ros-hydro-pr2-description-1.11.4-0precise-20150329-0527/meshes/base_v0/convex/base_L_3-Vertex"/>
           <p>
             0 1 2  3 2 1  4 3 5  4 5 0  
             6 0 2  6 2 4  6 4 0  7 2 3  
             7 3 4  7 4 2  8 3 1  8 0 5  
             8 1 0  9 5 3  9 3 8  9 8 5  
           </p>
				</triangles>
      </convex_mesh>
		</geometry>
    <geometry id="/tmp/buildd/ros-hydro-pr2-description-1.11.4-0precise-20150329-0527/meshes/base_v0/convex/base_L_4-Mesh" name="/tmp/buildd/ros-hydro-pr2-description-1.11.4-0precise-20150329-0527/meshes/base_v0/convex/base_L_4-Mesh">
      <convex_mesh>
        <source id="/tmp/buildd/ros-hydro-pr2-description-1.11.4-0precise-20150329-0527/meshes/base_v0/convex/base_L_4-Position">
          <float_array count="36" id="/tmp/buildd/ros-hydro-pr2-description-1.11.4-0precise-20150329-0527/meshes/base_v0/convex/base_L_4-Position-array">
            -0.334120989 -0.16877 0.656175017  -0.254597992 -0.209796995 0.656175017  -0.254597992 0.209796995 0.656175017  -0.240961969 0.229636326 0.328087509  
            -0.310034692 -0.229636326 0.328087509  -0.316246003 0.211116433 0.328087509  -0.325830013 0.209796995 0.656175017  -0.240961969 -0.229636326 0.328087509  
            -0.325830013 -0.209796995 0.656175017  -0.310034692 0.229636326 0.328087509  -0.324901998 -0.178918004 0.370397002  -0.321275979 -0.18472892 0.328087509  
          </float_array>
          <technique_common>
            <accessor count="12" source="#/tmp/buildd/ros-hydro-pr2-description-1.11.4-0precise-20150329-0527/meshes/base_v0/convex/base_L_4-Position-array" stride="3">
              <param name="X" type="float"/>
              <param name="Y" type="float"/>
              <param name="Z" type="float"/>
            </accessor>
    		   </technique_common>
				 </source>
   		 <vertices id="/tmp/buildd/ros-hydro-pr2-description-1.11.4-0precise-20150329-0527/meshes/base_v0/convex/base_L_4-Vertex">
					<input semantic="POSITION" source="#/tmp/buildd/ros-hydro-pr2-description-1.11.4-0precise-20150329-0527/meshes/base_v0/convex/base_L_4-Position"/>
				</vertices>
				<triangles material="Material" count="20">
					<input offset="0" semantic="VERTEX" source="#/tmp/buildd/ros-hydro-pr2-description-1.11.4-0precise-20150329-0527/meshes/base_v0/convex/base_L_4-Vertex"/>
           <p>
             0 1 2  3 4 5  3 2 1  6 2 3  
             6 0 2  6 5 0  7 1 4  7 4 3  
             7 3 1  8 4 1  8 1 0  9 3 5  
             9 5 6  9 6 3  10 4 8  10 8 0  
             10 0 5  11 5 4  11 4 10  11 10 5  
           </p>
				</triangles>
      </convex_mesh>
		</geometry>
    <geometry id="/tmp/buildd/ros-hydro-pr2-description-1.11.4-0precise-20150329-0527/meshes/base_v0/convex/base_L_5-Mesh" name="/tmp/buildd/ros-hydro-pr2-description-1.11.4-0precise-20150329-0527/meshes/base_v0/convex/base_L_5-Mesh">
      <convex_mesh>
        <source id="/tmp/buildd/ros-hydro-pr2-description-1.11.4-0precise-20150329-0527/meshes/base_v0/convex/base_L_5-Position">
          <float_array count="36" id="/tmp/buildd/ros-hydro-pr2-description-1.11.4-0precise-20150329-0527/meshes/base_v0/convex/base_L_5-Position-array">
            -0.167060494 0.334120989 0  -0.270455003 -0.334120989 0  -0.334120989 0.26878199 0  -0.167060494 -0.334120989 0  
            -0.270455003 0.334120989 0.230193004  -0.167060494 0.334120989 0.230193004  -0.240961969 0.229636326 0.328087509  -0.240961969 -0.229636326 0.328087509  
            -0.167060494 -0.334120989 0.230193004  -0.334120989 -0.26878199 0.230193004  -0.321275979 0.18472892 0.328087509  -0.334120989 -0.26878199 0  
          </float_array>
          <technique_common>
            <accessor count="12" source="#/tmp/buildd/ros-hydro-pr2-description-1.11.4-0precise-20150329-0527/meshes/base_v0/convex/base_L_5-Position-array" stride="3">
              <param name="X" type="float"/>
              <param name="Y" type="float"/>
              <param name="Z" type="float"/>
            </accessor>
    		   </technique_common>
				 </source>
   		 <vertices id="/tmp/buildd/ros-hydro-pr2-description-1.11.4-0precise-20150329-0527/meshes/base_v0/convex/base_L_5-Vertex">
					<input semantic="POSITION" source="#/tmp/buildd/ros-hydro-pr2-description-1.11.4-0precise-20150329-0527/meshes/base_v0/convex/base_L_5-Position"/>
				</vertices>
				<triangles material="Material" count="20">
					<input offset="0" semantic="VERTEX" source="#/tmp/buildd/ros-hydro-pr2-description-1.11.4-0precise-20150329-0527/meshes/base_v0/convex/base_L_5-Vertex"/>
           <p>
             0 1 2  3 1 0  4 0 2  5 0 4  
             5 4 6  5 3 0  5 6 7  8 3 5  
             8 5 7  8 7 9  8 9 1  8 1 3  
             10 2 9  10 4 2  10 6 4  10 7 6  
             10 9 7  11 1 9  11 9 2  11 2 1  
           </p>
				</triangles>
      </convex_mesh>
		</geometry>
    <geometry id="/tmp/buildd/ros-hydro-pr2-description-1.11.4-0precise-20150329-0527/meshes/base_v0/convex/base_L_6-Mesh" name="/tmp/buildd/ros-hydro-pr2-description-1.11.4-0precise-20150329-0527/meshes/base_v0/convex/base_L_6-Mesh">
      <convex_mesh>
        <source id="/tmp/buildd/ros-hydro-pr2-description-1.11.4-0precise-20150329-0527/meshes/base_v0/convex/base_L_6-Position">
          <float_array count="30" id="/tmp/buildd/ros-hydro-pr2-description-1.11.4-0precise-20150329-0527/meshes/base_v0/convex/base_L_6-Position-array">
            0.167060494 -0.334120989 0.230193004  -0.167060494 -0.334120989 0.230193004  -0.167060494 -0.334120989 0  -0.167060494 0.334120989 0.230193004  
            0.167060494 0.046282001 0.241735011  0.167060494 0.334120989 0  -0.167060494 0.334120989 0  0.167060494 -0.334120989 0  
            0.167060494 0.334120989 0.230193004  0.167060494 -0.046282001 0.241735011  
          </float_array>
          <technique_common>
            <accessor count="10" source="#/tmp/buildd/ros-hydro-pr2-description-1.11.4-0precise-20150329-0527/meshes/base_v0/convex/base_L_6-Position-array" stride="3">
              <param name="X" type="float"/>
              <param name="Y" type="float"/>
              <param name="Z" type="float"/>
            </accessor>
    		   </technique_common>
				 </source>
   		 <vertices id="/tmp/buildd/ros-hydro-pr2-description-1.11.4-0precise-20150329-0527/meshes/base_v0/convex/base_L_6-Vertex">
					<input semantic="POSITION" source="#/tmp/buildd/ros-hydro-pr2-description-1.11.4-0precise-20150329-0527/meshes/base_v0/convex/base_L_6-Position"/>
				</vertices>
				<triangles material="Material" count="16">
					<input offset="0" semantic="VERTEX" source="#/tmp/buildd/ros-hydro-pr2-description-1.11.4-0precise-20150329-0527/meshes/base_v0/convex/base_L_6-Vertex"/>
           <p>
             0 1 2  3 2 1  3 1 4  5 4 0  
             6 2 3  6 3 5  6 5 2  7 0 2  
             7 2 5  7 5 0  8 3 4  8 4 5  
             8 5 3  9 0 4  9 4 1  9 1 0  
           </p>
				</triangles>
      </convex_mesh>
		</geometry>
  </library_geometries>
  <library_visual_scenes>
	  <visual_scene id="Scene0-Visual" name="Scene0-Visual">
      <node id="/tmp/buildd/ros-hydro-pr2-description-1.11.4-0precise-20150329-0527/meshes/base_v0/convex/base_L-Node" name="/tmp/buildd/ros-hydro-pr2-description-1.11.4-0precise-20150329-0527/meshes/base_v0/convex/base_L" type="NODE">
        <translate>0 0 0</translate>
        <rotate>1 0 0  0</rotate>
      </node>
  	  </visual_scene>
  </library_visual_scenes>
  <library_physics_materials>
    <physics_material id="pmat0_0-PhysicsMaterial" name="pmat0_0-PhysicsMaterial">
      <technique_common>
        <dynamic_friction>0.5</dynamic_friction>
        <restitution>0</restitution>
        <static_friction>0.5</static_friction>
      </technique_common>
    </physics_material>
  </library_physics_materials>
  <library_physics_models>
    <physics_model id="Scene0-PhysicsModel">
      <rigid_body sid="/tmp/buildd/ros-hydro-pr2-description-1.11.4-0precise-20150329-0527/meshes/base_v0/convex/base_L-RigidBody" name="/tmp/buildd/ros-hydro-pr2-description-1.11.4-0precise-20150329-0527/meshes/base_v0/convex/base_L">
        <technique_common>
          <instance_physics_material url="#pmat0_0-PhysicsMaterial"/>
         <shape>
            <translate>0 0 0</translate>
            <rotate>1 0 0  0</rotate>
            <instance_physics_material url="#pmat0_0-PhysicsMaterial"/>
            <density>1</density>
            <extra>
              <technique profile="PhysX">
               <skinWidth>0</skinWidth>
              </technique>
            </extra>
            <instance_geometry url="/tmp/buildd/ros-hydro-pr2-description-1.11.4-0precise-20150329-0527/meshes/base_v0/convex/base_L_0-Mesh"/>
         </shape>
         <shape>
            <translate>0 0 0</translate>
            <rotate>1 0 0  0</rotate>
            <instance_physics_material url="#pmat0_0-PhysicsMaterial"/>
            <density>1</density>
            <extra>
              <technique profile="PhysX">
               <skinWidth>0</skinWidth>
              </technique>
            </extra>
            <instance_geometry url="/tmp/buildd/ros-hydro-pr2-description-1.11.4-0precise-20150329-0527/meshes/base_v0/convex/base_L_1-Mesh"/>
         </shape>
         <shape>
            <translate>0 0 0</translate>
            <rotate>1 0 0  0</rotate>
            <instance_physics_material url="#pmat0_0-PhysicsMaterial"/>
            <density>1</density>
            <extra>
              <technique profile="PhysX">
               <skinWidth>0</skinWidth>
              </technique>
            </extra>
            <instance_geometry url="/tmp/buildd/ros-hydro-pr2-description-1.11.4-0precise-20150329-0527/meshes/base_v0/convex/base_L_2-Mesh"/>
         </shape>
         <shape>
            <translate>0 0 0</translate>
            <rotate>1 0 0  0</rotate>
            <instance_physics_material url="#pmat0_0-PhysicsMaterial"/>
            <density>1</density>
            <extra>
              <technique profile="PhysX">
               <skinWidth>0</skinWidth>
              </technique>
            </extra>
            <instance_geometry url="/tmp/buildd/ros-hydro-pr2-description-1.11.4-0precise-20150329-0527/meshes/base_v0/convex/base_L_3-Mesh"/>
         </shape>
         <shape>
            <translate>0 0 0</translate>
            <rotate>1 0 0  0</rotate>
            <instance_physics_material url="#pmat0_0-PhysicsMaterial"/>
            <density>1</density>
            <extra>
              <technique profile="PhysX">
               <skinWidth>0</skinWidth>
              </technique>
            </extra>
            <instance_geometry url="/tmp/buildd/ros-hydro-pr2-description-1.11.4-0precise-20150329-0527/meshes/base_v0/convex/base_L_4-Mesh"/>
         </shape>
         <shape>
            <translate>0 0 0</translate>
            <rotate>1 0 0  0</rotate>
            <instance_physics_material url="#pmat0_0-PhysicsMaterial"/>
            <density>1</density>
            <extra>
              <technique profile="PhysX">
               <skinWidth>0</skinWidth>
              </technique>
            </extra>
            <instance_geometry url="/tmp/buildd/ros-hydro-pr2-description-1.11.4-0precise-20150329-0527/meshes/base_v0/convex/base_L_5-Mesh"/>
         </shape>
         <shape>
            <translate>0 0 0</translate>
            <rotate>1 0 0  0</rotate>
            <instance_physics_material url="#pmat0_0-PhysicsMaterial"/>
            <density>1</density>
            <extra>
              <technique profile="PhysX">
               <skinWidth>0</skinWidth>
              </technique>
            </extra>
            <instance_geometry url="/tmp/buildd/ros-hydro-pr2-description-1.11.4-0precise-20150329-0527/meshes/base_v0/convex/base_L_6-Mesh"/>
         </shape>
        <dynamic>true</dynamic>
        <mass>1</mass>
		   	</technique_common>
        <extra>
          <technique profile="PhysX">
            <extra>
              <technique profile="PhysX">
                <linearDamping>0</linearDamping>
                <angularDamping>0</angularDamping>
                <solverIterationCount>32</solverIterationCount>
              </technique>
            </extra>
            <disable_collision>false</disable_collision>
          </technique>
        </extra>
  	  </rigid_body>
    </physics_model>
  </library_physics_models>
  <library_physics_scenes>
    <physics_scene id="Scene0-Physics">
      <instance_physics_model url="#Scene0-PhysicsModel">
        <instance_rigid_body target="#/tmp/buildd/ros-hydro-pr2-description-1.11.4-0precise-20150329-0527/meshes/base_v0/convex/base_L-Node" body="/tmp/buildd/ros-hydro-pr2-description-1.11.4-0precise-20150329-0527/meshes/base_v0/convex/base_L-RigidBody"/>
      <extra>
        <technique profile="PhysX">
        </technique>
      </extra>
      </instance_physics_model>
      <technique_common>
        <gravity>0 -9.800000191 0</gravity>
      </technique_common>
    </physics_scene>
  </library_physics_scenes>
  <scene>
    <instance_visual_scene url="#Scene0-Visual"/>
    <instance_physics_scene url="#Scene0-Physics"/>
  </scene>
</COLLADA>
