# /tmp/buildd/ros-hydro-pr2-description-1.11.4-0precise-20150329-0527/meshes/tilting_laser_v0/convex/hok_tilt.obj created by IVCON.
# Original data in /tmp/buildd/ros-hydro-pr2-description-1.11.4-0precise-20150329-0527/meshes/tilting_laser_v0//hok_tilt.stl.

g IVCON

v -0.030000 -0.030000 -0.030750
v -0.030000 0.030000 -0.030750
v 0.030000 0.030000 -0.030750
v -0.030000 0.030000 0.007350
v 0.030000 -0.030000 -0.030750
v 0.030000 0.030000 0.007350
v -0.030000 -0.030000 0.007350
v -0.030000 0.002350 0.007350
v -0.030000 -0.002350 0.007350
v 0.030000 -0.030000 0.007350
v -0.030000 0.030000 0.056050
v 0.030000 -0.030000 0.056050
v 0.030000 0.030000 0.056050
v 0.030000 -0.030000 0.038150
v 0.030000 0.030000 0.038150
v -0.030000 -0.030000 0.056050
v -0.030000 -0.030000 0.038150
v -0.030000 0.030000 0.038150
v -0.030000 0.002350 0.038150
v -0.030000 -0.002350 0.038150
v 0.004229 0.024640 0.007350
v 0.024501 -0.004969 0.007350
v 0.009042 0.023307 0.007350
v 0.013495 0.021045 0.007350
v 0.017409 0.017943 0.007350
v 0.020628 0.014124 0.007350
v 0.023024 0.009741 0.007350
v 0.024501 0.004969 0.007350
v 0.025000 -0.000000 0.007350
v -0.029501 0.004746 0.007350
v -0.021442 0.012854 0.007350
v -0.023570 0.008335 0.007350
v -0.025995 0.008009 0.007350
v -0.018459 0.016860 0.007350
v -0.014739 0.020193 0.007350
v -0.010432 0.022720 0.007350
v -0.005707 0.024340 0.007350
v -0.000754 0.024989 0.007350
v -0.028088 0.006743 0.007350
v -0.009254 0.020509 0.038150
v 0.022500 0.000000 0.038150
v -0.000561 0.022493 0.038150
v 0.008220 0.020945 0.038150
v 0.015711 0.016107 0.038150
v 0.020733 0.008739 0.038150
v -0.029322 0.005120 0.038150
v -0.027441 0.007265 0.038150
v -0.016493 0.015304 0.038150
v -0.029322 -0.005120 0.038150
v 0.008220 -0.020945 0.038150
v -0.021143 -0.007695 0.038150
v -0.021948 -0.007988 0.038150
v -0.024783 -0.008299 0.038150
v -0.016493 -0.015304 0.038150
v -0.027441 -0.007265 0.038150
v -0.000561 -0.022493 0.038150
v -0.009254 -0.020509 0.038150
v -0.029501 -0.004746 0.007350
v -0.005707 -0.024340 0.007350
v -0.010432 -0.022720 0.007350
v -0.014739 -0.020193 0.007350
v -0.018459 -0.016860 0.007350
v -0.021442 -0.012854 0.007350
v -0.023570 -0.008335 0.007350
v -0.025995 -0.008009 0.007350
v -0.028088 -0.006743 0.007350
v 0.023024 -0.009741 0.007350
v 0.020628 -0.014124 0.007350
v 0.017409 -0.017943 0.007350
v 0.013495 -0.021045 0.007350
v 0.009042 -0.023307 0.007350
v 0.004229 -0.024640 0.007350
v -0.000754 -0.024989 0.007350
v 0.020733 -0.008739 0.038150
v 0.015711 -0.016107 0.038150
v -0.021143 0.007695 0.038150
v -0.021948 0.007988 0.028558
v -0.021948 0.007988 0.038150
v -0.022791 0.008227 0.018767
v -0.024783 0.008299 0.038150
v -0.023570 0.008335 0.010150
v -0.018903 0.016361 0.010150
v -0.021948 -0.007988 0.028558
v -0.018903 -0.016361 0.010150
v -0.022791 -0.008227 0.018767
v -0.023570 -0.008335 0.010150
v -0.011628 0.022131 0.010150
v -0.002750 0.024848 0.010150
v 0.006508 0.024138 0.010150
v 0.014868 0.020099 0.010150
v 0.021177 0.013287 0.010150
v 0.024565 0.004642 0.010150
v 0.024565 -0.004642 0.010150
v 0.021177 -0.013287 0.010150
v 0.014868 -0.020099 0.010150
v 0.006508 -0.024138 0.010150
v -0.002750 -0.024848 0.010150
v -0.011628 -0.022131 0.010150
v 0.013565 0.047000 0.037000
v 0.001736 0.047000 0.054973
v 0.015874 0.047000 0.052660
v 0.015874 0.044500 0.052660
v 0.015446 0.047000 0.037225
v 0.017222 0.047000 0.037885
v 0.017610 0.047000 0.051902
v 0.017610 0.044500 0.051902
v -0.010000 0.047000 0.037000
v -0.012518 0.047000 0.053556
v 0.001736 0.044500 0.054973
v -0.035000 0.047000 -0.025750
v -0.025924 0.047000 0.048507
v -0.012519 0.044500 0.053556
v -0.037571 0.047000 0.040167
v -0.025924 0.044500 0.048507
v -0.048600 0.047000 -0.025750
v -0.046670 0.047000 0.029103
v -0.037571 0.044500 0.040167
v -0.052602 0.047000 0.016063
v -0.046670 0.044500 0.029102
v -0.053601 0.047000 -0.012326
v -0.054966 0.047000 0.001934
v -0.052602 0.044500 0.016063
v -0.054966 0.044500 0.001934
v -0.053601 0.044500 -0.012326
v -0.048600 0.044500 -0.025750
v -0.010000 0.047000 0.009500
v 0.035000 0.047000 -0.025750
v 0.035000 0.046429 -0.028620
v -0.035000 0.044803 -0.031053
v -0.035000 0.046429 -0.028620
v -0.035000 0.044500 -0.025750
v 0.046976 0.047000 0.009500
v 0.048600 0.047000 -0.025750
v 0.035000 0.044500 -0.025750
v 0.052542 0.047000 0.007246
v 0.053581 0.047000 -0.012412
v 0.048600 0.044500 -0.025750
v 0.049979 0.047000 0.008915
v 0.054292 0.047000 0.004738
v 0.054972 0.047000 0.001755
v 0.053581 0.044500 -0.012412
v 0.054972 0.044500 0.001755
v 0.054292 0.044500 0.004738
v 0.052542 0.044500 0.007246
v 0.049979 0.044500 0.008915
v -0.010000 0.044500 0.009500
v 0.046976 0.044500 0.009500
v -0.010000 0.044500 0.037000
v 0.013565 0.044500 0.037000
v 0.015446 0.044500 0.037225
v 0.018793 0.047000 0.038945
v 0.017222 0.044500 0.037885
v 0.019120 0.047000 0.050757
v 0.020070 0.047000 0.040344
v 0.018793 0.044500 0.038945
v 0.020318 0.047000 0.049289
v 0.020983 0.047000 0.042004
v 0.020070 0.044500 0.040344
v 0.021137 0.047000 0.047580
v 0.021479 0.047000 0.043833
v 0.020983 0.044500 0.042004
v 0.021531 0.047000 0.045727
v 0.021479 0.044500 0.043833
v 0.021531 0.044500 0.045727
v 0.021137 0.044500 0.047580
v 0.020318 0.044500 0.049289
v 0.019120 0.044500 0.050757
v 0.035000 0.044803 -0.031053
v 0.035000 0.042370 -0.032679
v -0.035000 0.042370 -0.032679
v -0.035000 0.044119 -0.027663
v 0.035000 0.039500 -0.033250
v -0.035000 0.039500 -0.033250
v -0.035000 0.041413 -0.030369
v -0.035000 0.043036 -0.029286
v 0.035000 -0.039500 -0.033250
v -0.035000 -0.039500 -0.033250
v -0.035000 0.039500 -0.030750
v 0.035000 0.039500 -0.030750
v 0.035000 -0.039500 -0.030750
v 0.035000 0.043036 -0.029286
v 0.035000 0.041413 -0.030369
v 0.035000 0.044119 -0.027663
v 0.035000 -0.042370 -0.032679
v -0.035000 -0.042370 -0.032679
v -0.035000 -0.039500 -0.030750
v 0.035000 -0.041413 -0.030369
v 0.035000 -0.044803 -0.031053
v -0.035000 -0.044803 -0.031053
v -0.035000 -0.043036 -0.029286
v -0.035000 -0.041413 -0.030369
v 0.035000 -0.046429 -0.028620
v -0.035000 -0.046429 -0.028620
v -0.035000 -0.044500 -0.025750
v -0.035000 -0.044119 -0.027663
v 0.035000 -0.047000 -0.025750
v -0.035000 -0.047000 -0.025750
v -0.010000 -0.047000 0.009500
v -0.025924 -0.047000 0.048507
v -0.046669 -0.047000 0.029103
v -0.048600 -0.047000 -0.025750
v -0.037571 -0.047000 0.040168
v 0.035000 -0.044500 -0.025750
v 0.046976 -0.047000 0.009500
v 0.048600 -0.047000 -0.025750
v 0.048600 -0.044500 -0.025750
v 0.035000 -0.044119 -0.027663
v 0.035000 -0.043036 -0.029286
v 0.001737 -0.047000 0.054973
v -0.010000 -0.047000 0.037000
v 0.013565 -0.047000 0.037000
v -0.010000 -0.044500 0.037000
v 0.015446 -0.047000 0.037225
v 0.015446 -0.044500 0.037225
v 0.013565 -0.044500 0.037000
v -0.012518 -0.047000 0.053557
v -0.010000 -0.044500 0.009500
v 0.046976 -0.044500 0.009500
v 0.049979 -0.047000 0.008915
v 0.053581 -0.047000 -0.012412
v 0.052542 -0.047000 0.007246
v 0.049979 -0.044500 0.008915
v 0.054292 -0.047000 0.004738
v 0.052542 -0.044500 0.007246
v 0.054972 -0.047000 0.001755
v 0.054292 -0.044500 0.004738
v 0.054972 -0.044500 0.001755
v 0.053581 -0.044500 -0.012412
v -0.052602 -0.047000 0.016064
v -0.053601 -0.047000 -0.012326
v -0.048600 -0.044500 -0.025750
v -0.054966 -0.047000 0.001935
v -0.053601 -0.044500 -0.012326
v -0.052602 -0.044500 0.016063
v -0.054966 -0.044500 0.001934
v -0.046670 -0.044500 0.029102
v -0.037571 -0.044500 0.040167
v -0.025924 -0.044500 0.048507
v -0.012519 -0.044500 0.053556
v 0.015874 -0.047000 0.052660
v 0.001736 -0.044500 0.054973
v 0.017222 -0.047000 0.037885
v 0.017610 -0.047000 0.051902
v 0.015874 -0.044500 0.052660
v 0.018793 -0.047000 0.038945
v 0.019120 -0.047000 0.050757
v 0.017610 -0.044500 0.051902
v 0.020070 -0.047000 0.040344
v 0.020318 -0.047000 0.049289
v 0.019120 -0.044500 0.050757
v 0.020983 -0.047000 0.042004
v 0.021137 -0.047000 0.047580
v 0.020318 -0.044500 0.049289
v 0.021479 -0.047000 0.043833
v 0.021531 -0.047000 0.045727
v 0.021137 -0.044500 0.047580
v 0.021531 -0.044500 0.045727
v 0.021479 -0.044500 0.043833
v 0.020983 -0.044500 0.042004
v 0.020070 -0.044500 0.040344
v 0.018793 -0.044500 0.038945
v 0.017222 -0.044500 0.037885

vn 0.000000 0.000000 -1.000000
vn 0.000000 0.000000 -1.000000
vn -0.000000 0.000000 -1.000000
vn 0.000000 1.000000 0.000000
vn 0.000000 1.000000 0.000000
vn 0.000000 1.000000 0.000000
vn 0.000000 0.000000 -1.000000
vn 0.000000 0.000000 -1.000000
vn 0.000000 -0.000000 -1.000000
vn 1.000000 0.000000 0.000000
vn 1.000000 0.000000 0.000000
vn 1.000000 0.000000 -0.000000
vn -0.000000 1.000000 0.000000
vn 0.000000 1.000000 0.000000
vn 0.000000 1.000000 -0.000000
vn -1.000000 0.000000 0.000000
vn -1.000000 0.000000 0.000000
vn -1.000000 0.000000 0.000000
vn -1.000000 0.000000 0.000000
vn -1.000000 -0.000000 -0.000000
vn -1.000000 0.000000 0.000000
vn -1.000000 0.000000 0.000000
vn -1.000000 -0.000000 -0.000000
vn -1.000000 0.000000 0.000000
vn -1.000000 -0.000000 -0.000000
vn -1.000000 0.000000 0.000000
vn -1.000000 0.000000 0.000000
vn 0.000000 -1.000000 -0.000000
vn 0.000000 -1.000000 0.000000
vn 0.000000 -1.000000 0.000000
vn -0.000000 -1.000000 0.000000
vn 0.000000 -1.000000 0.000000
vn 0.000000 -1.000000 0.000000
vn 1.000000 -0.000000 0.000000
vn 1.000000 0.000000 0.000000
vn 1.000000 0.000000 0.000000
vn -0.000000 0.000000 1.000000
vn 0.000000 -0.000000 1.000000
vn 0.000000 0.000000 1.000000
vn 1.000000 0.000000 0.000000
vn 1.000000 0.000000 0.000000
vn 1.000000 -0.000000 0.000000
vn 0.000000 1.000000 -0.000000
vn -0.000000 1.000000 0.000000
vn 0.000000 1.000000 0.000000
vn 1.000000 0.000000 0.000000
vn 1.000000 0.000000 -0.000000
vn 1.000000 0.000000 0.000000
vn 0.000000 0.000000 1.000000
vn 0.000000 0.000000 1.000000
vn 0.000000 0.000000 1.000000
vn 0.000000 -1.000000 0.000000
vn -0.000000 -1.000000 0.000000
vn 0.000000 -1.000000 0.000000
vn 0.000000 -1.000000 0.000000
vn 0.000000 -1.000000 -0.000000
vn 0.000000 -1.000000 0.000000
vn -1.000000 0.000000 0.000000
vn -1.000000 0.000000 0.000000
vn -1.000000 -0.000000 -0.000000
vn -1.000000 0.000000 0.000000
vn -1.000000 0.000000 0.000000
vn -1.000000 0.000000 0.000000
vn -1.000000 0.000000 0.000000
vn -1.000000 0.000000 0.000000
vn -1.000000 0.000000 0.000000
vn -1.000000 0.000000 0.000000
vn -1.000000 0.000000 0.000000
vn -1.000000 0.000000 0.000000
vn 0.000000 1.000000 0.000000
vn 0.000000 1.000000 0.000000
vn 0.000000 1.000000 0.000000
vn 0.000000 -0.000000 1.000000
vn 0.000000 0.000000 1.000000
vn -0.000000 0.000000 1.000000
vn -0.000000 0.000000 1.000000
vn 0.000000 -0.000000 1.000000
vn 0.000000 0.000000 1.000000
vn 0.000000 -0.000000 1.000000
vn 0.000000 0.000000 1.000000
vn -0.000000 0.000000 1.000000
vn 0.000000 -0.000000 1.000000
vn 0.000000 0.000000 1.000000
vn -0.000000 0.000000 1.000000
vn 0.000000 -0.000000 1.000000
vn 0.000000 0.000000 1.000000
vn -0.000000 0.000000 1.000000
vn 0.000000 -0.000000 1.000000
vn 0.000000 0.000000 1.000000
vn -0.000000 0.000000 1.000000
vn 0.000000 -0.000000 1.000000
vn 0.000000 0.000000 1.000000
vn -0.000000 0.000000 1.000000
vn 0.000000 -0.000000 1.000000
vn 0.000000 0.000000 1.000000
vn -0.000000 0.000000 1.000000
vn 0.000000 -0.000000 1.000000
vn 0.000000 0.000000 1.000000
vn -0.000000 0.000000 1.000000
vn 0.000000 0.000000 1.000000
vn 0.000000 0.000000 1.000000
vn -0.000000 0.000000 1.000000
vn 0.000000 0.000000 1.000000
vn 0.000000 0.000000 1.000000
vn 0.000000 0.000000 1.000000
vn 0.000000 0.000000 1.000000
vn 0.000000 0.000000 1.000000
vn 0.000000 -0.000000 1.000000
vn 0.000000 -0.000000 1.000000
vn 0.000000 0.000000 1.000000
vn 0.000000 0.000000 1.000000
vn 0.000000 0.000000 1.000000
vn 0.000000 0.000000 1.000000
vn 0.000000 -0.000000 1.000000
vn 0.000000 0.000000 1.000000
vn 0.000000 0.000000 1.000000
vn 0.000000 -0.000000 1.000000
vn 0.000000 0.000000 1.000000
vn 0.000000 0.000000 1.000000
vn 0.000000 -0.000000 1.000000
vn 0.000000 0.000000 1.000000
vn 0.000000 0.000000 1.000000
vn 0.000000 -0.000000 1.000000
vn 0.000000 0.000000 1.000000
vn 0.000000 0.000000 1.000000
vn 0.000000 -0.000000 1.000000
vn 0.000000 0.000000 1.000000
vn 0.000000 0.000000 1.000000
vn -0.000000 -0.000000 1.000000
vn 0.000000 -0.000000 1.000000
vn 0.000000 0.000000 1.000000
vn 0.000000 0.000000 1.000000
vn 0.000000 -0.000000 1.000000
vn 0.000000 0.000000 1.000000
vn 0.000000 0.000000 1.000000
vn 0.000000 0.000000 -1.000000
vn 0.000000 0.000000 -1.000000
vn -0.000000 0.000000 -1.000000
vn 0.000000 0.000000 -1.000000
vn 0.000000 -0.000000 -1.000000
vn 0.000000 0.000000 -1.000000
vn -0.000000 0.000000 -1.000000
vn 0.000000 0.000000 -1.000000
vn 0.000000 0.000000 -1.000000
vn 0.000000 0.000000 -1.000000
vn 0.000000 0.000000 -1.000000
vn 0.000000 0.000000 -1.000000
vn 0.000000 0.000000 -1.000000
vn 0.000000 0.000000 -1.000000
vn 0.000000 0.000000 -1.000000
vn 0.000000 0.000000 -1.000000
vn 0.000000 0.000000 -1.000000
vn 0.000000 0.000000 -1.000000
vn 0.000000 0.000000 -1.000000
vn 0.000000 0.000000 -1.000000
vn 0.000000 0.000000 -1.000000
vn -0.000000 0.000000 -1.000000
vn 0.000000 0.000000 -1.000000
vn 0.000000 0.000000 -1.000000
vn -0.000000 0.000000 -1.000000
vn 0.000000 0.000000 -1.000000
vn 0.000000 0.000000 -1.000000
vn -0.000000 0.000000 -1.000000
vn 0.000000 0.000000 -1.000000
vn 0.000000 0.000000 -1.000000
vn -0.000000 0.000000 -1.000000
vn 0.000000 0.000000 -1.000000
vn 0.000000 0.000000 -1.000000
vn -1.000000 0.000000 0.000000
vn -1.000000 0.000000 0.000000
vn -1.000000 -0.000000 -0.000000
vn -0.971345 0.237674 0.000000
vn -0.971345 0.237674 0.000000
vn -0.971345 0.237674 0.000000
vn -0.000000 0.000000 -1.000000
vn 0.000000 0.000000 -1.000000
vn 0.000000 0.000000 -1.000000
vn 0.000000 -0.000000 -1.000000
vn 0.000000 0.000000 -1.000000
vn 0.000000 0.000000 -1.000000
vn 0.000000 0.000000 -1.000000
vn 0.000000 0.000000 -1.000000
vn 0.000000 -0.000000 -1.000000
vn 0.000000 -0.000000 -1.000000
vn 0.000000 0.000000 -1.000000
vn 0.000000 0.000000 -1.000000
vn -0.000000 0.000000 -1.000000
vn 0.000000 0.000000 -1.000000
vn 0.000000 -0.000000 -1.000000
vn 0.000000 -0.000000 -1.000000
vn -0.000000 0.000000 -1.000000
vn 0.000000 0.000000 -1.000000
vn 0.000000 -0.000000 -1.000000
vn -0.000000 0.000000 -1.000000
vn 0.000000 0.000000 -1.000000
vn 0.000000 -0.000000 -1.000000
vn 0.000000 0.000000 -1.000000
vn 0.000000 0.000000 -1.000000
vn 0.000000 -0.000000 -1.000000
vn -0.000000 0.000000 -1.000000
vn 0.000000 0.000000 -1.000000
vn 0.000000 -0.000000 -1.000000
vn -0.000000 0.000000 -1.000000
vn 0.000000 0.000000 -1.000000
vn -1.000000 0.000000 0.000000
vn -1.000000 0.000000 0.000000
vn -1.000000 0.000000 0.000000
vn -0.978989 -0.203912 0.000000
vn -0.978989 -0.203912 -0.000000
vn -0.978989 -0.203912 0.000000
vn -0.971341 -0.237673 0.002750
vn -0.971341 -0.237673 0.002750
vn -0.971341 -0.237673 0.002750
vn 0.000000 0.000000 1.000000
vn 0.000000 0.000000 1.000000
vn 0.000000 0.000000 1.000000
vn 0.000000 0.000000 1.000000
vn 0.000000 0.000000 1.000000
vn 0.000000 0.000000 1.000000
vn 0.000000 0.000000 1.000000
vn 0.000000 0.000000 1.000000
vn 0.000000 0.000000 1.000000
vn 0.000000 0.000000 1.000000
vn 0.000000 0.000000 1.000000
vn 0.000000 0.000000 1.000000
vn 0.000000 0.000000 1.000000
vn 0.000000 0.000000 1.000000
vn 0.000000 0.000000 1.000000
vn 0.000000 0.000000 1.000000
vn 0.000000 0.000000 1.000000
vn 0.000000 0.000000 1.000000
vn 0.000000 0.000000 1.000000
vn 0.000000 0.000000 1.000000
vn 0.000000 0.000000 1.000000
vn 0.000000 0.000000 1.000000
vn 0.000000 0.000000 1.000000
vn 0.000000 0.000000 1.000000
vn 0.000000 0.000000 1.000000
vn 0.000000 0.000000 1.000000
vn 0.000000 0.000000 1.000000
vn 0.000000 0.000000 1.000000
vn 0.000000 0.000000 1.000000
vn 0.000000 0.000000 1.000000
vn -0.978984 0.203911 0.003205
vn -0.978984 0.203911 0.003205
vn -0.978984 0.203911 0.003205
vn -0.000000 0.000000 1.000000
vn 0.000000 0.000000 1.000000
vn 0.000000 0.000000 1.000000
vn -0.000000 0.000000 1.000000
vn 0.000000 0.000000 1.000000
vn 0.000000 0.000000 1.000000
vn -0.000000 0.000000 1.000000
vn 0.000000 0.000000 1.000000
vn 0.000000 0.000000 1.000000
vn -0.000000 0.000000 1.000000
vn 0.000000 0.000000 1.000000
vn 0.000000 0.000000 1.000000
vn -0.000000 0.000000 1.000000
vn 0.000000 0.000000 1.000000
vn 0.000000 0.000000 1.000000
vn -0.000000 0.000000 1.000000
vn 0.000000 0.000000 1.000000
vn 0.000000 0.000000 1.000000
vn -0.000000 0.000000 1.000000
vn 0.000000 0.000000 1.000000
vn 0.000000 0.000000 1.000000
vn 0.000000 0.000000 1.000000
vn 0.000000 0.000000 1.000000
vn 0.000000 0.000000 1.000000
vn 0.000000 0.000000 -1.000000
vn 0.000000 -0.000000 -1.000000
vn 0.000000 0.000000 -1.000000
vn 0.000000 0.000000 -1.000000
vn 0.000000 -0.000000 -1.000000
vn 0.000000 0.000000 -1.000000
vn 0.000000 0.000000 -1.000000
vn 0.000000 -0.000000 -1.000000
vn 0.000000 0.000000 -1.000000
vn 0.342020 0.939693 0.000000
vn 0.342020 0.939693 -0.000000
vn 0.342020 0.939693 0.000000
vn 0.272472 0.962164 0.000000
vn 0.272472 0.962164 0.000000
vn 0.272472 0.962164 -0.000000
vn 0.000000 0.000000 -1.000000
vn 0.000000 0.000000 -1.000000
vn 0.000000 0.000000 -1.000000
vn 0.000000 0.000000 -1.000000
vn 0.000000 0.000000 -1.000000
vn 0.000000 0.000000 -1.000000
vn 0.108877 0.994037 0.005991
vn 0.108877 0.994037 0.005991
vn 0.108877 0.994037 0.005991
vn 0.003497 0.999920 0.012168
vn 0.003497 0.999920 0.012168
vn 0.003497 0.999920 0.012168
vn -0.850035 0.519461 0.087182
vn -0.850035 0.519461 0.087182
vn -0.850035 0.519461 0.087182
vn -0.852695 0.514105 0.092779
vn -0.852695 0.514105 0.092779
vn -0.852695 0.514105 0.092779
vn -0.860149 0.502680 0.086349
vn -0.860149 0.502680 0.086349
vn -0.860149 0.502680 0.086349
vn 0.342020 -0.939693 0.000000
vn 0.342020 -0.939693 0.000000
vn 0.342020 -0.939693 0.000000
vn 0.108879 -0.994055 0.000000
vn 0.108879 -0.994055 0.000000
vn 0.108879 -0.994055 0.000000
vn -0.858864 -0.504679 0.087471
vn -0.858864 -0.504679 0.087471
vn -0.858864 -0.504679 0.087471
vn 0.147091 -0.989057 0.011455
vn 0.147091 -0.989057 0.011455
vn 0.147092 -0.989057 0.011455
vn -0.860150 -0.502679 0.086349
vn -0.860150 -0.502679 0.086349
vn -0.860150 -0.502679 0.086349
vn -0.849610 -0.519200 0.092706
vn -0.849610 -0.519200 0.092706
vn -0.849610 -0.519200 0.092706
vn -0.362419 -0.931999 0.005486
vn -0.362419 -0.931999 0.005486
vn -0.362419 -0.931999 0.005486
vn 0.083517 -0.996494 0.004895
vn 0.083517 -0.996494 0.004895
vn 0.083517 -0.996494 0.004895
vn -0.029563 -0.999563 0.000000
vn -0.029563 -0.999563 -0.000000
vn -0.029563 -0.999563 0.000000
vn -0.133151 -0.991087 -0.004090
vn -0.133151 -0.991087 -0.004090
vn -0.133151 -0.991087 -0.004090
vn -0.751842 -0.659328 0.004585
vn -0.751842 -0.659328 0.004585
vn -0.751842 -0.659328 0.004585
vn -0.517707 -0.855550 -0.003656
vn -0.517707 -0.855550 -0.003656
vn -0.517707 -0.855550 -0.003656
vn -0.816185 -0.577785 -0.002289
vn -0.816185 -0.577786 -0.002289
vn -0.816185 -0.577785 -0.002289
vn -0.751842 0.659328 0.004585
vn -0.751842 0.659328 0.004585
vn -0.751842 0.659328 0.004585
vn -0.816185 0.577785 -0.002289
vn -0.816185 0.577786 -0.002289
vn -0.816185 0.577785 -0.002289
vn 0.000000 0.000000 -1.000000
vn -0.000000 0.000000 -1.000000
vn 0.000000 0.000000 -1.000000
vn -0.362419 0.931999 0.005486
vn -0.362419 0.931999 0.005486
vn -0.362419 0.931999 0.005486
vn -0.517707 0.855550 -0.003656
vn -0.517707 0.855550 -0.003656
vn -0.517707 0.855550 -0.003656
vn -0.128287 0.991728 -0.004287
vn -0.128287 0.991728 -0.004287
vn -0.128287 0.991728 -0.004287
vn -0.581029 0.808190 0.096094
vn -0.581029 0.808190 0.096094
vn -0.581029 0.808190 0.096094
vn -0.619292 0.780786 0.082764
vn -0.619292 0.780786 0.082764
vn -0.619292 0.780786 0.082764
vn -0.221433 0.970146 0.098917
vn -0.221433 0.970146 0.098917
vn -0.221433 0.970146 0.098917
vn -0.291716 0.953157 0.079959
vn -0.291716 0.953157 0.079959
vn -0.291716 0.953157 0.079959
vn 0.172738 0.979757 0.101178
vn 0.172738 0.979757 0.101178
vn 0.172738 0.979757 0.101178
vn 0.076253 0.994060 0.077659
vn 0.076253 0.994060 0.077659
vn 0.076253 0.994060 0.077659
vn 0.539664 0.835571 0.102876
vn 0.539664 0.835571 0.102876
vn 0.539664 0.835571 0.102876
vn 0.433819 0.897801 0.075866
vn 0.433819 0.897801 0.075866
vn 0.433818 0.897801 0.075866
vn 0.821768 0.560250 0.104007
vn 0.821768 0.560250 0.104007
vn 0.821768 0.560250 0.104007
vn 0.731607 0.677635 0.074582
vn 0.731607 0.677635 0.074582
vn 0.731607 0.677635 0.074582
vn 0.974801 0.197049 0.104571
vn 0.974801 0.197049 0.104571
vn 0.974801 0.197049 0.104571
vn 0.928495 0.363936 0.073814
vn 0.928495 0.363936 0.073814
vn 0.928495 0.363936 0.073814
vn 0.974801 -0.197049 0.104571
vn 0.974801 -0.197049 0.104571
vn 0.974801 -0.197049 0.104571
vn 0.997291 -0.000000 0.073559
vn 0.997291 -0.000000 0.073559
vn 0.997291 -0.000000 0.073559
vn 0.821768 -0.560250 0.104007
vn 0.821768 -0.560250 0.104007
vn 0.821768 -0.560250 0.104007
vn 0.928494 -0.363936 0.073814
vn 0.928494 -0.363936 0.073814
vn 0.928494 -0.363936 0.073814
vn 0.539664 -0.835571 0.102876
vn 0.539664 -0.835571 0.102876
vn 0.539664 -0.835571 0.102876
vn 0.731606 -0.677635 0.074582
vn 0.731606 -0.677635 0.074582
vn 0.731606 -0.677635 0.074582
vn 0.172738 -0.979757 0.101178
vn 0.172738 -0.979757 0.101178
vn 0.172738 -0.979757 0.101178
vn 0.433818 -0.897801 0.075866
vn 0.433818 -0.897801 0.075866
vn 0.433818 -0.897801 0.075866
vn -0.221433 -0.970146 0.098918
vn -0.221433 -0.970146 0.098918
vn -0.221433 -0.970146 0.098918
vn 0.076253 -0.994060 0.077659
vn 0.076253 -0.994060 0.077659
vn 0.076253 -0.994060 0.077659
vn -0.581029 -0.808190 0.096095
vn -0.581029 -0.808190 0.096095
vn -0.581029 -0.808190 0.096095
vn -0.291717 -0.953157 0.079959
vn -0.291717 -0.953157 0.079959
vn -0.291717 -0.953157 0.079959
vn -0.619293 -0.780786 0.082764
vn -0.619293 -0.780786 0.082764
vn -0.619293 -0.780786 0.082764
vn -0.861421 -0.500884 0.084080
vn -0.861421 -0.500884 0.084080
vn -0.861421 -0.500884 0.084080
vn -0.854348 -0.496771 0.152672
vn -0.854348 -0.496771 0.152672
vn -0.854348 -0.496771 0.152672
vn -0.904763 -0.425916 0.000000
vn -0.904763 -0.425916 0.000000
vn -0.904763 -0.425916 -0.000000
vn -0.861421 0.500884 0.084080
vn -0.861421 0.500884 0.084080
vn -0.861421 0.500884 0.084080
vn -0.864482 0.502664 0.000000
vn -0.864482 0.502664 0.000000
vn -0.864482 0.502664 0.000000
vn -0.133153 0.991096 0.000000
vn -0.133153 0.991096 0.000000
vn -0.133153 0.991096 0.000000
vn -0.620900 0.782813 0.041072
vn -0.620900 0.782813 0.041072
vn -0.620900 0.782813 0.041072
vn -0.869621 0.409374 0.275993
vn -0.869621 0.409374 0.275993
vn -0.869621 0.409374 0.275993
vn -0.801861 0.597153 -0.020662
vn -0.801861 0.597153 -0.020662
vn -0.801861 0.597153 -0.020662
vn -0.291814 0.953476 0.075688
vn -0.291814 0.953476 0.075688
vn -0.291814 0.953476 0.075688
vn -0.650909 0.726479 0.220331
vn -0.650909 0.726479 0.220331
vn -0.650909 0.726479 0.220332
vn -0.505649 0.862032 -0.034917
vn -0.505649 0.862032 -0.034917
vn -0.505649 0.862032 -0.034917
vn 0.076070 0.991671 0.103929
vn 0.076070 0.991671 0.103929
vn 0.076070 0.991671 0.103929
vn -0.319770 0.932410 0.168400
vn -0.319770 0.932410 0.168400
vn -0.319770 0.932410 0.168400
vn -0.129749 0.990621 -0.042848
vn -0.129749 0.990621 -0.042848
vn -0.129749 0.990621 -0.042848
vn 0.431623 0.893257 0.125673
vn 0.431623 0.893257 0.125673
vn 0.431623 0.893257 0.125673
vn 0.069344 0.990235 0.120937
vn 0.069344 0.990235 0.120937
vn 0.069344 0.990235 0.120936
vn 0.266497 0.962811 -0.044433
vn 0.266497 0.962811 -0.044433
vn 0.266497 0.962811 -0.044433
vn 0.726307 0.672726 0.141130
vn 0.726307 0.672726 0.141130
vn 0.726307 0.672726 0.141130
vn 0.451586 0.888728 0.078948
vn 0.451586 0.888728 0.078948
vn 0.451586 0.888728 0.078948
vn 0.620675 0.783063 -0.039685
vn 0.620675 0.783063 -0.039686
vn 0.620675 0.783063 -0.039686
vn 0.920447 0.360781 0.150381
vn 0.920447 0.360781 0.150381
vn 0.920447 0.360781 0.150381
vn 0.763856 0.643968 0.042777
vn 0.763856 0.643968 0.042777
vn 0.763856 0.643968 0.042777
vn 0.877084 0.479486 -0.028572
vn 0.877084 0.479486 -0.028572
vn 0.877084 0.479486 -0.028572
vn 0.988161 -0.000000 0.153423
vn 0.988161 -0.000000 0.153423
vn 0.988161 -0.000000 0.153423
vn 0.955215 0.295644 0.012647
vn 0.955215 0.295644 0.012647
vn 0.955215 0.295644 0.012647
vn 0.994938 0.099875 -0.011117
vn 0.994938 0.099875 -0.011117
vn 0.994938 0.099875 -0.011117
vn 0.930823 -0.364849 0.021284
vn 0.930823 -0.364849 0.021284
vn 0.930823 -0.364849 0.021284
vn 0.994938 -0.099875 -0.011117
vn 0.994938 -0.099875 -0.011117
vn 0.994938 -0.099875 -0.011117
vn 0.732362 -0.678335 0.059221
vn 0.732362 -0.678335 0.059221
vn 0.732362 -0.678335 0.059221
vn 0.925483 -0.286442 0.247856
vn 0.925483 -0.286442 0.247856
vn 0.925483 -0.286442 0.247856
vn 0.877084 -0.479487 -0.028572
vn 0.877084 -0.479487 -0.028572
vn 0.877084 -0.479487 -0.028572
vn 0.433282 -0.896692 0.090616
vn 0.433282 -0.896692 0.090616
vn 0.433282 -0.896692 0.090616
vn 0.750062 -0.632340 0.193785
vn 0.750062 -0.632340 0.193785
vn 0.750062 -0.632340 0.193785
vn 0.620674 -0.783063 -0.039686
vn 0.620674 -0.783063 -0.039686
vn 0.620674 -0.783063 -0.039686
vn 0.075971 -0.990390 0.115570
vn 0.075971 -0.990390 0.115570
vn 0.075971 -0.990390 0.115570
vn 0.448277 -0.882216 0.144024
vn 0.448277 -0.882216 0.144024
vn 0.448277 -0.882216 0.144024
vn 0.266497 -0.962811 -0.044433
vn 0.266497 -0.962811 -0.044433
vn 0.266497 -0.962811 -0.044433
vn -0.290006 -0.947567 0.134214
vn -0.290006 -0.947567 0.134214
vn -0.290006 -0.947567 0.134214
vn 0.069511 -0.992627 0.099301
vn 0.069511 -0.992627 0.099301
vn 0.069511 -0.992627 0.099301
vn -0.129750 -0.990620 -0.042848
vn -0.129750 -0.990620 -0.042848
vn -0.129750 -0.990620 -0.042848
vn -0.614719 -0.775019 0.146514
vn -0.614719 -0.775019 0.146514
vn -0.614719 -0.775019 0.146514
vn -0.323818 -0.944211 0.060063
vn -0.323818 -0.944211 0.060063
vn -0.323818 -0.944211 0.060063
vn -0.505650 -0.862032 -0.034917
vn -0.505650 -0.862032 -0.034917
vn -0.505650 -0.862032 -0.034917
vn -0.667066 -0.744511 0.026938
vn -0.667066 -0.744511 0.026938
vn -0.667066 -0.744511 0.026938
vn -0.801862 -0.597152 -0.020661
vn -0.801862 -0.597152 -0.020661
vn -0.801862 -0.597152 -0.020661
vn 0.000000 1.000000 -0.000000
vn 0.000000 1.000000 0.000000
vn 0.000000 1.000000 0.000000
vn 0.161466 -0.000000 0.986878
vn 0.161466 0.000000 0.986878
vn 0.161466 0.000000 0.986878
vn 0.000000 1.000000 -0.000000
vn 0.000000 1.000000 0.000000
vn 0.000000 1.000000 0.000000
vn 0.000000 1.000000 0.000000
vn 0.000000 1.000000 0.000000
vn 0.000000 1.000000 0.000000
vn 0.000000 1.000000 0.000000
vn 0.000000 1.000000 -0.000000
vn 0.000000 1.000000 0.000000
vn 0.400007 -0.000000 0.916512
vn 0.400007 0.000000 0.916512
vn 0.400007 0.000000 0.916512
vn 0.400007 0.000000 0.916512
vn 0.400007 0.000000 0.916512
vn 0.400007 -0.000000 0.916512
vn 0.000000 1.000000 -0.000000
vn -0.000000 1.000000 0.000000
vn 0.000000 1.000000 0.000000
vn -0.098859 0.000007 0.995101
vn -0.098859 0.000007 0.995101
vn -0.098859 0.000007 0.995101
vn 0.000000 1.000000 0.000000
vn 0.000000 1.000000 0.000000
vn 0.000000 1.000000 0.000000
vn 0.161465 -0.000007 0.986878
vn 0.161465 -0.000007 0.986878
vn 0.161465 -0.000007 0.986878
vn 0.000000 1.000000 0.000000
vn -0.000000 1.000000 0.000000
vn 0.000000 1.000000 0.000000
vn -0.352478 0.000015 0.935820
vn -0.352478 0.000015 0.935820
vn -0.352478 0.000015 0.935820
vn 0.000000 1.000000 0.000000
vn 0.000000 1.000000 0.000000
vn 0.000000 1.000000 0.000000
vn -0.098863 -0.000014 0.995101
vn -0.098863 -0.000014 0.995101
vn -0.098863 -0.000014 0.995101
vn 0.000000 1.000000 -0.000000
vn -0.000000 1.000000 0.000000
vn 0.000000 1.000000 0.000000
vn -0.582187 0.000023 0.813055
vn -0.582186 0.000023 0.813055
vn -0.582186 0.000023 0.813055
vn -0.352484 -0.000023 0.935818
vn -0.352484 -0.000023 0.935818
vn -0.352484 -0.000023 0.935818
vn 0.000000 1.000000 0.000000
vn -0.000000 1.000000 0.000000
vn 0.000000 1.000000 0.000000
vn -0.772402 0.000021 0.635134
vn -0.772402 0.000021 0.635134
vn -0.772402 0.000021 0.635134
vn 0.000000 1.000000 0.000000
vn 0.000000 1.000000 0.000000
vn 0.000000 1.000000 0.000000
vn -0.582193 -0.000022 0.813051
vn -0.582193 -0.000022 0.813051
vn -0.582193 -0.000022 0.813051
vn 0.000000 1.000000 -0.000000
vn -0.000000 1.000000 0.000000
vn 0.000000 1.000000 0.000000
vn -0.910219 0.000020 0.414126
vn -0.910219 0.000020 0.414126
vn -0.910219 0.000020 0.414126
vn -0.772406 -0.000020 0.635129
vn -0.772406 -0.000020 0.635129
vn -0.772406 -0.000020 0.635129
vn 0.000000 1.000000 -0.000000
vn -0.000000 1.000000 0.000000
vn 0.000000 1.000000 0.000000
vn -0.986290 0.000018 0.165023
vn -0.986290 0.000018 0.165023
vn -0.986290 0.000018 0.165023
vn 0.000000 1.000000 0.000000
vn -0.000000 1.000000 0.000000
vn 0.000000 1.000000 0.000000
vn -0.910222 -0.000019 0.414120
vn -0.910222 -0.000019 0.414120
vn -0.910222 -0.000019 0.414120
vn -0.995451 0.000016 -0.095278
vn -0.995451 0.000016 -0.095278
vn -0.995451 0.000016 -0.095278
vn -0.986291 -0.000016 0.165017
vn -0.986291 -0.000016 0.165017
vn -0.986291 -0.000016 0.165017
vn -0.937079 0.000010 -0.349117
vn -0.937079 0.000010 -0.349117
vn -0.937079 0.000010 -0.349117
vn -0.995450 -0.000011 -0.095282
vn -0.995450 -0.000011 -0.095282
vn -0.995450 -0.000011 -0.095282
vn 0.000000 0.000000 -1.000000
vn 0.000000 0.000000 -1.000000
vn -0.000000 0.000000 -1.000000
vn -0.937079 0.000000 -0.349118
vn -0.937079 -0.000000 -0.349118
vn -0.937079 0.000000 -0.349118
vn 0.000000 1.000000 0.000000
vn 0.000000 1.000000 0.000000
vn 0.000000 1.000000 0.000000
vn 0.000000 0.980778 -0.195126
vn 0.000000 0.980778 -0.195126
vn 0.000000 0.980778 -0.195126
vn 0.000000 1.000000 0.000000
vn 0.000000 1.000000 -0.000000
vn 0.000000 1.000000 0.000000
vn -1.000000 0.000000 0.000000
vn -1.000000 0.000000 0.000000
vn -1.000000 -0.000000 0.000000
vn 0.000000 0.980778 -0.195126
vn 0.000000 0.980778 -0.195126
vn 0.000000 0.980778 -0.195126
vn -1.000000 0.000000 0.000000
vn -1.000000 -0.000000 0.000000
vn -1.000000 0.000000 0.000000
vn 0.000000 0.000000 -1.000000
vn 0.000000 -0.000000 -1.000000
vn 0.000000 0.000000 -1.000000
vn 0.000000 1.000000 0.000000
vn 0.000000 1.000000 0.000000
vn 0.000000 1.000000 0.000000
vn 0.000000 0.000000 -1.000000
vn 0.000000 0.000000 -1.000000
vn -0.000000 0.000000 -1.000000
vn -0.000000 1.000000 0.000000
vn 0.000000 1.000000 0.000000
vn 0.000000 1.000000 -0.000000
vn 1.000000 -0.000000 0.000000
vn 1.000000 0.000000 -0.000000
vn 1.000000 0.000000 0.000000
vn 0.000000 1.000000 0.000000
vn 0.000000 1.000000 0.000000
vn 0.000000 1.000000 0.000000
vn 0.936799 0.000000 -0.349869
vn 0.936799 0.000000 -0.349869
vn 0.936799 0.000000 -0.349869
vn 0.000000 1.000000 0.000000
vn 0.000000 1.000000 0.000000
vn 0.000000 1.000000 0.000000
vn 0.000000 1.000000 0.000000
vn 0.000000 1.000000 0.000000
vn 0.000000 1.000000 -0.000000
vn 0.000000 0.000000 -1.000000
vn 0.000000 0.000000 -1.000000
vn 0.000000 -0.000000 -1.000000
vn 0.000000 1.000000 0.000000
vn 0.000000 1.000000 0.000000
vn 0.000000 1.000000 0.000000
vn 0.995215 0.000001 -0.097704
vn 0.995215 0.000001 -0.097704
vn 0.995215 0.000001 -0.097704
vn 0.000000 1.000000 0.000000
vn 0.000000 1.000000 0.000000
vn 0.000000 1.000000 -0.000000
vn 0.936799 -0.000003 -0.349869
vn 0.936799 -0.000003 -0.349869
vn 0.936799 -0.000003 -0.349869
vn 0.974947 -0.000000 0.222437
vn 0.974947 0.000000 0.222437
vn 0.974947 0.000000 0.222437
vn 0.995216 0.000000 -0.097704
vn 0.995216 0.000000 -0.097704
vn 0.995216 0.000000 -0.097704
vn 0.820203 -0.000000 0.572073
vn 0.820203 0.000000 0.572073
vn 0.820203 0.000000 0.572073
vn 0.974947 0.000000 0.222437
vn 0.974947 0.000000 0.222437
vn 0.974947 -0.000000 0.222437
vn 0.545604 -0.000000 0.838043
vn 0.545604 0.000000 0.838043
vn 0.545604 0.000000 0.838043
vn 0.820203 0.000000 0.572073
vn 0.820203 0.000000 0.572073
vn 0.820203 -0.000000 0.572073
vn 0.191209 -0.000000 0.981549
vn 0.191209 0.000000 0.981549
vn 0.191209 0.000000 0.981549
vn 0.545604 0.000000 0.838043
vn 0.545604 0.000000 0.838043
vn 0.545604 -0.000000 0.838043
vn 0.000000 0.000000 1.000000
vn 0.000000 0.000000 1.000000
vn -0.000000 0.000000 1.000000
vn 0.000000 -0.000000 1.000000
vn 0.000000 0.000000 1.000000
vn 0.000000 0.000000 1.000000
vn 0.191209 0.000000 0.981549
vn 0.191209 0.000000 0.981549
vn 0.191209 -0.000000 0.981549
vn 1.000000 -0.000000 0.000000
vn 1.000000 0.000000 -0.000000
vn 1.000000 0.000000 0.000000
vn 1.000000 0.000000 0.000000
vn 1.000000 0.000000 0.000000
vn 1.000000 0.000000 0.000000
vn 0.000000 0.000000 -1.000000
vn 0.000000 0.000000 -1.000000
vn -0.000000 -0.000000 -1.000000
vn 0.000000 0.000000 -1.000000
vn 0.000000 0.000000 -1.000000
vn 0.000000 0.000000 -1.000000
vn 0.118472 0.000000 -0.992957
vn 0.118472 0.000000 -0.992957
vn 0.118472 0.000000 -0.992957
vn 0.348623 0.000000 -0.937263
vn 0.348623 0.000000 -0.937263
vn 0.348623 0.000000 -0.937263
vn 0.118472 0.000000 -0.992957
vn 0.118472 0.000000 -0.992957
vn 0.118472 0.000000 -0.992957
vn 0.000000 1.000000 0.000000
vn 0.000000 1.000000 0.000000
vn 0.000000 1.000000 0.000000
vn 0.559228 0.000000 -0.829014
vn 0.559228 0.000000 -0.829014
vn 0.559228 0.000000 -0.829014
vn 0.348623 0.000000 -0.937263
vn 0.348623 0.000000 -0.937263
vn 0.348623 0.000000 -0.937263
vn 0.000000 1.000000 0.000000
vn 0.000000 1.000000 0.000000
vn 0.000000 1.000000 0.000000
vn 0.738575 0.000000 -0.674172
vn 0.738575 0.000000 -0.674172
vn 0.738575 0.000000 -0.674172
vn 0.000000 1.000000 0.000000
vn 0.000000 1.000000 0.000000
vn 0.000000 1.000000 -0.000000
vn 0.559228 0.000000 -0.829014
vn 0.559228 0.000000 -0.829014
vn 0.559228 0.000000 -0.829014
vn 0.000000 1.000000 0.000000
vn 0.000000 1.000000 0.000000
vn 0.000000 1.000000 0.000000
vn 0.876387 0.000000 -0.481608
vn 0.876387 0.000000 -0.481608
vn 0.876387 0.000000 -0.481608
vn 0.000000 1.000000 0.000000
vn 0.000000 1.000000 0.000000
vn 0.000000 1.000000 -0.000000
vn 0.738575 0.000000 -0.674172
vn 0.738575 0.000000 -0.674172
vn 0.738575 0.000000 -0.674172
vn 0.000000 1.000000 0.000000
vn 0.000000 1.000000 0.000000
vn 0.000000 1.000000 0.000000
vn 0.965056 0.000000 -0.262043
vn 0.965056 0.000000 -0.262043
vn 0.965056 0.000000 -0.262043
vn 0.000000 1.000000 0.000000
vn 0.000000 1.000000 0.000000
vn 0.000000 1.000000 -0.000000
vn 0.876387 0.000000 -0.481608
vn 0.876387 0.000000 -0.481608
vn 0.876387 0.000000 -0.481608
vn 0.000000 1.000000 0.000000
vn 0.000000 1.000000 0.000000
vn 0.000000 1.000000 -0.000000
vn 0.999618 0.000000 -0.027634
vn 0.999618 0.000000 -0.027634
vn 0.999618 0.000000 -0.027634
vn 0.965056 0.000000 -0.262043
vn 0.965056 0.000000 -0.262043
vn 0.965056 0.000000 -0.262043
vn 0.978090 -0.000000 0.208181
vn 0.978090 0.000000 0.208181
vn 0.978090 0.000000 0.208181
vn 0.999618 0.000000 -0.027634
vn 0.999618 0.000000 -0.027634
vn 0.999618 0.000000 -0.027634
vn 0.901719 -0.000000 0.432323
vn 0.901719 0.000000 0.432323
vn 0.901719 0.000000 0.432323
vn 0.978090 0.000000 0.208181
vn 0.978090 0.000000 0.208181
vn 0.978090 -0.000000 0.208181
vn 0.774692 -0.000000 0.632338
vn 0.774692 0.000000 0.632338
vn 0.774692 0.000000 0.632338
vn 0.901719 0.000000 0.432323
vn 0.901719 0.000000 0.432323
vn 0.901719 -0.000000 0.432323
vn 0.604293 -0.000000 0.796762
vn 0.604293 0.000000 0.796762
vn 0.604293 0.000000 0.796762
vn 0.774692 0.000000 0.632338
vn 0.774692 0.000000 0.632338
vn 0.774692 -0.000000 0.632338
vn 0.604293 0.000000 0.796762
vn 0.604293 0.000000 0.796762
vn 0.604293 -0.000000 0.796762
vn 0.000000 0.831451 -0.555597
vn 0.000000 0.831451 -0.555597
vn 0.000000 0.831451 -0.555597
vn 0.000000 0.831451 -0.555597
vn 0.000000 0.831451 -0.555597
vn 0.000000 0.831451 -0.555597
vn 0.000000 0.555598 -0.831451
vn 0.000000 0.555598 -0.831451
vn 0.000000 0.555598 -0.831451
vn -1.000000 0.000000 -0.000000
vn -1.000000 -0.000000 0.000000
vn -1.000000 0.000000 0.000000
vn 0.000000 0.555598 -0.831451
vn 0.000000 0.555598 -0.831451
vn 0.000000 0.555598 -0.831451
vn -1.000000 0.000000 -0.000000
vn -1.000000 0.000000 0.000000
vn -1.000000 0.000000 0.000000
vn 0.000000 0.195126 -0.980778
vn 0.000000 0.195126 -0.980778
vn 0.000000 0.195126 -0.980778
vn -1.000000 0.000000 -0.000000
vn -1.000000 -0.000000 0.000000
vn -1.000000 0.000000 0.000000
vn 0.000000 0.195126 -0.980778
vn 0.000000 0.195126 -0.980778
vn 0.000000 0.195126 -0.980778
vn -1.000000 0.000000 0.000000
vn -1.000000 0.000000 0.000000
vn -1.000000 0.000000 0.000000
vn -1.000000 0.000000 0.000000
vn -1.000000 0.000000 0.000000
vn -1.000000 0.000000 -0.000000
vn 0.000000 0.000000 -1.000000
vn 0.000000 0.000000 -1.000000
vn -0.000000 -0.000000 -1.000000
vn 0.000000 0.000000 -1.000000
vn 0.000000 0.000000 -1.000000
vn 0.000000 0.000000 -1.000000
vn -1.000000 0.000000 -0.000000
vn -1.000000 0.000000 0.000000
vn -1.000000 0.000000 0.000000
vn -1.000000 0.000000 0.000000
vn -1.000000 0.000000 0.000000
vn -1.000000 0.000000 0.000000
vn 1.000000 0.000000 0.000000
vn 1.000000 0.000000 0.000000
vn 1.000000 0.000000 0.000000
vn 1.000000 0.000000 0.000000
vn 1.000000 0.000000 0.000000
vn 1.000000 0.000000 0.000000
vn 1.000000 0.000000 0.000000
vn 1.000000 -0.000000 0.000000
vn 1.000000 0.000000 -0.000000
vn 1.000000 0.000000 0.000000
vn 1.000000 0.000000 0.000000
vn 1.000000 0.000000 0.000000
vn 1.000000 0.000000 0.000000
vn 1.000000 -0.000000 0.000000
vn 1.000000 0.000000 0.000000
vn 1.000000 -0.000000 0.000000
vn 1.000000 0.000000 -0.000000
vn 1.000000 0.000000 0.000000
vn 1.000000 0.000000 0.000000
vn 1.000000 0.000000 -0.000000
vn 1.000000 0.000000 0.000000
vn 1.000000 -0.000000 0.000000
vn 1.000000 0.000000 0.000000
vn 1.000000 0.000000 0.000000
vn 1.000000 -0.000000 0.000000
vn 1.000000 0.000000 0.000000
vn 1.000000 0.000000 0.000000
vn 0.000000 -0.195126 -0.980778
vn 0.000000 -0.195126 -0.980778
vn -0.000000 -0.195126 -0.980778
vn -0.000000 -0.195126 -0.980778
vn 0.000000 -0.195126 -0.980778
vn 0.000000 -0.195126 -0.980778
vn -1.000000 0.000000 -0.000000
vn -1.000000 0.000000 0.000000
vn -1.000000 0.000000 0.000000
vn -1.000000 -0.000000 0.000000
vn -1.000000 0.000000 0.000000
vn -1.000000 0.000000 0.000000
vn 1.000000 0.000000 0.000000
vn 1.000000 -0.000000 0.000000
vn 1.000000 0.000000 0.000000
vn 1.000000 0.000000 0.000000
vn 1.000000 0.000000 -0.000000
vn 1.000000 0.000000 0.000000
vn -0.000000 -0.555598 -0.831451
vn 0.000000 -0.555598 -0.831451
vn 0.000000 -0.555598 -0.831451
vn -1.000000 0.000000 -0.000000
vn -1.000000 0.000000 0.000000
vn -1.000000 0.000000 0.000000
vn -0.000000 -0.555598 -0.831451
vn 0.000000 -0.555598 -0.831451
vn 0.000000 -0.555598 -0.831451
vn -1.000000 -0.000000 0.000000
vn -1.000000 0.000000 0.000000
vn -1.000000 0.000000 0.000000
vn -1.000000 -0.000000 0.000000
vn -1.000000 0.000000 0.000000
vn -1.000000 0.000000 -0.000000
vn -0.000000 -0.831451 -0.555597
vn 0.000000 -0.831451 -0.555597
vn 0.000000 -0.831451 -0.555597
vn -1.000000 0.000000 0.000000
vn -1.000000 0.000000 0.000000
vn -1.000000 0.000000 0.000000
vn -0.000000 -0.831451 -0.555597
vn 0.000000 -0.831451 -0.555597
vn 0.000000 -0.831451 -0.555597
vn -1.000000 -0.000000 0.000000
vn -1.000000 0.000000 0.000000
vn -1.000000 0.000000 -0.000000
vn -1.000000 -0.000000 0.000000
vn -1.000000 0.000000 0.000000
vn -1.000000 0.000000 -0.000000
vn -0.000000 -0.980778 -0.195126
vn 0.000000 -0.980778 -0.195126
vn 0.000000 -0.980778 -0.195126
vn -1.000000 -0.000000 0.000000
vn -1.000000 0.000000 0.000000
vn -1.000000 0.000000 0.000000
vn -0.000000 -0.980778 -0.195126
vn 0.000000 -0.980778 -0.195126
vn 0.000000 -0.980778 -0.195126
vn 0.000000 -1.000000 -0.000000
vn 0.000000 -1.000000 0.000000
vn 0.000000 -1.000000 0.000000
vn 0.000000 -1.000000 -0.000000
vn 0.000000 -1.000000 0.000000
vn -0.000000 -1.000000 0.000000
vn 0.000000 -1.000000 -0.000000
vn 0.000000 -1.000000 0.000000
vn 0.000000 -1.000000 0.000000
vn 0.000000 -0.000000 -1.000000
vn 0.000000 0.000000 -1.000000
vn 0.000000 0.000000 -1.000000
vn 0.000000 -1.000000 -0.000000
vn 0.000000 -1.000000 0.000000
vn 0.000000 -1.000000 0.000000
vn 0.000000 -1.000000 0.000000
vn 0.000000 -1.000000 0.000000
vn 0.000000 -1.000000 0.000000
vn 1.000000 0.000000 0.000000
vn 1.000000 0.000000 0.000000
vn 1.000000 -0.000000 -0.000000
vn 1.000000 0.000000 0.000000
vn 1.000000 -0.000000 0.000000
vn 1.000000 0.000000 -0.000000
vn -0.000000 -1.000000 0.000000
vn 0.000000 -1.000000 0.000000
vn 0.000000 -1.000000 0.000000
vn 0.000000 -1.000000 0.000000
vn 0.000000 -1.000000 -0.000000
vn 0.000000 -1.000000 0.000000
vn 0.000000 -0.000000 -1.000000
vn 0.000000 0.000000 -1.000000
vn 0.000000 0.000000 -1.000000
vn -0.000000 0.000000 -1.000000
vn 0.000000 0.000000 -1.000000
vn 0.000000 0.000000 -1.000000
vn 1.000000 0.000000 0.000000
vn 1.000000 -0.000000 0.000000
vn 1.000000 0.000000 0.000000
vn 1.000000 0.000000 0.000000
vn 1.000000 0.000000 0.000000
vn 1.000000 0.000000 0.000000
vn 1.000000 0.000000 0.000000
vn 1.000000 0.000000 -0.000000
vn 1.000000 0.000000 0.000000
vn 1.000000 0.000000 0.000000
vn 1.000000 0.000000 0.000000
vn 1.000000 0.000000 0.000000
vn 0.000000 -1.000000 -0.000000
vn 0.000000 -1.000000 0.000000
vn 0.000000 -1.000000 0.000000
vn 0.000000 0.000000 -1.000000
vn 0.000000 0.000000 -1.000000
vn 0.000000 0.000000 -1.000000
vn -0.000000 -1.000000 0.000000
vn 0.000000 -1.000000 0.000000
vn 0.000000 -1.000000 0.000000
vn 0.118472 0.000000 -0.992957
vn 0.118472 0.000000 -0.992957
vn 0.118472 0.000000 -0.992957
vn -0.000000 -0.000000 -1.000000
vn 0.000000 0.000000 -1.000000
vn 0.000000 0.000000 -1.000000
vn 0.118472 0.000000 -0.992957
vn 0.118472 0.000000 -0.992957
vn 0.118472 0.000000 -0.992957
vn 0.000000 -1.000000 0.000000
vn 0.000000 -1.000000 0.000000
vn -0.000000 -1.000000 -0.000000
vn 1.000000 0.000000 0.000000
vn 1.000000 0.000000 0.000000
vn 1.000000 0.000000 0.000000
vn 0.000000 -1.000000 0.000000
vn 0.000000 -1.000000 0.000000
vn 0.000000 -1.000000 0.000000
vn 1.000000 0.000000 0.000000
vn 1.000000 -0.000000 0.000000
vn 1.000000 0.000000 -0.000000
vn 0.000000 0.000000 1.000000
vn 0.000000 0.000000 1.000000
vn 0.000000 -0.000000 1.000000
vn 0.000000 -1.000000 -0.000000
vn 0.000000 -1.000000 0.000000
vn 0.000000 -1.000000 0.000000
vn -0.000000 0.000000 1.000000
vn 0.000000 0.000000 1.000000
vn 0.000000 0.000000 1.000000
vn 0.000000 -1.000000 0.000000
vn -0.000000 -1.000000 0.000000
vn 0.000000 -1.000000 0.000000
vn 0.191209 0.000000 0.981549
vn 0.191209 -0.000000 0.981549
vn 0.191209 0.000000 0.981549
vn 0.000000 -1.000000 0.000000
vn -0.000000 -1.000000 -0.000000
vn 0.000000 -1.000000 0.000000
vn 0.545604 0.000000 0.838043
vn 0.545604 -0.000000 0.838043
vn 0.545604 0.000000 0.838043
vn 0.000000 -1.000000 0.000000
vn -0.000000 -1.000000 0.000000
vn 0.000000 -1.000000 -0.000000
vn 0.191209 0.000000 0.981549
vn 0.191209 -0.000000 0.981549
vn 0.191209 0.000000 0.981549
vn 0.000000 -1.000000 0.000000
vn -0.000000 -1.000000 0.000000
vn 0.000000 -1.000000 0.000000
vn 0.820203 0.000000 0.572073
vn 0.820203 -0.000000 0.572073
vn 0.820203 0.000000 0.572073
vn 0.545604 0.000000 0.838043
vn 0.545604 -0.000000 0.838043
vn 0.545604 0.000000 0.838043
vn 0.000000 -1.000000 0.000000
vn -0.000000 -1.000000 0.000000
vn 0.000000 -1.000000 -0.000000
vn 0.974947 0.000000 0.222437
vn 0.974947 -0.000000 0.222437
vn 0.974947 0.000000 0.222437
vn 0.820203 0.000000 0.572073
vn 0.820203 -0.000000 0.572073
vn 0.820203 0.000000 0.572073
vn 0.995216 0.000000 -0.097704
vn 0.995216 0.000000 -0.097704
vn 0.995216 0.000000 -0.097704
vn 0.974947 0.000000 0.222437
vn 0.974947 -0.000000 0.222437
vn 0.974947 0.000000 0.222437
vn 0.936799 0.000000 -0.349869
vn 0.936799 0.000000 -0.349869
vn 0.936799 0.000000 -0.349869
vn 0.995216 0.000000 -0.097704
vn 0.995216 0.000000 -0.097704
vn 0.995216 0.000000 -0.097704
vn 0.936799 0.000000 -0.349869
vn 0.936799 0.000000 -0.349869
vn 0.936799 0.000000 -0.349869
vn 0.000000 -1.000000 -0.000000
vn 0.000000 -1.000000 0.000000
vn 0.000000 -1.000000 0.000000
vn -0.937080 -0.000000 -0.349115
vn -0.937080 0.000000 -0.349115
vn -0.937080 0.000000 -0.349115
vn 0.000000 -1.000000 0.000000
vn 0.000000 -1.000000 0.000000
vn 0.000000 -1.000000 0.000000
vn -0.000000 0.000000 -1.000000
vn 0.000000 0.000000 -1.000000
vn 0.000000 0.000000 -1.000000
vn 0.000000 -1.000000 0.000000
vn 0.000000 -1.000000 0.000000
vn 0.000000 -1.000000 0.000000
vn -0.995451 0.000022 -0.095272
vn -0.995451 0.000022 -0.095272
vn -0.995451 0.000022 -0.095272
vn -0.937079 -0.000020 -0.349118
vn -0.937079 -0.000020 -0.349118
vn -0.937079 -0.000020 -0.349118
vn -0.986288 -0.000046 0.165031
vn -0.986288 -0.000046 0.165031
vn -0.986288 -0.000046 0.165031
vn -0.986291 0.000035 0.165017
vn -0.986291 0.000035 0.165017
vn -0.986291 0.000035 0.165017
vn -0.995450 -0.000037 -0.095282
vn -0.995450 -0.000037 -0.095282
vn -0.995450 -0.000037 -0.095282
vn -0.910215 -0.000052 0.414136
vn -0.910215 -0.000052 0.414136
vn -0.910215 -0.000052 0.414136
vn -0.910222 0.000046 0.414120
vn -0.910222 0.000046 0.414120
vn -0.910222 0.000046 0.414120
vn -0.772394 -0.000059 0.635144
vn -0.772394 -0.000059 0.635144
vn -0.772394 -0.000059 0.635144
vn -0.772406 0.000053 0.635129
vn -0.772406 0.000053 0.635129
vn -0.772406 0.000053 0.635129
vn -0.582177 -0.000053 0.813062
vn -0.582177 -0.000053 0.813062
vn -0.582177 -0.000053 0.813062
vn -0.582193 0.000060 0.813051
vn -0.582193 0.000060 0.813051
vn -0.582193 0.000060 0.813051
vn -0.352469 -0.000036 0.935823
vn -0.352469 -0.000037 0.935823
vn -0.352469 -0.000036 0.935823
vn -0.352484 0.000053 0.935818
vn -0.352484 0.000053 0.935818
vn -0.352484 0.000053 0.935818
vn -0.098854 0.000035 0.995102
vn -0.098854 0.000035 0.995102
vn -0.098854 0.000035 0.995102
vn 0.000000 -1.000000 0.000000
vn -0.000000 -1.000000 0.000000
vn 0.000000 -1.000000 0.000000
vn 0.161468 0.000018 0.986878
vn 0.161468 0.000018 0.986878
vn 0.161468 0.000018 0.986878
vn -0.098863 -0.000018 0.995101
vn -0.098863 -0.000018 0.995101
vn -0.098863 -0.000018 0.995101
vn 0.000000 -1.000000 0.000000
vn -0.000000 -1.000000 0.000000
vn 0.000000 -1.000000 0.000000
vn 0.400007 0.000000 0.916512
vn 0.400007 -0.000000 0.916512
vn 0.400007 0.000000 0.916512
vn 0.000000 -1.000000 0.000000
vn -0.000000 -1.000000 0.000000
vn 0.000000 -1.000000 -0.000000
vn 0.161465 0.000000 0.986878
vn 0.161465 -0.000000 0.986878
vn 0.161465 0.000000 0.986878
vn 0.000000 -1.000000 0.000000
vn -0.000000 -1.000000 0.000000
vn 0.000000 -1.000000 0.000000
vn 0.604293 0.000000 0.796762
vn 0.604293 -0.000000 0.796762
vn 0.604293 0.000000 0.796762
vn 0.000000 -1.000000 0.000000
vn -0.000000 -1.000000 0.000000
vn 0.000000 -1.000000 -0.000000
vn 0.400007 0.000000 0.916512
vn 0.400007 0.000000 0.916512
vn 0.400007 -0.000000 0.916512
vn 0.000000 -1.000000 0.000000
vn -0.000000 -1.000000 0.000000
vn 0.000000 -1.000000 0.000000
vn 0.774692 0.000000 0.632338
vn 0.774692 -0.000000 0.632338
vn 0.774692 0.000000 0.632338
vn 0.000000 -1.000000 0.000000
vn -0.000000 -1.000000 0.000000
vn 0.000000 -1.000000 -0.000000
vn 0.604293 0.000000 0.796762
vn 0.604293 -0.000000 0.796762
vn 0.604293 0.000000 0.796762
vn 0.000000 -1.000000 0.000000
vn -0.000000 -1.000000 0.000000
vn 0.000000 -1.000000 0.000000
vn 0.901719 0.000000 0.432323
vn 0.901719 -0.000000 0.432323
vn 0.901719 0.000000 0.432323
vn 0.000000 -1.000000 0.000000
vn -0.000000 -1.000000 0.000000
vn 0.000000 -1.000000 -0.000000
vn 0.774692 0.000000 0.632338
vn 0.774692 -0.000000 0.632338
vn 0.774692 0.000000 0.632338
vn 0.000000 -1.000000 0.000000
vn -0.000000 -1.000000 0.000000
vn 0.000000 -1.000000 0.000000
vn 0.978090 0.000000 0.208181
vn 0.978090 -0.000000 0.208181
vn 0.978090 0.000000 0.208181
vn 0.000000 -1.000000 0.000000
vn -0.000000 -1.000000 0.000000
vn 0.000000 -1.000000 -0.000000
vn 0.901719 0.000000 0.432323
vn 0.901719 -0.000000 0.432323
vn 0.901719 0.000000 0.432323
vn 0.999618 0.000000 -0.027634
vn 0.999618 0.000000 -0.027634
vn 0.999618 0.000000 -0.027634
vn 0.978090 0.000000 0.208181
vn 0.978090 -0.000000 0.208181
vn 0.978090 0.000000 0.208181
vn 0.965056 0.000000 -0.262043
vn 0.965056 0.000000 -0.262043
vn 0.965056 0.000000 -0.262043
vn 0.999618 0.000000 -0.027634
vn 0.999618 0.000000 -0.027634
vn 0.999618 0.000000 -0.027634
vn 0.876387 0.000000 -0.481608
vn 0.876387 0.000000 -0.481608
vn 0.876387 0.000000 -0.481608
vn 0.965056 0.000000 -0.262043
vn 0.965056 0.000000 -0.262043
vn 0.965056 0.000000 -0.262043
vn 0.738575 0.000000 -0.674172
vn 0.738575 0.000000 -0.674172
vn 0.738575 0.000000 -0.674172
vn 0.876387 0.000000 -0.481608
vn 0.876387 0.000000 -0.481608
vn 0.876387 0.000000 -0.481608
vn 0.559228 0.000000 -0.829014
vn 0.559228 0.000000 -0.829014
vn 0.559228 0.000000 -0.829014
vn 0.738575 0.000000 -0.674172
vn 0.738575 0.000000 -0.674172
vn 0.738575 0.000000 -0.674172
vn 0.348623 0.000000 -0.937263
vn 0.348623 0.000000 -0.937263
vn 0.348623 0.000000 -0.937263
vn 0.559228 0.000000 -0.829014
vn 0.559228 0.000000 -0.829014
vn 0.559228 0.000000 -0.829014
vn 0.348623 0.000000 -0.937263
vn 0.348623 0.000000 -0.937263
vn 0.348623 0.000000 -0.937263
vn 0.000000 1.000000 -0.000000
vn 0.000000 1.000000 0.000000
vn 0.000000 1.000000 0.000000
vn 0.000000 1.000000 -0.000000
vn 0.000000 1.000000 0.000000
vn 0.000000 1.000000 0.000000
vn 0.000000 1.000000 0.000000
vn 0.000000 1.000000 0.000000
vn 0.000000 1.000000 0.000000
vn 0.000000 1.000000 0.000000
vn 0.000000 1.000000 -0.000000
vn 0.000000 1.000000 0.000000
vn 0.000000 1.000000 -0.000000
vn -0.000000 1.000000 0.000000
vn 0.000000 1.000000 0.000000
vn 0.000000 1.000000 0.000000
vn 0.000000 1.000000 0.000000
vn 0.000000 1.000000 0.000000
vn 0.000000 1.000000 0.000000
vn -0.000000 1.000000 0.000000
vn 0.000000 1.000000 0.000000
vn 0.000000 1.000000 0.000000
vn 0.000000 1.000000 0.000000
vn 0.000000 1.000000 0.000000
vn 0.000000 1.000000 -0.000000
vn -0.000000 1.000000 0.000000
vn 0.000000 1.000000 0.000000
vn 0.000000 1.000000 0.000000
vn -0.000000 1.000000 0.000000
vn 0.000000 1.000000 0.000000
vn 0.000000 1.000000 0.000000
vn 0.000000 1.000000 0.000000
vn 0.000000 1.000000 0.000000
vn 0.000000 1.000000 -0.000000
vn -0.000000 1.000000 0.000000
vn 0.000000 1.000000 0.000000
vn 0.000000 1.000000 -0.000000
vn -0.000000 1.000000 0.000000
vn 0.000000 1.000000 0.000000
vn 0.000000 1.000000 0.000000
vn -0.000000 1.000000 0.000000
vn 0.000000 1.000000 0.000000
vn 0.000000 1.000000 0.000000
vn 0.000000 1.000000 0.000000
vn 0.000000 1.000000 0.000000
vn 0.000000 0.980778 0.195126
vn -0.000000 0.980778 0.195126
vn 0.000000 0.980778 0.195126
vn 0.000000 1.000000 0.000000
vn 0.000000 1.000000 -0.000000
vn 0.000000 1.000000 0.000000
vn 0.000000 0.980778 0.195126
vn -0.000000 0.980778 0.195126
vn 0.000000 0.980778 0.195126
vn 0.000000 1.000000 0.000000
vn 0.000000 1.000000 0.000000
vn 0.000000 1.000000 0.000000
vn -0.000000 1.000000 0.000000
vn 0.000000 1.000000 0.000000
vn 0.000000 1.000000 -0.000000
vn 0.000000 1.000000 0.000000
vn 0.000000 1.000000 0.000000
vn 0.000000 1.000000 0.000000
vn 0.000000 1.000000 0.000000
vn 0.000000 1.000000 0.000000
vn 0.000000 1.000000 0.000000
vn 0.000000 1.000000 0.000000
vn 0.000000 1.000000 0.000000
vn 0.000000 1.000000 -0.000000
vn 0.000000 1.000000 0.000000
vn 0.000000 1.000000 0.000000
vn 0.000000 1.000000 0.000000
vn 0.000000 1.000000 0.000000
vn 0.000000 1.000000 0.000000
vn 0.000000 1.000000 -0.000000
vn 0.000000 1.000000 0.000000
vn 0.000000 1.000000 0.000000
vn 0.000000 1.000000 0.000000
vn 0.000000 1.000000 0.000000
vn 0.000000 1.000000 0.000000
vn 0.000000 1.000000 0.000000
vn 0.000000 1.000000 0.000000
vn 0.000000 1.000000 0.000000
vn 0.000000 1.000000 -0.000000
vn 0.000000 1.000000 0.000000
vn 0.000000 1.000000 0.000000
vn 0.000000 1.000000 0.000000
vn 0.000000 1.000000 0.000000
vn 0.000000 1.000000 0.000000
vn 0.000000 1.000000 -0.000000
vn 0.000000 1.000000 0.000000
vn 0.000000 1.000000 0.000000
vn 0.000000 1.000000 0.000000
vn 0.000000 1.000000 0.000000
vn 0.000000 1.000000 0.000000
vn 0.000000 1.000000 -0.000000
vn 0.000000 1.000000 0.000000
vn 0.000000 1.000000 0.000000
vn 0.000000 1.000000 -0.000000
vn 0.000000 0.831489 0.555541
vn -0.000000 0.831489 0.555541
vn 0.000000 0.831489 0.555541
vn 0.000000 0.831489 0.555541
vn 0.000000 0.831489 0.555541
vn -0.000000 0.831489 0.555541
vn 0.000000 0.555541 0.831489
vn -0.000000 0.555541 0.831489
vn 0.000000 0.555541 0.831489
vn 0.000000 0.555541 0.831489
vn 0.000000 0.555541 0.831489
vn -0.000000 0.555541 0.831489
vn 0.000000 0.195126 0.980778
vn -0.000000 0.195126 0.980778
vn 0.000000 0.195126 0.980778
vn 0.000000 0.195126 0.980778
vn 0.000000 0.195126 0.980778
vn -0.000000 0.195126 0.980778
vn 0.000000 0.000000 1.000000
vn 0.000000 0.000000 1.000000
vn 0.000000 -0.000000 1.000000
vn 0.000000 0.000000 1.000000
vn -0.000000 0.000000 1.000000
vn 0.000000 0.000000 1.000000
vn 0.000000 -0.195126 0.980778
vn 0.000000 -0.195126 0.980778
vn 0.000000 -0.195126 0.980778
vn 0.000000 -0.195126 0.980778
vn 0.000000 -0.195126 0.980778
vn 0.000000 -0.195126 0.980778
vn 0.000000 -0.555541 0.831489
vn 0.000000 -0.555541 0.831489
vn 0.000000 -0.555541 0.831489
vn 0.000000 -0.555541 0.831489
vn 0.000000 -0.555541 0.831489
vn 0.000000 -0.555541 0.831489
vn 0.000000 -0.831489 0.555541
vn 0.000000 -0.831489 0.555541
vn 0.000000 -0.831489 0.555541
vn 0.000000 -0.831489 0.555541
vn 0.000000 -0.831489 0.555541
vn 0.000000 -0.831489 0.555541
vn 0.000000 -0.980778 0.195126
vn 0.000000 -0.980778 0.195126
vn 0.000000 -0.980778 0.195126
vn 0.000000 -0.980778 0.195126
vn 0.000000 -0.980778 0.195126
vn 0.000000 -0.980778 0.195126
vn 0.000000 -1.000000 -0.000000
vn 0.000000 -1.000000 0.000000
vn 0.000000 -1.000000 0.000000
vn 0.000000 -1.000000 -0.000000
vn 0.000000 -1.000000 0.000000
vn -0.000000 -1.000000 0.000000
vn 0.000000 -1.000000 -0.000000
vn 0.000000 -1.000000 0.000000
vn 0.000000 -1.000000 0.000000
vn 0.000000 -1.000000 -0.000000
vn 0.000000 -1.000000 0.000000
vn 0.000000 -1.000000 0.000000
vn 0.000000 -1.000000 0.000000
vn 0.000000 -1.000000 0.000000
vn 0.000000 -1.000000 0.000000
vn -0.000000 -1.000000 0.000000
vn 0.000000 -1.000000 0.000000
vn 0.000000 -1.000000 0.000000
vn 0.000000 -1.000000 0.000000
vn 0.000000 -1.000000 -0.000000
vn 0.000000 -1.000000 0.000000
vn 0.000000 -1.000000 -0.000000
vn 0.000000 -1.000000 0.000000
vn 0.000000 -1.000000 0.000000
vn -0.000000 -1.000000 0.000000
vn 0.000000 -1.000000 0.000000
vn 0.000000 -1.000000 0.000000
vn 0.000000 -1.000000 0.000000
vn 0.000000 -1.000000 0.000000
vn -0.000000 -1.000000 -0.000000
vn 0.000000 -1.000000 0.000000
vn 0.000000 -1.000000 0.000000
vn 0.000000 -1.000000 0.000000
vn 0.000000 -1.000000 -0.000000
vn 0.000000 -1.000000 0.000000
vn 0.000000 -1.000000 0.000000
vn 0.000000 -1.000000 0.000000
vn -0.000000 -1.000000 0.000000
vn 0.000000 -1.000000 0.000000
vn 0.000000 -1.000000 0.000000
vn -0.000000 -1.000000 -0.000000
vn 0.000000 -1.000000 0.000000
vn 0.000000 -1.000000 0.000000
vn -0.000000 -1.000000 0.000000
vn 0.000000 -1.000000 -0.000000
vn 0.000000 -1.000000 0.000000
vn -0.000000 -1.000000 0.000000
vn 0.000000 -1.000000 0.000000
vn 0.000000 -1.000000 0.000000
vn -0.000000 -1.000000 0.000000
vn 0.000000 -1.000000 -0.000000
vn 0.000000 -1.000000 -0.000000
vn 0.000000 -1.000000 0.000000
vn 0.000000 -1.000000 0.000000
vn 0.000000 -1.000000 0.000000
vn 0.000000 -1.000000 0.000000
vn 0.000000 -1.000000 0.000000
vn 0.000000 -1.000000 0.000000
vn 0.000000 -1.000000 0.000000
vn 0.000000 -1.000000 0.000000
vn 0.000000 -1.000000 0.000000
vn -0.000000 -1.000000 0.000000
vn 0.000000 -1.000000 0.000000
vn 0.000000 -1.000000 0.000000
vn -0.000000 -1.000000 0.000000
vn 0.000000 -1.000000 0.000000
vn 0.000000 -1.000000 0.000000
vn -0.000000 -1.000000 0.000000
vn 0.000000 -1.000000 -0.000000
vn 0.000000 -1.000000 0.000000
vn -0.000000 -1.000000 0.000000
vn 0.000000 -1.000000 0.000000
vn 0.000000 -1.000000 0.000000
vn -0.000000 -1.000000 0.000000
vn 0.000000 -1.000000 -0.000000
vn 0.000000 -1.000000 0.000000
vn -0.000000 -1.000000 0.000000
vn 0.000000 -1.000000 0.000000
vn 0.000000 -1.000000 0.000000
vn -0.000000 -1.000000 0.000000
vn 0.000000 -1.000000 -0.000000
vn 0.000000 -1.000000 0.000000
vn -0.000000 -1.000000 0.000000
vn 0.000000 -1.000000 0.000000
vn 0.000000 -1.000000 0.000000
vn -0.000000 -1.000000 0.000000
vn 0.000000 -1.000000 -0.000000
vn 0.000000 -1.000000 0.000000
vn -0.000000 -1.000000 0.000000
vn 0.000000 -1.000000 0.000000
vn 0.000000 -1.000000 0.000000
vn -0.000000 -1.000000 0.000000
vn 0.000000 -1.000000 -0.000000

f 1//1 2//2 3//3
f 4//4 3//5 2//6
f 5//7 1//8 3//9
f 6//10 5//11 3//12
f 4//13 6//14 3//15
f 7//16 2//17 1//18
f 8//19 4//20 2//21
f 7//22 9//23 2//24
f 8//25 2//26 9//27
f 10//28 1//29 5//30
f 10//31 7//32 1//33
f 10//34 5//35 6//36
f 11//37 12//38 13//39
f 14//40 13//41 12//42
f 15//43 11//44 13//45
f 14//46 15//47 13//48
f 11//49 16//50 12//51
f 17//52 12//53 16//54
f 14//55 12//56 17//57
f 18//58 16//59 11//60
f 19//61 16//62 18//63
f 20//64 16//65 19//66
f 20//67 17//68 16//69
f 18//70 11//71 15//72
f 21//73 6//74 4//75
f 22//76 10//77 6//78
f 23//79 6//80 21//81
f 24//82 6//83 23//84
f 25//85 6//86 24//87
f 26//88 6//89 25//90
f 27//91 6//92 26//93
f 28//94 6//95 27//96
f 29//97 6//98 28//99
f 22//100 6//101 29//102
f 30//103 4//104 8//105
f 31//106 4//107 32//108
f 33//109 32//110 4//111
f 34//112 4//113 31//114
f 35//115 4//116 34//117
f 36//118 4//119 35//120
f 37//121 4//122 36//123
f 38//124 4//125 37//126
f 21//127 4//128 38//129
f 39//130 33//131 4//132
f 30//133 39//134 4//135
f 40//136 18//137 15//138
f 41//139 15//140 14//141
f 42//142 40//143 15//144
f 43//145 42//146 15//147
f 44//148 43//149 15//150
f 45//151 44//152 15//153
f 41//154 45//155 15//156
f 46//157 19//158 18//159
f 47//160 46//161 18//162
f 48//163 47//164 18//165
f 40//166 48//167 18//168
f 8//169 20//170 19//171
f 46//172 8//173 19//174
f 49//175 17//176 20//177
f 50//178 14//179 17//180
f 51//181 17//182 52//183
f 53//184 52//185 17//186
f 54//187 17//188 51//189
f 55//190 53//191 17//192
f 49//193 55//194 17//195
f 56//196 50//197 17//198
f 57//199 56//200 17//201
f 54//202 57//203 17//204
f 8//205 9//206 20//207
f 58//208 20//209 9//210
f 58//211 49//212 20//213
f 58//214 9//215 7//216
f 59//217 7//218 10//219
f 60//220 7//221 59//222
f 61//223 7//224 60//225
f 62//226 7//227 61//228
f 63//229 7//230 62//231
f 64//232 7//233 63//234
f 65//235 7//236 64//237
f 66//238 58//239 7//240
f 65//241 66//242 7//243
f 30//244 8//245 46//246
f 67//247 10//248 22//249
f 68//250 10//251 67//252
f 69//253 10//254 68//255
f 70//256 10//257 69//258
f 71//259 10//260 70//261
f 72//262 10//263 71//264
f 73//265 10//266 72//267
f 59//268 10//269 73//270
f 74//271 41//272 14//273
f 75//274 74//275 14//276
f 50//277 75//278 14//279
f 76//280 77//281 78//282
f 79//283 78//284 77//285
f 48//286 76//287 78//288
f 48//289 78//290 80//291
f 81//292 80//293 78//294
f 81//295 78//296 79//297
f 48//298 77//299 76//300
f 82//301 77//302 48//303
f 82//304 79//305 77//306
f 51//307 52//308 83//309
f 53//310 83//311 52//312
f 84//313 51//314 83//315
f 85//316 83//317 53//318
f 84//319 83//320 85//321
f 84//322 54//323 51//324
f 65//325 53//326 55//327
f 85//328 53//329 86//330
f 64//331 86//332 53//333
f 65//334 64//335 53//336
f 66//337 55//338 49//339
f 65//340 55//341 66//342
f 66//343 49//344 58//345
f 39//346 46//347 47//348
f 30//349 46//350 39//351
f 48//352 80//353 47//354
f 33//355 47//356 80//357
f 39//358 47//359 33//360
f 33//361 80//362 81//363
f 87//364 48//365 40//366
f 87//367 82//368 48//369
f 88//370 40//371 42//372
f 88//373 87//374 40//375
f 89//376 42//377 43//378
f 89//379 88//380 42//381
f 90//382 43//383 44//384
f 90//385 89//386 43//387
f 91//388 44//389 45//390
f 91//391 90//392 44//393
f 92//394 45//395 41//396
f 92//397 91//398 45//399
f 93//400 41//401 74//402
f 93//403 92//404 41//405
f 94//406 74//407 75//408
f 94//409 93//410 74//411
f 95//412 75//413 50//414
f 95//415 94//416 75//417
f 96//418 50//419 56//420
f 96//421 95//422 50//423
f 97//424 56//425 57//426
f 97//427 96//428 56//429
f 98//430 57//431 54//432
f 98//433 97//434 57//435
f 84//436 98//437 54//438
f 84//439 85//440 86//441
f 63//442 84//443 86//444
f 64//445 63//446 86//447
f 82//448 81//449 79//450
f 32//451 81//452 82//453
f 33//454 81//455 32//456
f 34//457 82//458 87//459
f 31//460 32//461 82//462
f 34//463 31//464 82//465
f 36//466 87//467 88//468
f 35//469 34//470 87//471
f 36//472 35//473 87//474
f 38//475 88//476 89//477
f 37//478 36//479 88//480
f 38//481 37//482 88//483
f 23//484 89//485 90//486
f 21//487 38//488 89//489
f 23//490 21//491 89//492
f 25//493 90//494 91//495
f 24//496 23//497 90//498
f 25//499 24//500 90//501
f 27//502 91//503 92//504
f 26//505 25//506 91//507
f 27//508 26//509 91//510
f 29//511 92//512 93//513
f 28//514 27//515 92//516
f 29//517 28//518 92//519
f 22//520 93//521 94//522
f 22//523 29//524 93//525
f 68//526 94//527 95//528
f 67//529 22//530 94//531
f 68//532 67//533 94//534
f 70//535 95//536 96//537
f 69//538 68//539 95//540
f 70//541 69//542 95//543
f 72//544 96//545 97//546
f 71//547 70//548 96//549
f 72//550 71//551 96//552
f 59//553 97//554 98//555
f 73//556 72//557 97//558
f 59//559 73//560 97//561
f 61//562 98//563 84//564
f 60//565 59//566 98//567
f 61//568 60//569 98//570
f 62//571 61//572 84//573
f 63//574 62//575 84//576
f 99//577 100//578 101//579
f 102//580 101//581 100//582
f 103//583 99//584 101//585
f 104//586 103//587 101//588
f 105//589 104//590 101//591
f 106//592 105//593 101//594
f 106//595 101//596 102//597
f 107//598 108//599 100//600
f 109//601 100//602 108//603
f 99//604 107//605 100//606
f 102//607 100//608 109//609
f 110//610 111//611 108//612
f 112//613 108//614 111//615
f 107//616 110//617 108//618
f 109//619 108//620 112//621
f 110//622 113//623 111//624
f 114//625 111//626 113//627
f 112//628 111//629 114//630
f 115//631 116//632 113//633
f 117//634 113//635 116//636
f 110//637 115//638 113//639
f 114//640 113//641 117//642
f 115//643 118//644 116//645
f 119//646 116//647 118//648
f 117//649 116//650 119//651
f 120//652 121//653 118//654
f 122//655 118//656 121//657
f 115//658 120//659 118//660
f 119//661 118//662 122//663
f 123//664 121//665 120//666
f 122//667 121//668 123//669
f 124//670 120//671 115//672
f 123//673 120//674 124//675
f 125//676 115//677 110//678
f 124//679 115//680 125//681
f 126//682 127//683 110//684
f 128//685 110//686 127//687
f 107//688 126//689 110//690
f 129//691 110//692 130//693
f 128//694 130//695 110//696
f 131//697 110//698 129//699
f 125//700 110//701 131//702
f 132//703 133//704 127//705
f 134//706 127//707 133//708
f 126//709 132//710 127//711
f 134//712 128//713 127//714
f 135//715 136//716 133//717
f 137//718 133//719 136//720
f 138//721 135//722 133//723
f 132//724 138//725 133//726
f 137//727 134//728 133//729
f 139//730 140//731 136//732
f 141//733 136//734 140//735
f 135//736 139//737 136//738
f 137//739 136//740 141//741
f 142//742 140//743 139//744
f 141//745 140//746 142//747
f 143//748 139//749 135//750
f 142//751 139//752 143//753
f 144//754 135//755 138//756
f 143//757 135//758 144//759
f 145//760 138//761 132//762
f 144//763 138//764 145//765
f 146//766 132//767 126//768
f 147//769 132//770 146//771
f 145//772 132//773 147//774
f 148//775 126//776 107//777
f 146//778 126//779 148//780
f 149//781 107//782 99//783
f 148//784 107//785 149//786
f 149//787 99//788 103//789
f 150//790 103//791 104//792
f 150//793 149//794 103//795
f 105//796 151//797 104//798
f 152//799 104//800 151//801
f 150//802 104//803 152//804
f 153//805 154//806 151//807
f 155//808 151//809 154//810
f 105//811 153//812 151//813
f 152//814 151//815 155//816
f 156//817 157//818 154//819
f 158//820 154//821 157//822
f 153//823 156//824 154//825
f 155//826 154//827 158//828
f 159//829 160//830 157//831
f 161//832 157//833 160//834
f 156//835 159//836 157//837
f 158//838 157//839 161//840
f 159//841 162//842 160//843
f 163//844 160//845 162//846
f 161//847 160//848 163//849
f 164//850 162//851 159//852
f 163//853 162//854 164//855
f 165//856 159//857 156//858
f 164//859 159//860 165//861
f 166//862 156//863 153//864
f 165//865 156//866 166//867
f 167//868 153//869 105//870
f 166//871 153//872 167//873
f 167//874 105//875 106//876
f 168//877 129//878 130//879
f 128//880 168//881 130//882
f 169//883 170//884 129//885
f 171//886 129//887 170//888
f 168//889 169//890 129//891
f 131//892 129//893 171//894
f 172//895 173//896 170//897
f 174//898 170//899 173//900
f 169//901 172//902 170//903
f 175//904 170//905 174//906
f 171//907 170//908 175//909
f 176//910 173//911 172//912
f 176//913 177//914 173//915
f 178//916 173//917 177//918
f 174//919 173//920 178//921
f 179//922 172//923 169//924
f 180//925 176//926 172//927
f 179//928 180//929 172//930
f 181//931 169//932 168//933
f 182//934 179//935 169//936
f 182//937 169//938 181//939
f 134//940 168//941 128//942
f 183//943 168//944 134//945
f 181//946 168//947 183//948
f 184//949 177//950 176//951
f 184//952 185//953 177//954
f 186//955 177//956 185//957
f 178//958 177//959 186//960
f 187//961 184//962 176//963
f 187//964 176//965 180//966
f 188//967 189//968 185//969
f 190//970 185//971 189//972
f 184//973 188//974 185//975
f 191//976 185//977 190//978
f 186//979 185//980 191//981
f 192//982 193//983 189//984
f 194//985 189//986 193//987
f 188//988 192//989 189//990
f 195//991 189//992 194//993
f 190//994 189//995 195//996
f 196//997 197//998 193//999
f 194//1000 193//1001 197//1002
f 192//1003 196//1004 193//1005
f 198//1006 197//1007 196//1008
f 199//1009 197//1010 198//1011
f 200//1012 201//1013 197//1014
f 194//1015 197//1016 201//1017
f 202//1018 200//1019 197//1020
f 199//1021 202//1022 197//1023
f 188//1024 196//1025 192//1026
f 203//1027 196//1028 188//1029
f 204//1030 198//1031 196//1032
f 205//1033 204//1034 196//1035
f 206//1036 205//1037 196//1038
f 206//1039 196//1040 203//1041
f 207//1042 188//1043 184//1044
f 207//1045 203//1046 188//1047
f 208//1048 184//1049 187//1050
f 207//1051 184//1052 208//1053
f 209//1054 210//1055 211//1056
f 212//1057 211//1058 210//1059
f 213//1060 209//1061 211//1062
f 214//1063 213//1064 211//1065
f 215//1066 211//1067 212//1068
f 214//1069 211//1070 215//1071
f 216//1072 198//1073 210//1074
f 217//1075 210//1076 198//1077
f 209//1078 216//1079 210//1080
f 212//1081 210//1082 217//1083
f 218//1084 198//1085 204//1086
f 216//1087 199//1088 198//1089
f 217//1090 198//1091 218//1092
f 205//1093 219//1094 204//1095
f 218//1096 204//1097 219//1098
f 220//1099 221//1100 219//1101
f 222//1102 219//1103 221//1104
f 205//1105 220//1106 219//1107
f 218//1108 219//1109 222//1110
f 220//1111 223//1112 221//1113
f 224//1114 221//1115 223//1116
f 222//1117 221//1118 224//1119
f 220//1120 225//1121 223//1122
f 226//1123 223//1124 225//1125
f 224//1126 223//1127 226//1128
f 227//1129 225//1130 220//1131
f 226//1132 225//1133 227//1134
f 228//1135 220//1136 205//1137
f 227//1138 220//1139 228//1140
f 228//1141 205//1142 206//1143
f 229//1144 230//1145 201//1146
f 231//1147 201//1148 230//1149
f 200//1150 229//1151 201//1152
f 194//1153 201//1154 231//1155
f 229//1156 232//1157 230//1158
f 233//1159 230//1160 232//1161
f 231//1162 230//1163 233//1164
f 234//1165 232//1166 229//1167
f 235//1168 232//1169 234//1170
f 233//1171 232//1172 235//1173
f 236//1174 229//1175 200//1176
f 234//1177 229//1178 236//1179
f 237//1180 200//1181 202//1182
f 236//1183 200//1184 237//1185
f 238//1186 202//1187 199//1188
f 237//1189 202//1190 238//1191
f 239//1192 199//1193 216//1194
f 238//1195 199//1196 239//1197
f 239//1198 216//1199 209//1200
f 213//1201 240//1202 209//1203
f 241//1204 209//1205 240//1206
f 239//1207 209//1208 241//1209
f 242//1210 243//1211 240//1212
f 244//1213 240//1214 243//1215
f 213//1216 242//1217 240//1218
f 241//1219 240//1220 244//1221
f 245//1222 246//1223 243//1224
f 247//1225 243//1226 246//1227
f 242//1228 245//1229 243//1230
f 247//1231 244//1232 243//1233
f 248//1234 249//1235 246//1236
f 250//1237 246//1238 249//1239
f 245//1240 248//1241 246//1242
f 247//1243 246//1244 250//1245
f 251//1246 252//1247 249//1248
f 253//1249 249//1250 252//1251
f 248//1252 251//1253 249//1254
f 250//1255 249//1256 253//1257
f 254//1258 255//1259 252//1260
f 256//1261 252//1262 255//1263
f 251//1264 254//1265 252//1266
f 253//1267 252//1268 256//1269
f 257//1270 255//1271 254//1272
f 256//1273 255//1274 257//1275
f 258//1276 254//1277 251//1278
f 257//1279 254//1280 258//1281
f 259//1282 251//1283 248//1284
f 258//1285 251//1286 259//1287
f 260//1288 248//1289 245//1290
f 259//1291 248//1292 260//1293
f 261//1294 245//1295 242//1296
f 260//1297 245//1298 261//1299
f 262//1300 242//1301 213//1302
f 261//1303 242//1304 262//1305
f 262//1306 213//1307 214//1308
f 215//1309 241//1310 244//1311
f 214//1312 215//1313 244//1314
f 262//1315 214//1316 244//1317
f 247//1318 262//1319 244//1320
f 212//1321 239//1322 241//1323
f 215//1324 212//1325 241//1326
f 194//1327 238//1328 239//1329
f 212//1330 194//1331 239//1332
f 194//1333 237//1334 238//1335
f 231//1336 236//1337 237//1338
f 194//1339 231//1340 237//1341
f 231//1342 234//1343 236//1344
f 233//1345 235//1346 234//1347
f 231//1348 233//1349 234//1350
f 217//1351 203//1352 194//1353
f 207//1354 194//1355 203//1356
f 212//1357 217//1358 194//1359
f 207//1360 195//1361 194//1362
f 218//1363 206//1364 203//1365
f 217//1366 218//1367 203//1368
f 224//1369 228//1370 206//1371
f 222//1372 224//1373 206//1374
f 218//1375 222//1376 206//1377
f 226//1378 227//1379 228//1380
f 224//1381 226//1382 228//1383
f 247//1384 261//1385 262//1386
f 250//1387 260//1388 261//1389
f 247//1390 250//1391 261//1392
f 253//1393 259//1394 260//1395
f 250//1396 253//1397 260//1398
f 256//1399 258//1400 259//1401
f 253//1402 256//1403 259//1404
f 256//1405 257//1406 258//1407
f 208//1408 190//1409 195//1410
f 207//1411 208//1412 195//1413
f 187//1414 191//1415 190//1416
f 208//1417 187//1418 190//1419
f 180//1420 186//1421 191//1422
f 187//1423 180//1424 191//1425
f 179//1426 186//1427 180//1428
f 179//1429 178//1430 186//1431
f 182//1432 178//1433 179//1434
f 182//1435 174//1436 178//1437
f 181//1438 175//1439 174//1440
f 182//1441 181//1442 174//1443
f 183//1444 171//1445 175//1446
f 181//1447 183//1448 175//1449
f 134//1450 131//1451 171//1452
f 183//1453 134//1454 171//1455
f 146//1456 131//1457 134//1458
f 114//1459 131//1460 146//1461
f 119//1462 125//1463 131//1464
f 117//1465 119//1466 131//1467
f 114//1468 117//1469 131//1470
f 147//1471 146//1472 134//1473
f 137//1474 147//1475 134//1476
f 109//1477 148//1478 149//1479
f 150//1480 109//1481 149//1482
f 112//1483 146//1484 148//1485
f 109//1486 112//1487 148//1488
f 112//1489 114//1490 146//1491
f 137//1492 145//1493 147//1494
f 141//1495 144//1496 145//1497
f 137//1498 141//1499 145//1500
f 141//1501 143//1502 144//1503
f 141//1504 142//1505 143//1506
f 122//1507 124//1508 125//1509
f 119//1510 122//1511 125//1512
f 122//1513 123//1514 124//1515
f 150//1516 102//1517 109//1518
f 152//1519 106//1520 102//1521
f 150//1522 152//1523 102//1524
f 155//1525 167//1526 106//1527
f 152//1528 155//1529 106//1530
f 158//1531 166//1532 167//1533
f 155//1534 158//1535 167//1536
f 161//1537 165//1538 166//1539
f 158//1540 161//1541 166//1542
f 163//1543 164//1544 165//1545
f 161//1546 163//1547 165//1548

