<?xml version="1.0" encoding="utf-8"?>
<COLLADA version="1.4.0" xmlns="http://www.collada.org/2005/11/COLLADASchema">
	<asset>
		<contributor>
			<author>NxuStream2 converter - http://www.ageia.com</author>
			<authoring_tool>PhysX Rocket, PhysX Viewer, or CreateDynamics</authoring_tool>
			<comments>questions to: jratcliff@ageia.com</comments>
			<copyright></copyright>
			<source_data>chair_gothic_tilted</source_data>
		</contributor>
		<unit meter="1" name="meter"/>
		<up_axis>Y_UP</up_axis>
	</asset>
   <library_materials>
      <material id="Material" name="Material">
         <instance_effect url="#Material-fx"></instance_effect>
      </material>
   </library_materials>
   <library_effects>
      <effect id="Material-fx" name="Material">
         <profile_COMMON>
            <technique id="Material-fx-COMMON" sid="COMMON">
               <phong>
                  <ambient>
                     <color>0.803922 0.588235 0.92549 1</color>
                  </ambient>
                  <diffuse>
                     <color>0.803922 0.588235 0.92549 1</color>
                  </diffuse>
                  <specular>
                     <color>0.631373 0.631373 0.631373 1</color>
                  </specular>
                  <shininess>
                     <float>1</float>
                  </shininess>
                  <reflective>
                     <color>0 0 0 1</color>
                  </reflective>
                  <transparent>
                     <color>1 1 1 1</color>
                  </transparent>
                  <transparency>
                     <float>0</float>
                  </transparency>
               </phong>
           </technique>
         </profile_COMMON>
      </effect>
   </library_effects>
  <library_geometries>
    <geometry id="/tmp/buildd/ros-hydro-pr2-description-1.11.4-0precise-20150329-0527/meshes/tilting_laser_v0/convex/hok_tilt_0-Mesh" name="/tmp/buildd/ros-hydro-pr2-description-1.11.4-0precise-20150329-0527/meshes/tilting_laser_v0/convex/hok_tilt_0-Mesh">
      <convex_mesh>
        <source id="/tmp/buildd/ros-hydro-pr2-description-1.11.4-0precise-20150329-0527/meshes/tilting_laser_v0/convex/hok_tilt_0-Position">
          <float_array count="36" id="/tmp/buildd/ros-hydro-pr2-description-1.11.4-0precise-20150329-0527/meshes/tilting_laser_v0/convex/hok_tilt_0-Position-array">
            0.024472812 0 0.0114  0.000003 0.024539232 0.0114  0.000003 0 -0.03325  0.014571214 0.020136768 0.0114  
            0.000003 0.046429001 -0.028620001  0.052542001 0.046999998 0.007246  0.035 0 -0.03325  0.000003 0.046999998 0.0095  
            0.048599999 0.046999998 -0.02575  0.035 0.039500002 -0.03325  0.053580999 0.044500001 -0.012412  0.000003 0.039500002 -0.03325  
          </float_array>
          <technique_common>
            <accessor count="12" source="#/tmp/buildd/ros-hydro-pr2-description-1.11.4-0precise-20150329-0527/meshes/tilting_laser_v0/convex/hok_tilt_0-Position-array" stride="3">
              <param name="X" type="float"/>
              <param name="Y" type="float"/>
              <param name="Z" type="float"/>
            </accessor>
    		   </technique_common>
				 </source>
   		 <vertices id="/tmp/buildd/ros-hydro-pr2-description-1.11.4-0precise-20150329-0527/meshes/tilting_laser_v0/convex/hok_tilt_0-Vertex">
					<input semantic="POSITION" source="#/tmp/buildd/ros-hydro-pr2-description-1.11.4-0precise-20150329-0527/meshes/tilting_laser_v0/convex/hok_tilt_0-Position"/>
				</vertices>
				<triangles material="Material" count="20">
					<input offset="0" semantic="VERTEX" source="#/tmp/buildd/ros-hydro-pr2-description-1.11.4-0precise-20150329-0527/meshes/tilting_laser_v0/convex/hok_tilt_0-Vertex"/>
           <p>
             0 1 2  1 0 3  4 2 1  5 3 0  
             6 5 0  6 0 2  7 1 3  7 3 5  
             7 4 1  7 8 4  7 5 8  9 4 8  
             9 8 6  9 6 2  10 8 5  10 5 6  
             10 6 8  11 2 4  11 4 9  11 9 2  
           </p>
				</triangles>
      </convex_mesh>
		</geometry>
    <geometry id="/tmp/buildd/ros-hydro-pr2-description-1.11.4-0precise-20150329-0527/meshes/tilting_laser_v0/convex/hok_tilt_1-Mesh" name="/tmp/buildd/ros-hydro-pr2-description-1.11.4-0precise-20150329-0527/meshes/tilting_laser_v0/convex/hok_tilt_1-Mesh">
      <convex_mesh>
        <source id="/tmp/buildd/ros-hydro-pr2-description-1.11.4-0precise-20150329-0527/meshes/tilting_laser_v0/convex/hok_tilt_1-Position">
          <float_array count="36" id="/tmp/buildd/ros-hydro-pr2-description-1.11.4-0precise-20150329-0527/meshes/tilting_laser_v0/convex/hok_tilt_1-Position-array">
            0.000003 -0.000003386 -0.03325  0.024472812 0 0.0114  0.035 0 -0.03325  0.000003 -0.039500002 -0.03325  
            0.000003 -0.046999998 0.0095  0.048599999 -0.046999998 -0.02575  0.046976 -0.046999998 0.0095  0.000003 -0.024539232 0.0114  
            0.054972 -0.044500001 0.001755  0.000003 -0.046999998 -0.02575  0.035 -0.039500002 -0.03325  0.029999999 0 0.00735  
          </float_array>
          <technique_common>
            <accessor count="12" source="#/tmp/buildd/ros-hydro-pr2-description-1.11.4-0precise-20150329-0527/meshes/tilting_laser_v0/convex/hok_tilt_1-Position-array" stride="3">
              <param name="X" type="float"/>
              <param name="Y" type="float"/>
              <param name="Z" type="float"/>
            </accessor>
    		   </technique_common>
				 </source>
   		 <vertices id="/tmp/buildd/ros-hydro-pr2-description-1.11.4-0precise-20150329-0527/meshes/tilting_laser_v0/convex/hok_tilt_1-Vertex">
					<input semantic="POSITION" source="#/tmp/buildd/ros-hydro-pr2-description-1.11.4-0precise-20150329-0527/meshes/tilting_laser_v0/convex/hok_tilt_1-Position"/>
				</vertices>
				<triangles material="Material" count="20">
					<input offset="0" semantic="VERTEX" source="#/tmp/buildd/ros-hydro-pr2-description-1.11.4-0precise-20150329-0527/meshes/tilting_laser_v0/convex/hok_tilt_1-Vertex"/>
           <p>
             0 1 2  0 2 3  0 3 4  5 6 4  
             7 1 0  7 0 4  7 6 1  7 4 6  
             8 6 5  8 5 2  9 4 3  9 3 5  
             9 5 4  10 3 2  10 2 5  10 5 3  
             11 2 1  11 8 2  11 1 6  11 6 8  
           </p>
				</triangles>
      </convex_mesh>
		</geometry>
    <geometry id="/tmp/buildd/ros-hydro-pr2-description-1.11.4-0precise-20150329-0527/meshes/tilting_laser_v0/convex/hok_tilt_2-Mesh" name="/tmp/buildd/ros-hydro-pr2-description-1.11.4-0precise-20150329-0527/meshes/tilting_laser_v0/convex/hok_tilt_2-Mesh">
      <convex_mesh>
        <source id="/tmp/buildd/ros-hydro-pr2-description-1.11.4-0precise-20150329-0527/meshes/tilting_laser_v0/convex/hok_tilt_2-Position">
          <float_array count="36" id="/tmp/buildd/ros-hydro-pr2-description-1.11.4-0precise-20150329-0527/meshes/tilting_laser_v0/convex/hok_tilt_2-Position-array">
            0.000003 0.046999998 0.054800723  0.001737 -0.046999998 0.054972999  0.029999999 0.029999999 0.056049999  0.02007 0.046999998 0.040344  
            0.000003 0.024539232 0.0114  0.014905634 0.019920785 0.0114  0.000003 -0.024539232 0.0114  0.029999999 -0.029999999 0.056049999  
            0.029999999 -0.029999999 0.038150001  0.017222 -0.046999998 0.037884999  0.024393929 -0.004824902 0.0114  0.000003 -0.046999998 0.037  
          </float_array>
          <technique_common>
            <accessor count="12" source="#/tmp/buildd/ros-hydro-pr2-description-1.11.4-0precise-20150329-0527/meshes/tilting_laser_v0/convex/hok_tilt_2-Position-array" stride="3">
              <param name="X" type="float"/>
              <param name="Y" type="float"/>
              <param name="Z" type="float"/>
            </accessor>
    		   </technique_common>
				 </source>
   		 <vertices id="/tmp/buildd/ros-hydro-pr2-description-1.11.4-0precise-20150329-0527/meshes/tilting_laser_v0/convex/hok_tilt_2-Vertex">
					<input semantic="POSITION" source="#/tmp/buildd/ros-hydro-pr2-description-1.11.4-0precise-20150329-0527/meshes/tilting_laser_v0/convex/hok_tilt_2-Position"/>
				</vertices>
				<triangles material="Material" count="20">
					<input offset="0" semantic="VERTEX" source="#/tmp/buildd/ros-hydro-pr2-description-1.11.4-0precise-20150329-0527/meshes/tilting_laser_v0/convex/hok_tilt_2-Vertex"/>
           <p>
             0 1 2  3 0 2  4 0 3  4 3 5  
             4 6 0  4 5 6  7 2 1  7 8 2  
             9 8 7  9 7 1  10 8 9  10 9 6  
             10 5 3  10 3 2  10 2 8  10 6 5  
             11 6 9  11 9 1  11 0 6  11 1 0  
           </p>
				</triangles>
      </convex_mesh>
		</geometry>
    <geometry id="/tmp/buildd/ros-hydro-pr2-description-1.11.4-0precise-20150329-0527/meshes/tilting_laser_v0/convex/hok_tilt_3-Mesh" name="/tmp/buildd/ros-hydro-pr2-description-1.11.4-0precise-20150329-0527/meshes/tilting_laser_v0/convex/hok_tilt_3-Mesh">
      <convex_mesh>
        <source id="/tmp/buildd/ros-hydro-pr2-description-1.11.4-0precise-20150329-0527/meshes/tilting_laser_v0/convex/hok_tilt_3-Position">
          <float_array count="36" id="/tmp/buildd/ros-hydro-pr2-description-1.11.4-0precise-20150329-0527/meshes/tilting_laser_v0/convex/hok_tilt_3-Position-array">
            0.000003 0.039500002 -0.03325  0.000003 0 -0.03325  -0.035 0 -0.03325  0.000003 0.029999999 0.056049999  
            -0.029999999 0 0.056049999  -0.054965999 0.046999998 0.001934  0.000003 0 0.056049999  -0.048599999 0.046999998 -0.02575  
            -0.037571002 0.046999998 0.040167  0.000003 0.046999998 0.054800723  -0.029999999 0.029999999 0.056049999  0.000003 0.046999998 -0.02575  
          </float_array>
          <technique_common>
            <accessor count="12" source="#/tmp/buildd/ros-hydro-pr2-description-1.11.4-0precise-20150329-0527/meshes/tilting_laser_v0/convex/hok_tilt_3-Position-array" stride="3">
              <param name="X" type="float"/>
              <param name="Y" type="float"/>
              <param name="Z" type="float"/>
            </accessor>
    		   </technique_common>
				 </source>
   		 <vertices id="/tmp/buildd/ros-hydro-pr2-description-1.11.4-0precise-20150329-0527/meshes/tilting_laser_v0/convex/hok_tilt_3-Vertex">
					<input semantic="POSITION" source="#/tmp/buildd/ros-hydro-pr2-description-1.11.4-0precise-20150329-0527/meshes/tilting_laser_v0/convex/hok_tilt_3-Position"/>
				</vertices>
				<triangles material="Material" count="20">
					<input offset="0" semantic="VERTEX" source="#/tmp/buildd/ros-hydro-pr2-description-1.11.4-0precise-20150329-0527/meshes/tilting_laser_v0/convex/hok_tilt_3-Vertex"/>
           <p>
             0 1 2  1 0 3  4 5 2  4 2 1  
             6 1 3  6 3 4  6 4 1  7 0 2  
             7 2 5  8 7 5  8 5 4  9 3 0  
             9 7 8  10 8 4  10 9 8  10 4 3  
             10 3 9  11 0 7  11 7 9  11 9 0  
           </p>
				</triangles>
      </convex_mesh>
		</geometry>
    <geometry id="/tmp/buildd/ros-hydro-pr2-description-1.11.4-0precise-20150329-0527/meshes/tilting_laser_v0/convex/hok_tilt_4-Mesh" name="/tmp/buildd/ros-hydro-pr2-description-1.11.4-0precise-20150329-0527/meshes/tilting_laser_v0/convex/hok_tilt_4-Mesh">
      <convex_mesh>
        <source id="/tmp/buildd/ros-hydro-pr2-description-1.11.4-0precise-20150329-0527/meshes/tilting_laser_v0/convex/hok_tilt_4-Position">
          <float_array count="36" id="/tmp/buildd/ros-hydro-pr2-description-1.11.4-0precise-20150329-0527/meshes/tilting_laser_v0/convex/hok_tilt_4-Position-array">
            0.000003 0 -0.03325  0.000003 0 0.056049999  0.000003 -0.046999998 0.054800756  0.000003 -0.046429001 -0.028620001  
            -0.035 -0.039500002 -0.03325  -0.035 0 -0.03325  -0.029999999 0 0.056049999  -0.052602001 -0.046999998 0.016063999  
            -0.029999999 -0.029999999 0.056049999  -0.053601 -0.046999998 -0.012326  -0.037571002 -0.046999998 0.040167999  -0.048599999 -0.046999998 -0.02575  
          </float_array>
          <technique_common>
            <accessor count="12" source="#/tmp/buildd/ros-hydro-pr2-description-1.11.4-0precise-20150329-0527/meshes/tilting_laser_v0/convex/hok_tilt_4-Position-array" stride="3">
              <param name="X" type="float"/>
              <param name="Y" type="float"/>
              <param name="Z" type="float"/>
            </accessor>
    		   </technique_common>
				 </source>
   		 <vertices id="/tmp/buildd/ros-hydro-pr2-description-1.11.4-0precise-20150329-0527/meshes/tilting_laser_v0/convex/hok_tilt_4-Vertex">
					<input semantic="POSITION" source="#/tmp/buildd/ros-hydro-pr2-description-1.11.4-0precise-20150329-0527/meshes/tilting_laser_v0/convex/hok_tilt_4-Position"/>
				</vertices>
				<triangles material="Material" count="20">
					<input offset="0" semantic="VERTEX" source="#/tmp/buildd/ros-hydro-pr2-description-1.11.4-0precise-20150329-0527/meshes/tilting_laser_v0/convex/hok_tilt_4-Vertex"/>
           <p>
             0 1 2  3 4 0  3 0 2  5 1 0  
             5 0 4  6 1 5  6 5 7  8 6 7  
             8 2 1  8 1 6  9 7 5  9 2 7  
             10 7 2  10 2 8  10 8 7  11 4 3  
             11 3 2  11 2 9  11 5 4  11 9 5  
           </p>
				</triangles>
      </convex_mesh>
		</geometry>
  </library_geometries>
  <library_visual_scenes>
	  <visual_scene id="Scene0-Visual" name="Scene0-Visual">
      <node id="/tmp/buildd/ros-hydro-pr2-description-1.11.4-0precise-20150329-0527/meshes/tilting_laser_v0/convex/hok_tilt-Node" name="/tmp/buildd/ros-hydro-pr2-description-1.11.4-0precise-20150329-0527/meshes/tilting_laser_v0/convex/hok_tilt" type="NODE">
        <translate>0 0 0</translate>
        <rotate>1 0 0  0</rotate>
      </node>
  	  </visual_scene>
  </library_visual_scenes>
  <library_physics_materials>
    <physics_material id="pmat0_0-PhysicsMaterial" name="pmat0_0-PhysicsMaterial">
      <technique_common>
        <dynamic_friction>0.5</dynamic_friction>
        <restitution>0</restitution>
        <static_friction>0.5</static_friction>
      </technique_common>
    </physics_material>
  </library_physics_materials>
  <library_physics_models>
    <physics_model id="Scene0-PhysicsModel">
      <rigid_body sid="/tmp/buildd/ros-hydro-pr2-description-1.11.4-0precise-20150329-0527/meshes/tilting_laser_v0/convex/hok_tilt-RigidBody" name="/tmp/buildd/ros-hydro-pr2-description-1.11.4-0precise-20150329-0527/meshes/tilting_laser_v0/convex/hok_tilt">
        <technique_common>
          <instance_physics_material url="#pmat0_0-PhysicsMaterial"/>
         <shape>
            <translate>0 0 0</translate>
            <rotate>1 0 0  0</rotate>
            <instance_physics_material url="#pmat0_0-PhysicsMaterial"/>
            <density>1</density>
            <extra>
              <technique profile="PhysX">
               <skinWidth>0</skinWidth>
              </technique>
            </extra>
            <instance_geometry url="/tmp/buildd/ros-hydro-pr2-description-1.11.4-0precise-20150329-0527/meshes/tilting_laser_v0/convex/hok_tilt_0-Mesh"/>
         </shape>
         <shape>
            <translate>0 0 0</translate>
            <rotate>1 0 0  0</rotate>
            <instance_physics_material url="#pmat0_0-PhysicsMaterial"/>
            <density>1</density>
            <extra>
              <technique profile="PhysX">
               <skinWidth>0</skinWidth>
              </technique>
            </extra>
            <instance_geometry url="/tmp/buildd/ros-hydro-pr2-description-1.11.4-0precise-20150329-0527/meshes/tilting_laser_v0/convex/hok_tilt_1-Mesh"/>
         </shape>
         <shape>
            <translate>0 0 0</translate>
            <rotate>1 0 0  0</rotate>
            <instance_physics_material url="#pmat0_0-PhysicsMaterial"/>
            <density>1</density>
            <extra>
              <technique profile="PhysX">
               <skinWidth>0</skinWidth>
              </technique>
            </extra>
            <instance_geometry url="/tmp/buildd/ros-hydro-pr2-description-1.11.4-0precise-20150329-0527/meshes/tilting_laser_v0/convex/hok_tilt_2-Mesh"/>
         </shape>
         <shape>
            <translate>0 0 0</translate>
            <rotate>1 0 0  0</rotate>
            <instance_physics_material url="#pmat0_0-PhysicsMaterial"/>
            <density>1</density>
            <extra>
              <technique profile="PhysX">
               <skinWidth>0</skinWidth>
              </technique>
            </extra>
            <instance_geometry url="/tmp/buildd/ros-hydro-pr2-description-1.11.4-0precise-20150329-0527/meshes/tilting_laser_v0/convex/hok_tilt_3-Mesh"/>
         </shape>
         <shape>
            <translate>0 0 0</translate>
            <rotate>1 0 0  0</rotate>
            <instance_physics_material url="#pmat0_0-PhysicsMaterial"/>
            <density>1</density>
            <extra>
              <technique profile="PhysX">
               <skinWidth>0</skinWidth>
              </technique>
            </extra>
            <instance_geometry url="/tmp/buildd/ros-hydro-pr2-description-1.11.4-0precise-20150329-0527/meshes/tilting_laser_v0/convex/hok_tilt_4-Mesh"/>
         </shape>
        <dynamic>true</dynamic>
        <mass>1</mass>
		   	</technique_common>
        <extra>
          <technique profile="PhysX">
            <extra>
              <technique profile="PhysX">
                <linearDamping>0</linearDamping>
                <angularDamping>0</angularDamping>
                <solverIterationCount>32</solverIterationCount>
              </technique>
            </extra>
            <disable_collision>false</disable_collision>
          </technique>
        </extra>
  	  </rigid_body>
    </physics_model>
  </library_physics_models>
  <library_physics_scenes>
    <physics_scene id="Scene0-Physics">
      <instance_physics_model url="#Scene0-PhysicsModel">
        <instance_rigid_body target="#/tmp/buildd/ros-hydro-pr2-description-1.11.4-0precise-20150329-0527/meshes/tilting_laser_v0/convex/hok_tilt-Node" body="/tmp/buildd/ros-hydro-pr2-description-1.11.4-0precise-20150329-0527/meshes/tilting_laser_v0/convex/hok_tilt-RigidBody"/>
      <extra>
        <technique profile="PhysX">
        </technique>
      </extra>
      </instance_physics_model>
      <technique_common>
        <gravity>0 -9.800000191 0</gravity>
      </technique_common>
    </physics_scene>
  </library_physics_scenes>
  <scene>
    <instance_visual_scene url="#Scene0-Visual"/>
    <instance_physics_scene url="#Scene0-Physics"/>
  </scene>
</COLLADA>
