# /tmp/buildd/ros-hydro-pr2-description-1.11.4-0precise-20150329-0527/meshes/tilting_laser_v0/convex/tilting_hokuyo_L.obj created by IVCON.
# Original data in /tmp/buildd/ros-hydro-pr2-description-1.11.4-0precise-20150329-0527/meshes/tilting_laser_v0//tilting_hokuyo_L.stl.

g IVCON

v -0.026883 0.000000 0.010039
v 0.019009 0.019009 0.010039
v -0.019009 -0.019009 0.010039
v -0.000000 -0.026883 0.010039
v 0.019009 -0.019009 0.010039
v -0.000000 0.026883 0.010039
v -0.019009 0.019009 0.010039
v -0.000000 -0.024105 0.039742
v 0.026883 0.000000 0.010039
v 0.024105 0.000000 0.039742
v 0.017045 0.017045 0.039742
v 0.017045 -0.017045 0.039742
v -0.024105 0.000000 0.039742
v -0.017045 0.017045 0.039742
v -0.017045 -0.017045 0.039742
v -0.000000 0.024105 0.039742
v -0.013000 0.081316 0.010600
v -0.001362 0.081316 -0.058179
v -0.055282 0.081316 -0.027048
v 0.036904 0.081316 0.042705
v 0.031859 0.081316 0.055874
v 0.037109 0.081316 0.050394
v -0.001362 -0.081316 -0.058179
v 0.052558 -0.081316 -0.027048
v -0.013000 -0.081316 0.010600
v 0.029769 -0.081316 -0.049838
v 0.029943 0.081316 0.038150
v 0.009010 0.081316 0.065459
v -0.037717 0.081316 0.059291
v -0.037717 -0.081316 0.059291
v -0.013000 0.081316 0.038150
v -0.013000 -0.081316 0.038150
v 0.009010 -0.081316 0.065459
v 0.031859 -0.055524 0.055874
v 0.029943 -0.081316 0.038150
v 0.036904 0.001409 0.042705
v 0.052558 0.081316 -0.027048
v 0.029769 0.081316 -0.049838
v 0.051418 0.081316 0.010600
v 0.057636 -0.081316 0.001590
v 0.057636 0.081316 0.001590
v 0.051418 -0.081316 0.010600
v -0.055282 -0.081316 -0.027048
v 0.037109 -0.081316 0.050394
v 0.031859 0.003151 0.055874
v 0.036904 -0.081316 0.042705
v 0.031859 -0.081316 0.055874
v -0.063468 -0.081316 0.019616
v -0.063468 0.081316 0.019616

vn 0.000000 0.000000 -1.000000
vn 0.000000 0.000000 -1.000000
vn 0.000000 0.000000 -1.000000
vn 0.000000 0.000000 -1.000000
vn 0.000000 0.000000 -1.000000
vn -0.000000 0.000000 -1.000000
vn 0.000000 -0.000000 -1.000000
vn 0.000000 0.000000 -1.000000
vn 0.000000 0.000000 -1.000000
vn 0.381262 -0.920449 0.086100
vn 0.381262 -0.920449 0.086100
vn 0.381262 -0.920449 0.086100
vn 0.920449 -0.381262 0.086100
vn 0.920449 -0.381262 0.086100
vn 0.920449 -0.381262 0.086100
vn 0.000000 0.000000 -1.000000
vn 0.000000 0.000000 -1.000000
vn 0.000000 -0.000000 -1.000000
vn 0.000000 0.000000 1.000000
vn 0.000000 0.000000 1.000000
vn 0.000000 0.000000 1.000000
vn 0.000000 0.000000 1.000000
vn 0.000000 0.000000 1.000000
vn -0.000000 0.000000 1.000000
vn 0.000000 -0.000000 1.000000
vn 0.000000 0.000000 1.000000
vn -0.000000 0.000000 1.000000
vn -0.920449 -0.381262 0.086100
vn -0.920449 -0.381262 0.086100
vn -0.920449 -0.381262 0.086100
vn -0.381262 0.920449 0.086100
vn -0.381262 0.920449 0.086100
vn -0.381262 0.920449 0.086100
vn 0.000000 0.000000 1.000000
vn 0.000000 0.000000 1.000000
vn 0.000000 -0.000000 1.000000
vn 0.000000 -0.000000 1.000000
vn 0.000000 0.000000 1.000000
vn -0.000000 0.000000 1.000000
vn -0.381262 0.920449 0.086100
vn -0.381262 0.920449 0.086100
vn -0.381262 0.920449 0.086100
vn 0.000000 -0.000000 -1.000000
vn -0.000000 0.000000 -1.000000
vn 0.000000 0.000000 -1.000000
vn 0.000000 0.000000 1.000000
vn 0.000000 0.000000 1.000000
vn 0.000000 0.000000 1.000000
vn 0.381262 0.920449 0.086100
vn 0.381262 0.920449 0.086100
vn 0.381262 0.920449 0.086100
vn -0.381262 -0.920449 0.086100
vn -0.381262 -0.920449 0.086100
vn -0.381262 -0.920449 0.086100
vn 0.381262 0.920449 0.086100
vn 0.381262 0.920449 0.086100
vn 0.381262 0.920449 0.086100
vn 0.381262 -0.920449 0.086100
vn 0.381262 -0.920449 0.086100
vn 0.381262 -0.920449 0.086100
vn -0.000000 0.000000 -1.000000
vn 0.000000 0.000000 -1.000000
vn 0.000000 0.000000 -1.000000
vn 0.920449 0.381262 0.086100
vn 0.920449 0.381262 0.086100
vn 0.920449 0.381262 0.086100
vn -0.920449 0.381262 0.086100
vn -0.920449 0.381262 0.086100
vn -0.920449 0.381262 0.086100
vn 0.920449 -0.381262 0.086100
vn 0.920449 -0.381262 0.086100
vn 0.920449 -0.381262 0.086100
vn -0.920449 -0.381262 0.086100
vn -0.920449 -0.381262 0.086100
vn -0.920449 -0.381262 0.086100
vn -0.920449 0.381262 0.086100
vn -0.920449 0.381262 0.086100
vn -0.920449 0.381262 0.086100
vn -0.381262 -0.920449 0.086100
vn -0.381262 -0.920449 0.086100
vn -0.381262 -0.920449 0.086100
vn 0.920449 0.381262 0.086100
vn 0.920449 0.381262 0.086100
vn 0.920449 0.381262 0.086100
vn 0.000000 1.000000 0.000000
vn 0.000000 1.000000 0.000000
vn -0.000000 1.000000 0.000000
vn 0.000000 1.000000 -0.000000
vn 0.000000 1.000000 0.000000
vn 0.000000 1.000000 0.000000
vn -0.500000 0.000000 -0.866025
vn -0.500000 -0.000000 -0.866025
vn -0.500000 0.000000 -0.866025
vn -0.000000 -1.000000 0.000000
vn 0.000000 -1.000000 0.000000
vn 0.000000 -1.000000 0.000000
vn 0.000000 1.000000 0.000000
vn 0.000000 1.000000 0.000000
vn 0.000000 1.000000 0.000000
vn -0.130867 0.000000 0.991400
vn -0.130867 0.000000 0.991400
vn -0.130867 0.000000 0.991400
vn 1.000000 0.000000 0.000000
vn 1.000000 -0.000000 0.000000
vn 1.000000 0.000000 0.000000
vn 0.386822 -0.000000 0.922154
vn 0.386822 0.000000 0.922155
vn 0.386822 0.000000 0.922154
vn 0.547559 0.000000 -0.836767
vn 0.547559 0.000000 -0.836767
vn 0.547559 0.000000 -0.836767
vn 0.707107 0.000000 -0.707107
vn 0.707107 0.000000 -0.707107
vn 0.707107 0.000000 -0.707107
vn 0.823037 0.000000 0.567987
vn 0.823037 -0.000000 0.567987
vn 0.823037 0.000000 0.567987
vn 0.258819 0.000000 -0.965926
vn 0.258819 0.000000 -0.965926
vn 0.258819 0.000000 -0.965926
vn 0.823037 0.000000 0.567987
vn 0.823037 -0.000000 0.567987
vn 0.823037 0.000000 0.567987
vn -0.000000 0.000000 1.000000
vn 0.000000 0.000000 1.000000
vn 0.000000 0.000000 1.000000
vn -0.500000 0.000000 -0.866025
vn -0.500000 -0.000000 -0.866025
vn -0.500000 0.000000 -0.866025
vn 0.722113 -0.000000 0.691775
vn 0.722113 0.000000 0.691775
vn 0.722113 0.000000 0.691775
vn 0.386822 0.000000 0.922154
vn 0.386822 0.000000 0.922154
vn 0.386822 -0.000000 0.922154
vn 0.000000 1.000000 0.000000
vn 0.000000 1.000000 -0.000000
vn 0.000000 1.000000 0.000000
vn 0.547559 0.000000 -0.836767
vn 0.547559 0.000000 -0.836767
vn 0.547559 0.000000 -0.836767
vn 0.000000 -1.000000 0.000000
vn 0.000000 -1.000000 0.000000
vn 0.000000 -1.000000 -0.000000
vn 0.547559 0.000000 -0.836767
vn 0.547559 0.000000 -0.836767
vn 0.547559 0.000000 -0.836767
vn 0.000000 -1.000000 0.000000
vn -0.000000 -1.000000 0.000000
vn 0.000000 -1.000000 -0.000000
vn 0.000000 1.000000 -0.000000
vn -0.000000 1.000000 0.000000
vn 0.000000 1.000000 0.000000
vn 0.000000 1.000000 0.000000
vn 0.000000 1.000000 0.000000
vn 0.000000 1.000000 0.000000
vn 0.984646 0.000000 -0.174563
vn 0.984646 0.000000 -0.174563
vn 0.984646 0.000000 -0.174563
vn 0.984646 0.000000 -0.174563
vn 0.984646 0.000000 -0.174563
vn 0.984646 0.000000 -0.174563
vn 0.000000 -1.000000 0.000000
vn 0.000000 -1.000000 0.000000
vn -0.000000 -1.000000 0.000000
vn 0.000000 1.000000 0.000000
vn 0.000000 1.000000 0.000000
vn 0.000000 1.000000 -0.000000
vn -0.838806 0.000000 0.544431
vn -0.838806 0.000000 0.544431
vn -0.838806 0.000000 0.544431
vn -0.000000 -0.000000 -1.000000
vn 0.000000 0.000000 -1.000000
vn 0.000000 0.000000 -1.000000
vn -0.838806 0.000000 0.544431
vn -0.838806 0.000000 0.544431
vn -0.838806 0.000000 0.544431
vn -0.000000 -1.000000 0.000000
vn 0.000000 -1.000000 -0.000000
vn 0.000000 -1.000000 0.000000
vn 0.000000 -1.000000 0.000000
vn 0.000000 -1.000000 0.000000
vn 0.000000 -1.000000 0.000000
vn 0.000000 1.000000 -0.000000
vn -0.000000 1.000000 0.000000
vn 0.000000 1.000000 0.000000
vn 0.000000 0.000000 -1.000000
vn 0.000000 0.000000 -1.000000
vn 0.000000 0.000000 -1.000000
vn 0.999644 0.000000 -0.026674
vn 0.999644 0.000000 -0.026674
vn 0.999644 0.000000 -0.026674
vn 0.722113 -0.000000 0.691775
vn 0.722113 0.000000 0.691775
vn 0.722113 0.000000 0.691775
vn -0.000000 -1.000000 0.000000
vn 0.000000 -1.000000 0.000000
vn 0.000000 -1.000000 0.000000
vn 0.000000 -1.000000 0.000000
vn 0.000000 -1.000000 0.000000
vn 0.000000 -1.000000 -0.000000
vn 0.000000 1.000000 0.000000
vn 0.000000 1.000000 -0.000000
vn 0.000000 1.000000 0.000000
vn 0.386822 0.000000 0.922154
vn 0.386822 0.000000 0.922154
vn 0.386822 -0.000000 0.922154
vn 0.999644 0.000000 -0.026674
vn 0.999644 0.000000 -0.026674
vn 0.999644 0.000000 -0.026674
vn 0.258819 0.000000 -0.965926
vn 0.258819 0.000000 -0.965926
vn 0.258819 0.000000 -0.965926
vn 0.707107 0.000000 -0.707107
vn 0.707107 0.000000 -0.707107
vn 0.707107 0.000000 -0.707107
vn 0.000000 0.000000 1.000000
vn 0.000000 -0.000000 1.000000
vn 0.000000 0.000000 1.000000
vn -0.984960 0.000000 -0.172784
vn -0.984960 -0.000000 -0.172784
vn -0.984960 0.000000 -0.172784
vn -0.000000 -1.000000 0.000000
vn 0.000000 -1.000000 -0.000000
vn 0.000000 -1.000000 0.000000
vn 0.000000 -1.000000 0.000000
vn -0.000000 -1.000000 0.000000
vn 0.000000 -1.000000 0.000000
vn 0.000000 1.000000 0.000000
vn 0.000000 1.000000 0.000000
vn 0.000000 1.000000 0.000000
vn 0.000000 -1.000000 0.000000
vn 0.000000 -1.000000 0.000000
vn 0.000000 -1.000000 0.000000
vn 0.000000 -1.000000 0.000000
vn 0.000000 -1.000000 0.000000
vn -0.000000 -1.000000 0.000000
vn 0.000000 1.000000 0.000000
vn 0.000000 1.000000 -0.000000
vn -0.000000 1.000000 0.000000
vn 1.000000 0.000000 0.000000
vn 1.000000 0.000000 0.000000
vn 1.000000 0.000000 -0.000000
vn -0.000000 -1.000000 -0.000000
vn 0.000000 -1.000000 0.000000
vn 0.000000 -1.000000 0.000000
vn 0.999644 0.000000 -0.026674
vn 0.999644 0.000000 -0.026674
vn 0.999644 0.000000 -0.026674
vn 0.722113 0.000000 0.691775
vn 0.722113 -0.000000 0.691775
vn 0.722113 0.000000 0.691775
vn 0.386822 0.000000 0.922154
vn 0.386822 0.000000 0.922154
vn 0.386822 -0.000000 0.922154
vn 0.000000 1.000000 -0.000000
vn 0.000000 1.000000 0.000000
vn 0.000000 1.000000 0.000000
vn 0.000000 1.000000 0.000000
vn 0.000000 1.000000 0.000000
vn 0.000000 1.000000 0.000000
vn -0.130867 0.000000 0.991400
vn -0.130867 0.000000 0.991400
vn -0.130867 0.000000 0.991400
vn 0.722113 0.000000 0.691775
vn 0.722113 0.000000 0.691775
vn 0.722113 -0.000000 0.691775
vn -0.984960 0.000000 -0.172784
vn -0.984960 -0.000000 -0.172784
vn -0.984960 0.000000 -0.172784

f 1//1 2//2 3//3
f 4//4 3//5 5//6
f 6//7 2//8 7//9
f 4//10 5//11 8//12
f 5//13 9//14 10//15
f 5//16 3//17 2//18
f 10//19 11//20 12//21
f 13//22 11//23 14//24
f 8//25 11//26 15//27
f 1//28 3//29 13//30
f 6//31 7//32 16//33
f 11//34 8//35 12//36
f 15//37 11//38 13//39
f 7//40 14//41 16//42
f 7//43 2//44 1//45
f 11//46 16//47 14//48
f 2//49 6//50 16//51
f 3//52 4//53 8//54
f 11//55 2//56 16//57
f 8//58 5//59 12//60
f 9//61 5//62 2//63
f 11//64 10//65 2//66
f 13//67 14//68 7//69
f 12//70 5//71 10//72
f 3//73 15//74 13//75
f 13//76 7//77 1//78
f 8//79 15//80 3//81
f 9//82 2//83 10//84
f 17//85 18//86 19//87
f 20//88 21//89 22//90
f 19//91 18//92 23//93
f 24//94 25//95 26//96
f 27//97 21//98 20//99
f 28//100 29//101 30//102
f 31//103 32//104 25//105
f 33//106 34//107 28//108
f 35//109 27//110 36//111
f 37//112 24//113 38//114
f 39//115 40//116 41//117
f 23//118 18//119 38//120
f 39//121 42//122 40//123
f 17//124 25//125 39//126
f 43//127 19//128 23//129
f 44//130 22//131 45//132
f 21//133 28//134 45//135
f 41//136 37//137 39//138
f 36//139 46//140 35//141
f 43//142 26//143 25//144
f 20//145 36//146 27//147
f 35//148 44//149 47//150
f 38//151 17//152 39//153
f 27//154 31//155 28//156
f 40//157 24//158 37//159
f 41//160 40//161 37//162
f 44//163 35//164 46//165
f 28//166 21//167 27//168
f 48//169 30//170 29//171
f 27//172 35//173 31//174
f 29//175 49//176 48//177
f 47//178 33//179 32//180
f 30//181 32//182 33//183
f 31//184 29//185 28//186
f 35//187 32//188 31//189
f 20//190 22//191 36//192
f 47//193 44//194 34//195
f 25//196 48//197 43//198
f 48//199 25//200 32//201
f 38//202 18//203 17//204
f 34//205 33//206 47//207
f 44//208 36//209 22//210
f 23//211 38//212 26//213
f 26//214 38//215 24//216
f 25//217 42//218 39//219
f 48//220 19//221 43//222
f 32//223 30//224 48//225
f 23//226 26//227 43//228
f 38//229 39//230 37//231
f 32//232 35//233 47//234
f 25//235 24//236 40//237
f 29//238 19//239 49//240
f 31//241 25//242 17//243
f 42//244 25//245 40//246
f 46//247 36//248 44//249
f 21//250 45//251 22//252
f 45//253 28//254 34//255
f 17//256 19//257 31//258
f 19//259 29//260 31//261
f 28//262 30//263 33//264
f 44//265 45//266 34//267
f 48//268 49//269 19//270

