# /tmp/buildd/ros-hydro-pr2-description-1.11.4-0precise-20150329-0527/meshes/gripper_v0/convex/finger_tip_pad2_r.obj created by IVCON.
# Original data in /tmp/buildd/ros-hydro-pr2-description-1.11.4-0precise-20150329-0527/meshes/gripper_v0//finger_tip_pad2_r.stl.

g IVCON

v -0.001250 0.014945 0.008500
v 0.022750 0.014945 0.008500
v -0.001250 0.014945 -0.008500
v -0.001250 0.014239 0.010434
v 0.022750 0.014945 -0.008500
v 0.026603 0.014945 0.006925
v 0.028471 0.011945 0.009286
v 0.022750 0.014239 0.010434
v -0.001576 0.014945 0.008379
v -0.001629 0.014945 -0.008326
v -0.001750 0.014945 0.008000
v -0.001750 0.014945 -0.008000
v -0.003787 0.011945 0.010411
v -0.001250 0.011945 0.011500
v -0.003684 0.014239 -0.008000
v -0.003684 0.014239 0.008000
v -0.003661 0.011945 -0.010537
v -0.004750 0.011945 -0.008000
v 0.022750 0.013880 -0.010793
v -0.001250 0.013880 -0.010793
v 0.024581 0.014945 -0.008180
v 0.026675 0.014945 -0.006853
v 0.026186 0.011945 -0.010774
v 0.022750 0.011945 -0.011500
v 0.028250 0.014945 0.003000
v 0.028250 0.014945 -0.003000
v 0.029036 0.011945 -0.008721
v 0.027930 0.014945 0.004831
v 0.030543 0.013880 0.003000
v 0.030543 0.013880 -0.003000
v 0.030524 0.011945 0.006436
v 0.031250 0.011945 0.003000
v 0.022750 0.011945 0.011500
v 0.031250 0.011945 -0.003000
v -0.001250 0.011945 -0.011500
v -0.004750 0.011945 0.008000
v -0.004750 0.011909 -0.000062
v -0.003049 0.011945 0.009736
v -0.001250 0.013253 0.010013
v -0.001250 0.011945 0.010500
v 0.022750 0.011945 0.010500
v -0.003750 0.011945 0.008000
v -0.001629 0.013945 0.008326
v -0.001250 0.013945 0.008500
v -0.003750 0.011945 -0.008000
v -0.003057 0.013459 -0.008000
v -0.003057 0.013459 0.008000
v 0.024581 0.013945 0.008180
v 0.028000 0.011945 0.008356
v 0.022750 0.013253 0.010013
v 0.029763 0.013253 0.003000
v 0.030250 0.011945 0.003000
v 0.029789 0.011945 0.005588
v 0.030250 0.011945 -0.003000
v 0.026675 0.013945 0.006853
v 0.028250 0.013945 0.003000
v 0.028106 0.011945 -0.008250
v 0.027930 0.013945 -0.004831
v 0.029763 0.013253 -0.003000
v 0.022750 0.011945 -0.010500
v 0.025338 0.011945 -0.010039
v 0.022750 0.013459 -0.009807
v -0.001250 0.011945 -0.010500
v 0.026603 0.013945 -0.006925
v 0.022750 0.013945 -0.008500
v -0.002986 0.011945 -0.009799
v -0.001576 0.013945 -0.008379
v -0.001250 0.013459 -0.009807
v -0.001750 0.013945 -0.008000
v 0.022750 0.013945 0.008500
v -0.001250 0.013945 -0.008500
v 0.028250 0.013945 -0.003000
v -0.001750 0.013945 0.008000

vn -0.000000 1.000000 0.000000
vn 0.000000 1.000000 0.000000
vn 0.000000 1.000000 0.000000
vn 0.000000 0.939253 0.343227
vn 0.000000 0.939253 0.343227
vn -0.000000 0.939253 0.343227
vn 0.000000 1.000000 0.000000
vn 0.000000 1.000000 0.000000
vn 0.000000 1.000000 -0.000000
vn 0.000000 1.000000 0.000000
vn 0.000000 1.000000 0.000000
vn 0.000000 1.000000 0.000000
vn 0.272457 0.694188 0.666236
vn 0.272457 0.694188 0.666236
vn 0.272457 0.694188 0.666236
vn 0.000000 0.939253 0.343227
vn 0.000000 0.939253 0.343227
vn -0.000000 0.939253 0.343227
vn 0.406815 0.858017 0.313541
vn 0.406815 0.858017 0.313541
vn 0.406815 0.858017 0.313541
vn -0.000000 1.000000 0.000000
vn 0.000000 1.000000 0.000000
vn 0.000000 1.000000 0.000000
vn -0.126455 0.931713 0.340472
vn -0.126455 0.931713 0.340472
vn -0.126455 0.931713 0.340472
vn -0.000000 1.000000 0.000000
vn 0.000000 1.000000 0.000000
vn 0.000000 1.000000 -0.000000
vn -0.000000 1.000000 0.000000
vn 0.000000 1.000000 0.000000
vn 0.000000 1.000000 0.000000
vn -0.658359 0.689567 0.301762
vn -0.658359 0.689567 0.301762
vn -0.658359 0.689567 0.301762
vn -0.000000 1.000000 0.000000
vn 0.000000 1.000000 0.000000
vn 0.000000 1.000000 -0.000000
vn -0.978967 0.085986 0.185017
vn -0.978967 0.085986 0.185017
vn -0.978967 0.085986 0.185017
vn -0.291255 0.674313 0.678581
vn -0.291255 0.674313 0.678581
vn -0.291255 0.674313 0.678581
vn -0.343227 0.939253 0.000000
vn -0.343227 0.939253 0.000000
vn -0.343227 0.939253 0.000000
vn -0.343227 0.939253 0.000000
vn -0.343227 0.939253 0.000000
vn -0.343227 0.939253 0.000000
vn -0.257832 0.705567 0.660075
vn -0.257832 0.705567 0.660075
vn -0.257832 0.705567 0.660075
vn -0.340471 0.931713 -0.126455
vn -0.340471 0.931713 -0.126455
vn -0.340471 0.931713 -0.126455
vn -0.301762 0.689567 -0.658359
vn -0.301762 0.689567 -0.658359
vn -0.301762 0.689567 -0.658359
vn -0.185016 0.085985 -0.978967
vn -0.185016 0.085985 -0.978967
vn -0.185016 0.085985 -0.978967
vn -0.678581 0.674313 -0.291255
vn -0.678581 0.674313 -0.291255
vn -0.678581 0.674313 -0.291255
vn 0.000000 0.906850 -0.421454
vn 0.000000 0.906850 -0.421454
vn 0.000000 0.906850 -0.421454
vn 0.000000 0.906850 -0.421454
vn 0.000000 0.906850 -0.421454
vn 0.000000 0.906850 -0.421454
vn -0.611226 0.717731 -0.333562
vn -0.611226 0.717731 -0.333562
vn -0.611226 0.717731 -0.333562
vn 0.000000 1.000000 0.000000
vn 0.000000 1.000000 0.000000
vn 0.000000 1.000000 -0.000000
vn 0.073443 0.904401 -0.420316
vn 0.073443 0.904401 -0.420316
vn 0.073443 0.904401 -0.420316
vn 0.000000 1.000000 0.000000
vn 0.000000 1.000000 0.000000
vn 0.000000 1.000000 0.000000
vn 0.375505 0.713000 -0.592138
vn 0.375505 0.713000 -0.592138
vn 0.375505 0.713000 -0.592138
vn 0.751935 0.226268 -0.619190
vn 0.751935 0.226268 -0.619190
vn 0.751935 0.226268 -0.619190
vn 0.149284 0.691281 -0.706997
vn 0.149284 0.691281 -0.706997
vn 0.149284 0.691281 -0.706997
vn 0.000000 1.000000 0.000000
vn 0.000000 1.000000 0.000000
vn 0.000000 1.000000 -0.000000
vn 0.666236 0.694188 -0.272457
vn 0.666236 0.694188 -0.272457
vn 0.666236 0.694188 -0.272457
vn 0.000000 1.000000 0.000000
vn 0.000000 1.000000 0.000000
vn 0.000000 1.000000 0.000000
vn 0.000000 1.000000 0.000000
vn 0.000000 1.000000 0.000000
vn 0.000000 1.000000 -0.000000
vn 0.420486 0.694627 -0.583682
vn 0.420486 0.694627 -0.583682
vn 0.420486 0.694627 -0.583682
vn 0.421454 0.906850 0.000000
vn 0.421454 0.906850 0.000000
vn 0.421454 0.906850 -0.000000
vn 0.421454 0.906850 0.000000
vn 0.421454 0.906850 0.000000
vn 0.421454 0.906850 -0.000000
vn 0.388906 0.836816 -0.385345
vn 0.388906 0.836816 -0.385345
vn 0.388906 0.836816 -0.385345
vn 0.420316 0.904401 0.073443
vn 0.420316 0.904401 0.073443
vn 0.420316 0.904401 0.073443
vn 0.592138 0.713000 0.375505
vn 0.592138 0.713000 0.375505
vn 0.592138 0.713000 0.375505
vn 0.619190 0.226268 0.751935
vn 0.619190 0.226268 0.751935
vn 0.619190 0.226268 0.751935
vn 0.706997 0.691281 0.149284
vn 0.706997 0.691281 0.149284
vn 0.706997 0.691281 0.149284
vn 0.583682 0.694627 0.420486
vn 0.583682 0.694627 0.420486
vn 0.583682 0.694627 0.420486
vn 0.000000 0.421454 0.906850
vn 0.000000 0.421454 0.906850
vn -0.000000 0.421454 0.906850
vn 0.000000 0.421454 0.906850
vn 0.000000 0.421454 0.906850
vn -0.000000 0.421454 0.906850
vn 0.331112 0.397680 0.855696
vn 0.331112 0.397680 0.855696
vn 0.331112 0.397680 0.855696
vn 0.939253 0.343227 0.000000
vn 0.939253 0.343227 0.000000
vn 0.939253 0.343227 -0.000000
vn 0.939253 0.343227 0.000000
vn 0.939253 0.343227 0.000000
vn 0.939253 0.343227 -0.000000
vn 0.882758 0.322582 -0.341584
vn 0.882758 0.322582 -0.341584
vn 0.882758 0.322582 -0.341584
vn 0.000000 0.343227 -0.939253
vn 0.000000 0.343227 -0.939253
vn 0.000000 0.343227 -0.939253
vn 0.000000 0.343227 -0.939253
vn 0.000000 0.343227 -0.939253
vn 0.000000 0.343227 -0.939253
vn -0.351215 0.321361 -0.879417
vn -0.351215 0.321361 -0.879417
vn -0.351215 0.321361 -0.879417
vn -0.906850 0.421454 0.000000
vn -0.906850 0.421454 0.000000
vn -0.906850 0.421454 0.000000
vn -0.906850 0.421454 0.000000
vn -0.906850 0.421454 0.000000
vn -0.906850 0.421454 0.000000
vn -1.000000 0.000000 0.000000
vn -1.000000 0.000000 -0.000000
vn -1.000000 0.000000 0.000000
vn -0.852652 0.396266 0.340526
vn -0.852652 0.396266 0.340526
vn -0.852652 0.396266 0.340526
vn 0.369788 -0.324032 -0.870781
vn 0.369788 -0.324032 -0.870781
vn 0.369788 -0.324032 -0.870781
vn 0.000000 -0.348753 -0.937215
vn -0.000000 -0.348753 -0.937215
vn 0.000000 -0.348753 -0.937215
vn 0.681593 -0.677986 -0.275256
vn 0.681593 -0.677986 -0.275256
vn 0.681593 -0.677986 -0.275256
vn 0.304113 -0.683594 -0.663487
vn 0.304113 -0.683594 -0.663487
vn 0.304113 -0.683594 -0.663487
vn 0.586995 -0.736174 -0.336875
vn 0.586995 -0.736174 -0.336875
vn 0.586995 -0.736174 -0.336875
vn 0.909316 -0.416105 0.000000
vn 0.909316 -0.416105 0.000000
vn 0.909316 -0.416105 0.000000
vn 0.259387 -0.118696 -0.958452
vn 0.259387 -0.118696 -0.958452
vn 0.259387 -0.118696 -0.958452
vn 0.909316 -0.416105 0.000000
vn 0.909316 -0.416105 0.000000
vn 0.909316 -0.416105 0.000000
vn -0.305674 -0.588429 -0.748541
vn -0.305674 -0.588429 -0.748541
vn -0.305674 -0.588429 -0.748541
vn -0.627774 -0.271468 -0.729524
vn -0.627774 -0.271468 -0.729524
vn -0.627774 -0.271468 -0.729524
vn 0.000000 -0.348753 -0.937215
vn -0.000000 -0.348753 -0.937215
vn 0.000000 -0.348753 -0.937215
vn -0.924438 -0.343998 -0.164562
vn -0.924438 -0.343998 -0.164562
vn -0.924438 -0.343998 -0.164562
vn -0.937215 -0.348752 0.000000
vn -0.937215 -0.348752 -0.000000
vn -0.937215 -0.348752 0.000000
vn -0.604405 -0.694288 -0.390716
vn -0.604405 -0.694288 -0.390716
vn -0.604405 -0.694288 -0.390716
vn -0.591907 -0.768800 -0.242060
vn -0.591907 -0.768800 -0.242060
vn -0.591907 -0.768800 -0.242060
vn -0.378715 -0.827608 -0.414295
vn -0.378715 -0.827608 -0.414295
vn -0.378715 -0.827608 -0.414295
vn -0.380620 -0.703481 -0.600203
vn -0.380620 -0.703481 -0.600203
vn -0.380620 -0.703481 -0.600203
vn -0.748541 -0.588430 0.305674
vn -0.748541 -0.588430 0.305674
vn -0.748541 -0.588430 0.305674
vn -0.729523 -0.271467 0.627775
vn -0.729523 -0.271467 0.627775
vn -0.729523 -0.271467 0.627775
vn -0.937215 -0.348752 0.000000
vn -0.937215 -0.348752 0.000000
vn -0.937215 -0.348752 -0.000000
vn -0.159791 -0.410759 0.897633
vn -0.159791 -0.410759 0.897633
vn -0.159791 -0.410759 0.897633
vn 0.000000 -0.416105 0.909317
vn 0.000000 -0.416105 0.909317
vn 0.000000 -0.416105 0.909317
vn -0.390716 -0.694288 0.604405
vn -0.390716 -0.694288 0.604405
vn -0.390716 -0.694288 0.604405
vn -0.242060 -0.768800 0.591907
vn -0.242060 -0.768800 0.591907
vn -0.242060 -0.768800 0.591907
vn -0.459122 -0.832596 0.309823
vn -0.459122 -0.832596 0.309823
vn -0.459122 -0.832596 0.309823
vn -0.600203 -0.703481 0.380620
vn -0.600203 -0.703481 0.380620
vn -0.600203 -0.703481 0.380620
vn 0.275256 -0.677986 0.681593
vn 0.275256 -0.677986 0.681593
vn 0.275256 -0.677986 0.681593
vn 0.958452 -0.118696 0.259387
vn 0.958452 -0.118696 0.259387
vn 0.958452 -0.118696 0.259387
vn 0.000000 -0.416105 0.909317
vn 0.000000 -0.416105 0.909317
vn 0.000000 -0.416105 0.909317
vn 0.848269 -0.388170 0.360228
vn 0.848269 -0.388170 0.360228
vn 0.848269 -0.388170 0.360228
vn 0.663487 -0.683594 0.304112
vn 0.663487 -0.683594 0.304112
vn 0.663487 -0.683594 0.304112
vn 0.272018 -0.731003 0.625811
vn 0.272018 -0.731003 0.625811
vn 0.272018 -0.731003 0.625811
vn 0.000000 -1.000000 0.000000
vn -0.000000 -1.000000 -0.000000
vn 0.000000 -1.000000 0.000000
vn 0.000000 -0.909316 -0.416105
vn -0.000000 -0.909316 -0.416105
vn 0.000000 -0.909316 -0.416105
vn 0.000000 -1.000000 0.000000
vn 0.000000 -1.000000 0.000000
vn 0.000000 -1.000000 0.000000
vn 0.000000 -1.000000 0.000000
vn 0.000000 -1.000000 -0.000000
vn 0.000000 -1.000000 0.000000
vn 0.000000 -0.909316 -0.416105
vn -0.000000 -0.909316 -0.416105
vn 0.000000 -0.909316 -0.416105
vn 0.000000 -1.000000 0.000000
vn 0.000000 -1.000000 0.000000
vn -0.000000 -1.000000 -0.000000
vn -0.072516 -0.906922 -0.415010
vn -0.072516 -0.906922 -0.415010
vn -0.072516 -0.906922 -0.415010
vn 0.000000 -1.000000 0.000000
vn -0.000000 -1.000000 0.000000
vn 0.000000 -1.000000 0.000000
vn 0.000000 -1.000000 0.000000
vn -0.000000 -1.000000 0.000000
vn 0.000000 -1.000000 0.000000
vn 0.000000 -1.000000 0.000000
vn -0.000000 -1.000000 -0.000000
vn 0.000000 -1.000000 0.000000
vn 0.000000 -1.000000 0.000000
vn -0.000000 -1.000000 0.000000
vn 0.000000 -1.000000 0.000000
vn 0.000000 -1.000000 0.000000
vn -0.000000 -1.000000 0.000000
vn 0.000000 -1.000000 -0.000000
vn -0.416105 -0.909317 0.000000
vn -0.416105 -0.909317 0.000000
vn -0.416105 -0.909317 -0.000000
vn -0.416105 -0.909317 0.000000
vn -0.416105 -0.909317 -0.000000
vn -0.416105 -0.909317 0.000000
vn -0.415009 -0.906923 0.072516
vn -0.415009 -0.906923 0.072516
vn -0.415009 -0.906923 0.072516
vn 0.000000 -0.937215 0.348753
vn 0.000000 -0.937215 0.348753
vn 0.000000 -0.937215 0.348753
vn 0.000000 -0.937215 0.348753
vn 0.000000 -0.937215 0.348753
vn 0.000000 -0.937215 0.348753
vn 0.000000 -1.000000 0.000000
vn 0.000000 -1.000000 0.000000
vn 0.000000 -1.000000 0.000000
vn 0.128458 -0.929450 0.345864
vn 0.128458 -0.929450 0.345864
vn 0.128458 -0.929450 0.345864
vn 0.000000 -1.000000 0.000000
vn 0.000000 -1.000000 0.000000
vn 0.000000 -1.000000 0.000000
vn 0.000000 -1.000000 0.000000
vn 0.000000 -1.000000 0.000000
vn 0.000000 -1.000000 -0.000000
vn 0.348753 -0.937215 0.000000
vn 0.348753 -0.937215 0.000000
vn 0.348753 -0.937215 0.000000
vn 0.348753 -0.937215 0.000000
vn 0.348753 -0.937215 0.000000
vn 0.348753 -0.937215 0.000000
vn 0.345864 -0.929450 -0.128458
vn 0.345864 -0.929450 -0.128458
vn 0.345864 -0.929450 -0.128458
vn -0.000000 1.000000 0.000000
vn 0.000000 1.000000 0.000000
vn 0.000000 1.000000 0.000000
vn 0.000000 1.000000 0.000000
vn 0.000000 1.000000 0.000000
vn 0.000000 1.000000 0.000000
vn -0.000000 1.000000 0.000000
vn 0.000000 1.000000 0.000000
vn 0.000000 1.000000 0.000000
vn 0.000000 1.000000 0.000000
vn 0.000000 1.000000 0.000000
vn 0.000000 1.000000 0.000000
vn -0.000000 1.000000 0.000000
vn 0.000000 1.000000 0.000000
vn 0.000000 1.000000 0.000000
vn 0.000000 1.000000 0.000000
vn 0.000000 1.000000 -0.000000
vn 0.000000 1.000000 0.000000
vn 0.000000 1.000000 0.000000
vn 0.000000 1.000000 0.000000
vn 0.000000 1.000000 -0.000000
vn 0.000000 1.000000 -0.000000
vn -0.000000 1.000000 0.000000
vn 0.000000 1.000000 0.000000
vn 0.000000 1.000000 0.000000
vn 0.000000 1.000000 0.000000
vn 0.000000 1.000000 -0.000000
vn 0.000000 1.000000 -0.000000
vn -0.000000 1.000000 0.000000
vn 0.000000 1.000000 0.000000
vn 0.000000 1.000000 0.000000
vn 0.000000 1.000000 0.000000
vn 0.000000 1.000000 0.000000
vn 0.000000 1.000000 0.000000
vn 0.000000 1.000000 0.000000
vn 0.000000 1.000000 -0.000000
vn 0.000000 -1.000000 0.000000
vn 0.000000 -1.000000 0.000000
vn 0.000000 -1.000000 0.000000
vn -0.000000 -1.000000 0.000000
vn 0.000000 -1.000000 0.000000
vn 0.000000 -1.000000 0.000000
vn 0.000000 -1.000000 0.000000
vn 0.000000 -1.000000 0.000000
vn 0.000000 -1.000000 0.000000
vn -0.000000 -1.000000 0.000000
vn 0.000000 -1.000000 0.000000
vn 0.000000 -1.000000 0.000000
vn 0.000000 -1.000000 0.000000
vn 0.000000 -1.000000 0.000000
vn 0.000000 -1.000000 0.000000
vn -0.000000 -1.000000 0.000000
vn 0.000000 -1.000000 -0.000000
vn 0.000000 -1.000000 0.000000
vn 0.000981 -1.000000 0.000207
vn 0.000981 -1.000000 0.000207
vn 0.000981 -1.000000 0.000207
vn 0.001384 -0.999989 -0.004531
vn 0.001384 -0.999989 -0.004531
vn 0.001384 -0.999989 -0.004531
vn 0.000000 -1.000000 0.000000
vn 0.000000 -1.000000 -0.000000
vn 0.000000 -1.000000 0.000000
vn 0.000198 -0.999990 0.004461
vn 0.000198 -0.999990 0.004461
vn 0.000198 -0.999990 0.004461
vn 0.000000 -1.000000 0.000000
vn 0.000000 -1.000000 -0.000000
vn 0.000000 -1.000000 0.000000
vn -0.000000 -1.000000 0.000000
vn 0.000000 -1.000000 -0.000000
vn 0.000000 -1.000000 0.000000
vn -0.000000 -1.000000 0.000000
vn 0.000000 -1.000000 -0.000000
vn 0.000000 -1.000000 0.000000

f 1//1 2//2 3//3
f 4//4 2//5 1//6
f 3//7 2//8 5//9
f 2//10 6//11 5//12
f 2//13 7//14 6//15
f 8//16 2//17 4//18
f 8//19 7//20 2//21
f 9//22 1//23 10//24
f 4//25 1//26 9//27
f 10//28 1//29 3//30
f 11//31 9//32 12//33
f 13//34 9//35 11//36
f 12//37 9//38 10//39
f 14//40 4//41 9//42
f 13//43 14//44 9//45
f 15//46 11//47 12//48
f 16//49 11//50 15//51
f 13//52 11//53 16//54
f 12//55 10//56 15//57
f 10//58 3//59 17//60
f 15//61 10//62 18//63
f 18//64 10//65 17//66
f 3//67 5//68 19//69
f 3//70 19//71 20//72
f 17//73 3//74 20//75
f 5//76 6//77 21//78
f 5//79 21//80 19//81
f 6//82 22//83 21//84
f 21//85 22//86 23//87
f 19//88 21//89 24//90
f 21//91 23//92 24//93
f 22//94 25//95 26//96
f 26//97 27//98 22//99
f 28//100 25//101 22//102
f 6//103 28//104 22//105
f 22//106 27//107 23//108
f 25//109 29//110 26//111
f 26//112 29//113 30//114
f 26//115 30//116 27//117
f 28//118 29//119 25//120
f 6//121 31//122 28//123
f 28//124 32//125 29//126
f 31//127 32//128 28//129
f 7//130 31//131 6//132
f 14//133 8//134 4//135
f 33//136 8//137 14//138
f 33//139 7//140 8//141
f 29//142 32//143 30//144
f 30//145 32//146 34//147
f 30//148 34//149 27//150
f 20//151 19//152 24//153
f 20//154 24//155 35//156
f 17//157 20//158 35//159
f 18//160 16//161 15//162
f 36//163 16//164 18//165
f 37//166 36//167 18//168
f 13//169 16//170 36//171
f 38//172 39//173 40//174
f 39//175 41//176 40//177
f 42//178 43//179 38//180
f 43//181 44//182 38//183
f 38//184 44//185 39//186
f 45//187 46//188 42//189
f 47//190 43//191 42//192
f 46//193 47//194 42//195
f 48//196 49//197 41//198
f 50//199 48//200 41//201
f 39//202 50//203 41//204
f 51//205 52//206 53//207
f 54//208 52//209 51//210
f 55//211 53//212 49//213
f 56//214 53//215 55//216
f 51//217 53//218 56//219
f 55//220 49//221 48//222
f 57//223 54//224 58//225
f 58//226 54//227 59//228
f 59//229 54//230 51//231
f 60//232 61//233 62//234
f 60//235 62//236 63//237
f 61//238 57//239 64//240
f 61//241 64//242 65//243
f 62//244 61//245 65//246
f 64//247 57//248 58//249
f 66//250 63//251 67//252
f 63//253 68//254 67//255
f 63//256 62//257 68//258
f 45//259 66//260 46//261
f 66//262 67//263 69//264
f 66//265 69//266 46//267
f 65//268 70//269 44//270
f 44//271 70//272 50//273
f 71//274 65//275 44//276
f 71//277 44//278 43//279
f 44//280 50//281 39//282
f 70//283 64//284 48//285
f 70//286 48//287 50//288
f 65//289 64//290 70//291
f 64//292 55//293 48//294
f 72//295 56//296 55//297
f 58//298 72//299 55//300
f 64//301 58//302 55//303
f 72//304 59//305 56//306
f 59//307 51//308 56//309
f 58//310 59//311 72//312
f 68//313 65//314 71//315
f 62//316 65//317 68//318
f 67//319 71//320 43//321
f 68//322 71//323 67//324
f 69//325 67//326 73//327
f 73//328 67//329 43//330
f 69//331 73//332 47//333
f 46//334 69//335 47//336
f 73//337 43//338 47//339
f 42//340 38//341 53//342
f 42//343 53//344 52//345
f 38//346 40//347 49//348
f 38//349 49//350 53//351
f 40//352 41//353 49//354
f 61//355 60//356 63//357
f 63//358 57//359 61//360
f 63//361 66//362 57//363
f 66//364 54//365 57//366
f 66//367 45//368 54//369
f 45//370 42//371 52//372
f 45//373 52//374 54//375
f 35//376 24//377 23//378
f 23//379 27//380 35//381
f 27//382 17//383 35//384
f 27//385 34//386 17//387
f 34//388 18//389 17//390
f 34//391 32//392 18//393
f 32//394 31//395 37//396
f 32//397 37//398 18//399
f 31//400 7//401 36//402
f 31//403 36//404 37//405
f 7//406 33//407 13//408
f 7//409 13//410 36//411
f 33//412 14//413 13//414

