<?xml version="1.0" encoding="utf-8"?>
<COLLADA version="1.4.0" xmlns="http://www.collada.org/2005/11/COLLADASchema">
	<asset>
		<contributor>
			<author>NxuStream2 converter - http://www.ageia.com</author>
			<authoring_tool>PhysX Rocket, PhysX Viewer, or CreateDynamics</authoring_tool>
			<comments>questions to: jratcliff@ageia.com</comments>
			<copyright></copyright>
			<source_data>chair_gothic_tilted</source_data>
		</contributor>
		<unit meter="1" name="meter"/>
		<up_axis>Y_UP</up_axis>
	</asset>
   <library_materials>
      <material id="Material" name="Material">
         <instance_effect url="#Material-fx"></instance_effect>
      </material>
   </library_materials>
   <library_effects>
      <effect id="Material-fx" name="Material">
         <profile_COMMON>
            <technique id="Material-fx-COMMON" sid="COMMON">
               <phong>
                  <ambient>
                     <color>0.803922 0.588235 0.92549 1</color>
                  </ambient>
                  <diffuse>
                     <color>0.803922 0.588235 0.92549 1</color>
                  </diffuse>
                  <specular>
                     <color>0.631373 0.631373 0.631373 1</color>
                  </specular>
                  <shininess>
                     <float>1</float>
                  </shininess>
                  <reflective>
                     <color>0 0 0 1</color>
                  </reflective>
                  <transparent>
                     <color>1 1 1 1</color>
                  </transparent>
                  <transparency>
                     <float>0</float>
                  </transparency>
               </phong>
           </technique>
         </profile_COMMON>
      </effect>
   </library_effects>
  <library_geometries>
    <geometry id="/tmp/buildd/ros-hydro-pr2-description-1.11.4-0precise-20150329-0527/meshes/gripper_v0/convex/l_finger_0-Mesh" name="/tmp/buildd/ros-hydro-pr2-description-1.11.4-0precise-20150329-0527/meshes/gripper_v0/convex/l_finger_0-Mesh">
      <convex_mesh>
        <source id="/tmp/buildd/ros-hydro-pr2-description-1.11.4-0precise-20150329-0527/meshes/gripper_v0/convex/l_finger_0-Position">
          <float_array count="36" id="/tmp/buildd/ros-hydro-pr2-description-1.11.4-0precise-20150329-0527/meshes/gripper_v0/convex/l_finger_0-Position-array">
            0.094842002 0.004348 -0.012694  -0.000321 -0.008701 0.027184  -0.008275 -0.003271 -0.027277  0.075985998 0.033755999 0.011061  
            0.013305 0.045605 -0.020346999  0.005655 0.04403 0.021228001  0.044702999 0.018928001 0.027502  0.092947997 0.001416 0.012184  
            0.083155997 0.028278001 -0.012253  -0.008536 0.013827 0.025865  0.045643002 0.018108999 -0.027522  -0.006211 0.023727 -0.025350001  
          </float_array>
          <technique_common>
            <accessor count="12" source="#/tmp/buildd/ros-hydro-pr2-description-1.11.4-0precise-20150329-0527/meshes/gripper_v0/convex/l_finger_0-Position-array" stride="3">
              <param name="X" type="float"/>
              <param name="Y" type="float"/>
              <param name="Z" type="float"/>
            </accessor>
    		   </technique_common>
				 </source>
   		 <vertices id="/tmp/buildd/ros-hydro-pr2-description-1.11.4-0precise-20150329-0527/meshes/gripper_v0/convex/l_finger_0-Vertex">
					<input semantic="POSITION" source="#/tmp/buildd/ros-hydro-pr2-description-1.11.4-0precise-20150329-0527/meshes/gripper_v0/convex/l_finger_0-Position"/>
				</vertices>
				<triangles material="Material" count="20">
					<input offset="0" semantic="VERTEX" source="#/tmp/buildd/ros-hydro-pr2-description-1.11.4-0precise-20150329-0527/meshes/gripper_v0/convex/l_finger_0-Vertex"/>
           <p>
             0 1 2  3 4 5  3 5 6  7 3 6  
             7 6 1  7 1 0  8 3 7  8 7 0  
             8 4 3  9 2 1  9 1 6  9 6 5  
             10 4 8  10 8 0  10 0 2  11 4 10  
             11 10 2  11 2 9  11 9 5  11 5 4  
           </p>
				</triangles>
      </convex_mesh>
		</geometry>
  </library_geometries>
  <library_visual_scenes>
	  <visual_scene id="Scene0-Visual" name="Scene0-Visual">
      <node id="/tmp/buildd/ros-hydro-pr2-description-1.11.4-0precise-20150329-0527/meshes/gripper_v0/convex/l_finger-Node" name="/tmp/buildd/ros-hydro-pr2-description-1.11.4-0precise-20150329-0527/meshes/gripper_v0/convex/l_finger" type="NODE">
        <translate>0 0 0</translate>
        <rotate>1 0 0  0</rotate>
      </node>
  	  </visual_scene>
  </library_visual_scenes>
  <library_physics_materials>
    <physics_material id="pmat0_0-PhysicsMaterial" name="pmat0_0-PhysicsMaterial">
      <technique_common>
        <dynamic_friction>0.5</dynamic_friction>
        <restitution>0</restitution>
        <static_friction>0.5</static_friction>
      </technique_common>
    </physics_material>
  </library_physics_materials>
  <library_physics_models>
    <physics_model id="Scene0-PhysicsModel">
      <rigid_body sid="/tmp/buildd/ros-hydro-pr2-description-1.11.4-0precise-20150329-0527/meshes/gripper_v0/convex/l_finger-RigidBody" name="/tmp/buildd/ros-hydro-pr2-description-1.11.4-0precise-20150329-0527/meshes/gripper_v0/convex/l_finger">
        <technique_common>
          <instance_physics_material url="#pmat0_0-PhysicsMaterial"/>
         <shape>
            <translate>0 0 0</translate>
            <rotate>1 0 0  0</rotate>
            <instance_physics_material url="#pmat0_0-PhysicsMaterial"/>
            <density>1</density>
            <extra>
              <technique profile="PhysX">
               <skinWidth>0</skinWidth>
              </technique>
            </extra>
            <instance_geometry url="/tmp/buildd/ros-hydro-pr2-description-1.11.4-0precise-20150329-0527/meshes/gripper_v0/convex/l_finger_0-Mesh"/>
         </shape>
        <dynamic>true</dynamic>
        <mass>1</mass>
		   	</technique_common>
        <extra>
          <technique profile="PhysX">
            <extra>
              <technique profile="PhysX">
                <linearDamping>0</linearDamping>
                <angularDamping>0</angularDamping>
                <solverIterationCount>32</solverIterationCount>
              </technique>
            </extra>
            <disable_collision>false</disable_collision>
          </technique>
        </extra>
  	  </rigid_body>
    </physics_model>
  </library_physics_models>
  <library_physics_scenes>
    <physics_scene id="Scene0-Physics">
      <instance_physics_model url="#Scene0-PhysicsModel">
        <instance_rigid_body target="#/tmp/buildd/ros-hydro-pr2-description-1.11.4-0precise-20150329-0527/meshes/gripper_v0/convex/l_finger-Node" body="/tmp/buildd/ros-hydro-pr2-description-1.11.4-0precise-20150329-0527/meshes/gripper_v0/convex/l_finger-RigidBody"/>
      <extra>
        <technique profile="PhysX">
        </technique>
      </extra>
      </instance_physics_model>
      <technique_common>
        <gravity>0 -9.800000191 0</gravity>
      </technique_common>
    </physics_scene>
  </library_physics_scenes>
  <scene>
    <instance_visual_scene url="#Scene0-Visual"/>
    <instance_physics_scene url="#Scene0-Physics"/>
  </scene>
</COLLADA>
