# /tmp/buildd/ros-hydro-pr2-description-1.11.4-0precise-20150329-0527/meshes/gripper_v0/convex/upper_finger_r.obj created by IVCON.
# Original data in /tmp/buildd/ros-hydro-pr2-description-1.11.4-0precise-20150329-0527/meshes/gripper_v0//upper_finger_r.stl.

g IVCON

v 0.049131 -0.039327 0.027754
v 0.051376 -0.003584 0.027750
v 0.002186 0.008733 0.027749
v 0.057010 -0.004995 0.022958
v 0.002186 0.008728 -0.027751
v 0.051376 -0.003590 -0.027750
v 0.012997 -0.045626 0.027755
v 0.049131 -0.039333 -0.027746
v 0.066939 -0.036227 -0.012997
v 0.066939 -0.036224 0.013003
v 0.065827 -0.006383 0.015502
v 0.059917 -0.005632 0.020490
v 0.062860 -0.006095 0.018001
v 0.010300 -0.045727 0.027755
v 0.012996 -0.045632 -0.027745
v 0.007677 -0.045103 0.027755
v 0.010300 -0.045732 -0.027745
v 0.005315 -0.043801 0.027754
v 0.007676 -0.045109 -0.027745
v 0.003386 -0.041914 0.027754
v 0.005314 -0.043807 -0.027746
v -0.000330 -0.036560 0.027754
v 0.003386 -0.041920 -0.027746
v -0.003444 -0.030833 0.027753
v -0.000366 0.008995 0.027749
v -0.000331 -0.036565 -0.027746
v -0.002889 0.008527 0.027749
v -0.005918 -0.024802 0.027753
v -0.003445 -0.030838 -0.027747
v -0.005176 0.007365 0.027749
v -0.007724 -0.018540 0.027752
v -0.005919 -0.024808 -0.027747
v -0.007044 0.005605 0.027749
v -0.008839 -0.012117 0.027751
v -0.007724 -0.018546 -0.027748
v -0.008338 0.003390 0.027750
v -0.009251 -0.005612 0.027751
v -0.008839 -0.012123 -0.027749
v -0.008955 0.000899 0.027750
v -0.009251 -0.005617 -0.027749
v -0.008955 0.000894 -0.027750
v -0.008339 0.003384 -0.027750
v -0.007044 0.005599 -0.027751
v -0.005177 0.007359 -0.027751
v -0.002889 0.008521 -0.027751
v -0.000366 0.008990 -0.027751
v 0.057009 -0.005000 -0.022958
v 0.091272 -0.001738 -0.013000
v 0.092874 -0.002052 -0.013000
v 0.089678 -0.002090 -0.013000
v 0.091272 -0.001735 0.013000
v 0.094217 -0.002980 -0.013000
v 0.095078 -0.004367 -0.013000
v 0.084668 -0.004029 -0.013000
v 0.089678 -0.002088 0.013000
v 0.092874 -0.002049 0.013000
v 0.094217 -0.002977 0.013000
v 0.095078 -0.004364 0.013000
v 0.095313 -0.005979 0.013000
v 0.095312 -0.005982 -0.013000
v 0.094883 -0.007556 -0.013000
v 0.094883 -0.007554 0.013000
v 0.079479 -0.005419 -0.013000
v 0.086997 -0.023006 -0.012998
v 0.068807 -0.006495 -0.013000
v 0.074171 -0.006244 -0.013000
v 0.074171 -0.006242 0.013000
v 0.086997 -0.023003 0.013002
v 0.068807 -0.006493 0.013000
v 0.084668 -0.004026 0.013000
v 0.079479 -0.005416 0.013000
v 0.085065 -0.026160 0.013002
v 0.085065 -0.026163 -0.012998
v 0.082671 -0.028985 -0.012998
v 0.082671 -0.028983 0.013002
v 0.079871 -0.031406 -0.012997
v 0.079871 -0.031404 0.013003
v 0.076732 -0.033368 -0.012997
v 0.076732 -0.033365 0.013003
v 0.073329 -0.034823 -0.012997
v 0.073329 -0.034821 0.013003
v 0.069742 -0.035738 -0.012997
v 0.069742 -0.035736 0.013003
v 0.059917 -0.005637 -0.020489
v 0.062860 -0.006099 -0.018001
v 0.065827 -0.006386 -0.015501
v 0.083695 -0.004333 0.011000
v 0.083695 -0.004336 -0.011000
v 0.078937 -0.005528 0.011000
v 0.069180 -0.006494 0.011000
v 0.074082 -0.006251 0.011000
v 0.064281 -0.006256 0.011000
v 0.064281 -0.006258 -0.011000
v 0.069180 -0.006496 -0.011000
v 0.074082 -0.006253 -0.011000
v 0.078937 -0.005530 -0.011000
v 0.082386 -0.000028 0.010999
v 0.082386 -0.000030 -0.011001
v 0.064354 -0.005511 -0.011000
v 0.064354 -0.005508 0.011000
v 0.076190 0.002215 -0.009251
v 0.079649 0.003560 -0.009251
v 0.066172 -0.006003 -0.009250
v 0.079649 0.003562 0.009249
v 0.081002 -0.001496 -0.009250
v 0.072525 0.000839 -0.009251
v 0.076190 0.002217 0.009249
v 0.068713 -0.000057 -0.009250
v 0.072525 0.000841 0.009249
v 0.064819 -0.000996 -0.009250
v 0.068714 -0.000055 0.009250
v 0.066172 -0.006001 0.009250
v 0.064819 -0.000994 0.009250
v 0.081003 -0.001494 0.009250

vn 0.000006 0.000103 1.000000
vn 0.000006 0.000103 1.000000
vn 0.000006 0.000103 1.000000
vn 0.641528 -0.040220 0.766045
vn 0.641528 -0.040220 0.766045
vn 0.641528 -0.040220 0.766045
vn 0.242906 0.970050 -0.000101
vn 0.242906 0.970050 -0.000101
vn 0.242906 0.970050 -0.000101
vn 0.242906 0.970050 -0.000101
vn 0.242906 0.970050 -0.000101
vn 0.242906 0.970050 -0.000101
vn 0.242906 0.970050 -0.000101
vn 0.242906 0.970050 -0.000101
vn 0.242906 0.970050 -0.000101
vn 0.000006 0.000103 1.000000
vn 0.000006 0.000103 1.000000
vn 0.000006 0.000103 1.000000
vn 0.171731 -0.985144 0.000100
vn 0.171731 -0.985144 0.000100
vn 0.171731 -0.985144 0.000100
vn 0.171731 -0.985144 0.000100
vn 0.171731 -0.985144 0.000100
vn 0.171731 -0.985144 0.000100
vn 0.171730 -0.985144 0.000100
vn 0.171730 -0.985144 0.000100
vn 0.171730 -0.985144 0.000100
vn 0.641528 -0.040220 0.766044
vn 0.641528 -0.040220 0.766044
vn 0.641528 -0.040220 0.766044
vn 0.641528 -0.040220 0.766044
vn 0.641528 -0.040220 0.766044
vn 0.641528 -0.040220 0.766044
vn 0.641528 -0.040220 0.766045
vn 0.641528 -0.040220 0.766045
vn 0.641528 -0.040220 0.766045
vn 0.641529 -0.040220 0.766044
vn 0.641528 -0.040220 0.766044
vn 0.641529 -0.040220 0.766044
vn 0.000007 0.000103 1.000000
vn 0.000007 0.000103 1.000000
vn 0.000007 0.000103 1.000000
vn 0.037229 -0.999307 0.000102
vn 0.037229 -0.999307 0.000102
vn 0.037229 -0.999307 0.000102
vn 0.171731 -0.985144 0.000100
vn 0.171731 -0.985144 0.000100
vn 0.171731 -0.985144 0.000100
vn 0.000007 0.000103 1.000000
vn 0.000007 0.000103 1.000000
vn 0.000007 0.000103 1.000000
vn -0.231225 -0.972900 0.000101
vn -0.231225 -0.972900 0.000101
vn -0.231225 -0.972900 0.000101
vn 0.037229 -0.999307 0.000102
vn 0.037229 -0.999307 0.000102
vn 0.037229 -0.999307 0.000102
vn 0.000006 0.000103 1.000000
vn 0.000006 0.000103 1.000000
vn 0.000006 0.000103 1.000000
vn -0.482772 -0.875746 0.000093
vn -0.482772 -0.875746 0.000093
vn -0.482772 -0.875746 0.000093
vn -0.231225 -0.972900 0.000101
vn -0.231225 -0.972900 0.000101
vn -0.231225 -0.972900 0.000101
vn 0.000007 0.000103 1.000000
vn 0.000007 0.000103 1.000000
vn 0.000007 0.000103 1.000000
vn -0.699282 -0.714846 0.000078
vn -0.699282 -0.714846 0.000078
vn -0.699282 -0.714846 0.000078
vn -0.482772 -0.875746 0.000093
vn -0.482772 -0.875746 0.000093
vn -0.482772 -0.875746 0.000093
vn 0.000006 0.000103 1.000000
vn 0.000006 0.000103 1.000000
vn 0.000006 0.000103 1.000000
vn -0.821529 -0.570166 0.000064
vn -0.821529 -0.570166 0.000064
vn -0.821529 -0.570166 0.000064
vn -0.699282 -0.714846 0.000078
vn -0.699282 -0.714846 0.000078
vn -0.699282 -0.714846 0.000078
vn 0.000006 0.000103 1.000000
vn 0.000006 0.000103 1.000000
vn 0.000006 0.000103 1.000000
vn -0.878530 -0.477688 0.000055
vn -0.878530 -0.477688 0.000055
vn -0.878530 -0.477688 0.000055
vn 0.000006 0.000103 1.000000
vn 0.000006 0.000103 1.000000
vn 0.000006 0.000103 1.000000
vn -0.821529 -0.570166 0.000064
vn -0.821529 -0.570166 0.000064
vn -0.821529 -0.570166 0.000064
vn 0.000006 0.000103 1.000000
vn 0.000006 0.000103 1.000000
vn 0.000006 0.000103 1.000000
vn -0.925162 -0.379572 0.000045
vn -0.925162 -0.379572 0.000045
vn -0.925162 -0.379572 0.000045
vn 0.000007 0.000103 1.000000
vn 0.000007 0.000103 1.000000
vn 0.000007 0.000103 1.000000
vn -0.878530 -0.477688 0.000055
vn -0.878530 -0.477688 0.000055
vn -0.878530 -0.477688 0.000055
vn 0.000006 0.000103 1.000000
vn 0.000006 0.000103 1.000000
vn 0.000006 0.000103 1.000000
vn -0.960878 -0.276972 0.000035
vn -0.960878 -0.276972 0.000035
vn -0.960878 -0.276972 0.000035
vn 0.000006 0.000103 1.000000
vn 0.000006 0.000103 1.000000
vn 0.000006 0.000103 1.000000
vn -0.925162 -0.379572 0.000045
vn -0.925162 -0.379572 0.000045
vn -0.925162 -0.379572 0.000045
vn 0.000007 0.000103 1.000000
vn 0.000007 0.000103 1.000000
vn 0.000007 0.000103 1.000000
vn -0.985253 -0.171104 0.000024
vn -0.985253 -0.171104 0.000024
vn -0.985253 -0.171104 0.000024
vn 0.000006 0.000103 1.000000
vn 0.000006 0.000103 1.000000
vn 0.000006 0.000103 1.000000
vn -0.960878 -0.276972 0.000035
vn -0.960878 -0.276972 0.000035
vn -0.960878 -0.276972 0.000035
vn 0.000008 0.000103 1.000000
vn 0.000008 0.000103 1.000000
vn 0.000008 0.000103 1.000000
vn -0.998000 -0.063220 0.000013
vn -0.998000 -0.063220 0.000013
vn -0.998000 -0.063220 0.000013
vn 0.000007 0.000103 1.000000
vn 0.000007 0.000103 1.000000
vn 0.000007 0.000103 1.000000
vn -0.985253 -0.171104 0.000024
vn -0.985253 -0.171104 0.000024
vn -0.985253 -0.171104 0.000024
vn 0.000008 0.000103 1.000000
vn 0.000008 0.000103 1.000000
vn 0.000008 0.000103 1.000000
vn -0.998968 0.045409 0.000002
vn -0.998968 0.045409 0.000002
vn -0.998968 0.045409 0.000002
vn -0.998000 -0.063220 0.000013
vn -0.998000 -0.063220 0.000013
vn -0.998000 -0.063220 0.000013
vn -0.970668 0.240426 -0.000018
vn -0.970668 0.240426 -0.000018
vn -0.970668 0.240426 -0.000018
vn -0.998968 0.045409 0.000002
vn -0.998968 0.045409 0.000002
vn -0.998968 0.045409 0.000002
vn -0.863378 0.504557 -0.000046
vn -0.863378 0.504557 -0.000046
vn -0.863378 0.504557 -0.000046
vn -0.970668 0.240426 -0.000018
vn -0.970668 0.240426 -0.000018
vn -0.970668 0.240426 -0.000018
vn -0.685917 0.727679 -0.000070
vn -0.685917 0.727679 -0.000070
vn -0.685917 0.727679 -0.000070
vn -0.863378 0.504557 -0.000046
vn -0.863378 0.504557 -0.000046
vn -0.863378 0.504557 -0.000046
vn -0.452707 0.891659 -0.000089
vn -0.452707 0.891659 -0.000089
vn -0.452707 0.891659 -0.000089
vn -0.685917 0.727679 -0.000070
vn -0.685917 0.727679 -0.000070
vn -0.685917 0.727679 -0.000070
vn -0.182704 0.983168 -0.000100
vn -0.182704 0.983168 -0.000100
vn -0.182704 0.983168 -0.000100
vn -0.452708 0.891659 -0.000089
vn -0.452708 0.891659 -0.000089
vn -0.452708 0.891659 -0.000089
vn 0.102150 0.994769 -0.000103
vn 0.102150 0.994769 -0.000103
vn 0.102150 0.994769 -0.000103
vn -0.182704 0.983168 -0.000100
vn -0.182704 0.983168 -0.000100
vn -0.182704 0.983168 -0.000100
vn 0.102150 0.994769 -0.000103
vn 0.102150 0.994769 -0.000103
vn 0.102150 0.994769 -0.000103
vn -0.000006 -0.000103 -1.000000
vn -0.000006 -0.000103 -1.000000
vn -0.000006 -0.000103 -1.000000
vn -0.000006 -0.000103 -1.000000
vn -0.000006 -0.000103 -1.000000
vn -0.000006 -0.000103 -1.000000
vn -0.000007 -0.000103 -1.000000
vn -0.000007 -0.000103 -1.000000
vn -0.000007 -0.000103 -1.000000
vn -0.000006 -0.000103 -1.000000
vn -0.000006 -0.000103 -1.000000
vn -0.000006 -0.000103 -1.000000
vn -0.000007 -0.000103 -1.000000
vn -0.000007 -0.000103 -1.000000
vn -0.000007 -0.000103 -1.000000
vn -0.000007 -0.000103 -1.000000
vn -0.000007 -0.000103 -1.000000
vn -0.000007 -0.000103 -1.000000
vn -0.000006 -0.000103 -1.000000
vn -0.000006 -0.000103 -1.000000
vn -0.000006 -0.000103 -1.000000
vn 0.641518 -0.040377 -0.766044
vn 0.641518 -0.040377 -0.766044
vn 0.641518 -0.040377 -0.766044
vn 0.641518 -0.040378 -0.766045
vn 0.641518 -0.040378 -0.766044
vn 0.641518 -0.040378 -0.766045
vn 0.242906 0.970050 -0.000101
vn 0.242906 0.970050 -0.000101
vn 0.242906 0.970050 -0.000101
vn -0.000006 -0.000103 -1.000000
vn -0.000006 -0.000103 -1.000000
vn -0.000006 -0.000103 -1.000000
vn -0.000006 -0.000103 -1.000000
vn -0.000006 -0.000103 -1.000000
vn -0.000006 -0.000103 -1.000000
vn -0.000007 -0.000103 -1.000000
vn -0.000007 -0.000103 -1.000000
vn -0.000007 -0.000103 -1.000000
vn -0.000006 -0.000103 -1.000000
vn -0.000006 -0.000103 -1.000000
vn -0.000006 -0.000103 -1.000000
vn -0.000006 -0.000103 -1.000000
vn -0.000006 -0.000103 -1.000000
vn -0.000006 -0.000103 -1.000000
vn -0.000006 -0.000103 -1.000000
vn -0.000006 -0.000103 -1.000000
vn -0.000006 -0.000103 -1.000000
vn -0.000006 -0.000103 -1.000000
vn -0.000006 -0.000103 -1.000000
vn -0.000006 -0.000103 -1.000000
vn -0.000007 -0.000103 -1.000000
vn -0.000007 -0.000103 -1.000000
vn -0.000007 -0.000103 -1.000000
vn -0.000007 -0.000103 -1.000000
vn -0.000007 -0.000103 -1.000000
vn -0.000007 -0.000103 -1.000000
vn -0.000008 -0.000103 -1.000000
vn -0.000008 -0.000103 -1.000000
vn -0.000008 -0.000103 -1.000000
vn -0.000008 -0.000103 -1.000000
vn -0.000008 -0.000103 -1.000000
vn -0.000008 -0.000103 -1.000000
vn -0.000006 -0.000104 -1.000000
vn -0.000006 -0.000104 -1.000000
vn -0.000006 -0.000104 -1.000000
vn -0.215734 0.976452 -0.000099
vn -0.215734 0.976452 -0.000099
vn -0.215734 0.976452 -0.000099
vn -0.000006 -0.000103 -1.000000
vn -0.000006 -0.000103 -1.000000
vn -0.000006 -0.000103 -1.000000
vn -0.000006 -0.000103 -1.000000
vn -0.000006 -0.000103 -1.000000
vn -0.000006 -0.000103 -1.000000
vn -0.000006 -0.000103 -1.000000
vn -0.000006 -0.000103 -1.000000
vn -0.000006 -0.000103 -1.000000
vn -0.215734 0.976452 -0.000099
vn -0.215734 0.976452 -0.000099
vn -0.215734 0.976452 -0.000099
vn -0.360881 0.932612 -0.000094
vn -0.360881 0.932612 -0.000094
vn -0.360881 0.932612 -0.000094
vn 0.192257 0.981345 -0.000102
vn 0.192257 0.981345 -0.000102
vn 0.192257 0.981345 -0.000102
vn 0.192257 0.981345 -0.000102
vn 0.192257 0.981345 -0.000102
vn 0.192257 0.981345 -0.000102
vn 0.568248 0.822857 -0.000088
vn 0.568248 0.822857 -0.000088
vn 0.568248 0.822857 -0.000088
vn 0.568248 0.822857 -0.000088
vn 0.568248 0.822857 -0.000088
vn 0.568248 0.822857 -0.000088
vn 0.849711 0.527249 -0.000060
vn 0.849711 0.527249 -0.000060
vn 0.849711 0.527249 -0.000060
vn 0.849709 0.527253 -0.000060
vn 0.849709 0.527253 -0.000060
vn 0.849709 0.527253 -0.000060
vn 0.989586 0.143945 -0.000021
vn 0.989586 0.143945 -0.000021
vn 0.989586 0.143945 -0.000021
vn -0.000006 -0.000102 -1.000000
vn -0.000006 -0.000102 -1.000000
vn -0.000006 -0.000102 -1.000000
vn 0.989586 0.143945 -0.000021
vn 0.989586 0.143945 -0.000021
vn 0.989586 0.143945 -0.000021
vn 0.964714 -0.263298 0.000021
vn 0.964714 -0.263298 0.000021
vn 0.964714 -0.263298 0.000021
vn -0.000006 -0.000103 -1.000000
vn -0.000006 -0.000103 -1.000000
vn -0.000006 -0.000103 -1.000000
vn 0.964713 -0.263302 0.000021
vn 0.964713 -0.263302 0.000021
vn 0.964713 -0.263302 0.000021
vn -0.000006 -0.000102 -1.000000
vn -0.000006 -0.000102 -1.000000
vn -0.000006 -0.000102 -1.000000
vn 0.890689 -0.454613 0.000041
vn 0.890689 -0.454613 0.000041
vn 0.890689 -0.454613 0.000041
vn -0.000006 -0.000103 -1.000000
vn -0.000006 -0.000103 -1.000000
vn -0.000006 -0.000103 -1.000000
vn -0.000006 -0.000101 -1.000000
vn -0.000006 -0.000101 -1.000000
vn -0.000006 -0.000101 -1.000000
vn -0.000006 -0.000103 -1.000000
vn -0.000006 -0.000103 -1.000000
vn -0.000006 -0.000103 -1.000000
vn 0.000006 0.000103 1.000000
vn 0.000006 0.000103 1.000000
vn 0.000006 0.000103 1.000000
vn 0.890689 -0.454612 0.000041
vn 0.890689 -0.454612 0.000041
vn 0.890689 -0.454612 0.000041
vn 0.000006 0.000103 1.000000
vn 0.000006 0.000103 1.000000
vn 0.000006 0.000103 1.000000
vn 0.000006 0.000101 1.000000
vn 0.000006 0.000101 1.000000
vn 0.000006 0.000101 1.000000
vn 0.000006 0.000102 1.000000
vn 0.000006 0.000102 1.000000
vn 0.000006 0.000102 1.000000
vn 0.000006 0.000102 1.000000
vn 0.000006 0.000102 1.000000
vn 0.000006 0.000102 1.000000
vn 0.000006 0.000103 1.000000
vn 0.000006 0.000103 1.000000
vn 0.000006 0.000103 1.000000
vn 0.000006 0.000103 1.000000
vn 0.000006 0.000103 1.000000
vn 0.000006 0.000103 1.000000
vn 0.000006 0.000103 1.000000
vn 0.000006 0.000103 1.000000
vn 0.000006 0.000103 1.000000
vn 0.000006 0.000103 1.000000
vn 0.000006 0.000103 1.000000
vn 0.000006 0.000103 1.000000
vn 0.000006 0.000104 1.000000
vn 0.000006 0.000104 1.000000
vn 0.000006 0.000104 1.000000
vn -0.360881 0.932612 -0.000093
vn -0.360882 0.932612 -0.000093
vn -0.360881 0.932612 -0.000093
vn 0.852973 -0.521955 0.000048
vn 0.852973 -0.521955 0.000048
vn 0.852973 -0.521955 0.000048
vn 0.852972 -0.521956 0.000048
vn 0.852972 -0.521956 0.000048
vn 0.852972 -0.521956 0.000048
vn -0.000007 -0.000103 -1.000000
vn -0.000007 -0.000103 -1.000000
vn -0.000007 -0.000103 -1.000000
vn 0.000006 0.000103 1.000000
vn 0.000006 0.000103 1.000000
vn 0.000006 0.000103 1.000000
vn 0.000006 0.000103 1.000000
vn 0.000006 0.000103 1.000000
vn 0.000006 0.000103 1.000000
vn 0.762590 -0.646882 0.000061
vn 0.762590 -0.646882 0.000061
vn 0.762590 -0.646882 0.000061
vn -0.000006 -0.000103 -1.000000
vn -0.000006 -0.000103 -1.000000
vn -0.000006 -0.000103 -1.000000
vn 0.762590 -0.646882 0.000061
vn 0.762590 -0.646882 0.000061
vn 0.762590 -0.646882 0.000061
vn 0.654027 -0.756471 0.000073
vn 0.654027 -0.756472 0.000073
vn 0.654027 -0.756472 0.000073
vn -0.000006 -0.000103 -1.000000
vn -0.000006 -0.000103 -1.000000
vn -0.000006 -0.000103 -1.000000
vn 0.654026 -0.756472 0.000073
vn 0.654026 -0.756472 0.000073
vn 0.654026 -0.756472 0.000073
vn 0.529957 -0.848024 0.000084
vn 0.529957 -0.848024 0.000084
vn 0.529957 -0.848024 0.000084
vn -0.000006 -0.000103 -1.000000
vn -0.000006 -0.000103 -1.000000
vn -0.000006 -0.000103 -1.000000
vn 0.529957 -0.848025 0.000084
vn 0.529957 -0.848025 0.000084
vn 0.529957 -0.848025 0.000084
vn 0.393226 -0.919442 0.000092
vn 0.393226 -0.919442 0.000092
vn 0.393226 -0.919442 0.000092
vn -0.000006 -0.000103 -1.000000
vn -0.000006 -0.000103 -1.000000
vn -0.000006 -0.000103 -1.000000
vn 0.393227 -0.919442 0.000092
vn 0.393227 -0.919442 0.000092
vn 0.393227 -0.919442 0.000092
vn 0.247203 -0.968964 0.000098
vn 0.247203 -0.968964 0.000098
vn 0.247203 -0.968964 0.000098
vn -0.000007 -0.000103 -1.000000
vn -0.000007 -0.000103 -1.000000
vn -0.000007 -0.000103 -1.000000
vn 0.247202 -0.968964 0.000098
vn 0.247202 -0.968964 0.000098
vn 0.247202 -0.968964 0.000098
vn 0.171731 -0.985144 0.000100
vn 0.171731 -0.985144 0.000100
vn 0.171731 -0.985144 0.000100
vn 0.171730 -0.985144 0.000100
vn 0.171730 -0.985144 0.000100
vn 0.171730 -0.985144 0.000100
vn -0.000006 -0.000103 -1.000000
vn -0.000006 -0.000103 -1.000000
vn -0.000006 -0.000103 -1.000000
vn 0.000006 0.000105 1.000000
vn 0.000006 0.000105 1.000000
vn 0.000006 0.000105 1.000000
vn 0.000006 0.000103 1.000000
vn 0.000006 0.000103 1.000000
vn 0.000006 0.000103 1.000000
vn 0.000006 0.000103 1.000000
vn 0.000006 0.000103 1.000000
vn 0.000006 0.000103 1.000000
vn 0.000007 0.000102 1.000000
vn 0.000007 0.000102 1.000000
vn 0.000007 0.000102 1.000000
vn 0.000006 0.000103 1.000000
vn 0.000006 0.000103 1.000000
vn 0.000006 0.000103 1.000000
vn 0.641529 -0.040220 0.766044
vn 0.641529 -0.040220 0.766044
vn 0.641529 -0.040220 0.766044
vn 0.641518 -0.040378 -0.766045
vn 0.641518 -0.040378 -0.766045
vn 0.641518 -0.040378 -0.766045
vn 0.641518 -0.040378 -0.766044
vn 0.641518 -0.040378 -0.766044
vn 0.641518 -0.040378 -0.766044
vn 0.641518 -0.040378 -0.766044
vn 0.641518 -0.040378 -0.766044
vn 0.641518 -0.040378 -0.766044
vn 0.641518 -0.040378 -0.766044
vn 0.641518 -0.040378 -0.766044
vn 0.641518 -0.040378 -0.766044
vn 0.213939 0.976847 -0.000102
vn 0.213939 0.976847 -0.000102
vn 0.213939 0.976847 -0.000102
vn 0.213938 0.976847 -0.000102
vn 0.213938 0.976847 -0.000102
vn 0.213938 0.976847 -0.000102
vn -0.258692 0.965702 -0.022317
vn -0.258692 0.965702 -0.022317
vn -0.258692 0.965702 -0.022317
vn -0.300574 0.953759 -0.000096
vn -0.300574 0.953759 -0.000096
vn -0.300574 0.953759 -0.000096
vn -0.300573 0.953759 -0.000096
vn -0.300573 0.953759 -0.000096
vn -0.300573 0.953759 -0.000096
vn -0.153607 0.988041 -0.013417
vn -0.153607 0.988041 -0.013417
vn -0.153607 0.988041 -0.013417
vn -0.243487 0.969830 0.011962
vn -0.243487 0.969830 0.011962
vn -0.243487 0.969830 0.011962
vn -0.046752 0.998862 -0.009416
vn -0.046752 0.998862 -0.009416
vn -0.046752 0.998862 -0.009416
vn -0.049587 0.998767 -0.002328
vn -0.049587 0.998767 -0.002328
vn -0.049587 0.998767 -0.002328
vn -0.147273 0.989094 0.002052
vn -0.147273 0.989094 0.002052
vn -0.147273 0.989094 0.002052
vn 0.046937 0.998826 0.012012
vn 0.046937 0.998826 0.012012
vn 0.046937 0.998826 0.012012
vn 0.048541 0.998786 0.008378
vn 0.048541 0.998786 0.008378
vn 0.048541 0.998786 0.008378
vn 0.093103 0.995649 -0.003935
vn 0.093103 0.995649 -0.003935
vn 0.093103 0.995649 -0.003935
vn 0.155346 0.987860 -0.000102
vn 0.155346 0.987860 -0.000102
vn 0.155346 0.987860 -0.000102
vn 0.155346 0.987860 -0.000102
vn 0.155346 0.987860 -0.000102
vn 0.155346 0.987860 -0.000102
vn 0.111772 0.993734 -0.000103
vn 0.111772 0.993734 -0.000103
vn 0.111772 0.993734 -0.000103
vn 0.093103 0.995649 0.003729
vn 0.093103 0.995649 0.003729
vn 0.093103 0.995649 0.003729
vn 0.111773 0.993734 -0.000103
vn 0.111773 0.993734 -0.000103
vn 0.111773 0.993734 -0.000103
vn 0.043030 0.999045 -0.007554
vn 0.043030 0.999045 -0.007554
vn 0.043030 0.999045 -0.007554
vn 0.048539 0.998753 -0.011666
vn 0.048539 0.998753 -0.011666
vn 0.048539 0.998753 -0.011666
vn -0.046754 0.998904 0.002250
vn -0.046754 0.998904 0.002250
vn -0.046754 0.998904 0.002250
vn -0.049585 0.998722 0.009740
vn -0.049585 0.998722 0.009740
vn -0.049585 0.998722 0.009740
vn -0.153606 0.988044 0.013216
vn -0.153606 0.988044 0.013216
vn -0.153606 0.988044 0.013216
vn -0.147273 0.989093 -0.002253
vn -0.147273 0.989093 -0.002253
vn -0.147273 0.989093 -0.002253
vn -0.258692 0.965707 0.022122
vn -0.258692 0.965707 0.022122
vn -0.258692 0.965707 0.022122
vn -0.243488 0.969828 -0.012159
vn -0.243488 0.969828 -0.012159
vn -0.243488 0.969828 -0.012159
vn 0.956786 0.290795 -0.000036
vn 0.956786 0.290795 -0.000036
vn 0.956786 0.290795 -0.000036
vn 0.000006 0.000103 1.000000
vn 0.000006 0.000103 1.000000
vn 0.000006 0.000103 1.000000
vn -0.000006 -0.000103 -1.000000
vn -0.000006 -0.000103 -1.000000
vn -0.000006 -0.000103 -1.000000
vn 0.956786 0.290795 -0.000036
vn 0.956786 0.290795 -0.000036
vn 0.956786 0.290795 -0.000036
vn -0.000006 -0.000103 -1.000000
vn -0.000006 -0.000103 -1.000000
vn -0.000006 -0.000103 -1.000000
vn -0.000006 -0.000103 -1.000000
vn -0.000006 -0.000103 -1.000000
vn -0.000006 -0.000103 -1.000000
vn -0.000007 -0.000103 -1.000000
vn -0.000007 -0.000103 -1.000000
vn -0.000007 -0.000103 -1.000000
vn -0.000006 -0.000103 -1.000000
vn -0.000006 -0.000103 -1.000000
vn -0.000006 -0.000103 -1.000000
vn -0.995237 0.097482 -0.000004
vn -0.995237 0.097482 -0.000004
vn -0.995237 0.097482 -0.000004
vn 0.000007 0.000103 1.000000
vn 0.000007 0.000103 1.000000
vn 0.000007 0.000103 1.000000
vn -0.995237 0.097482 -0.000004
vn -0.995237 0.097482 -0.000004
vn -0.995237 0.097482 -0.000004
vn 0.000006 0.000103 1.000000
vn 0.000006 0.000103 1.000000
vn 0.000006 0.000103 1.000000
vn 0.000006 0.000102 1.000000
vn 0.000006 0.000102 1.000000
vn 0.000006 0.000102 1.000000
vn 0.000006 0.000103 1.000000
vn 0.000006 0.000103 1.000000
vn 0.000006 0.000103 1.000000
vn -0.290795 0.956785 -0.000096
vn -0.290795 0.956785 -0.000096
vn -0.290795 0.956785 -0.000096
vn -0.290795 0.956785 -0.000096
vn -0.290795 0.956785 -0.000096
vn -0.290795 0.956785 -0.000096
vn -0.000032 -0.000073 -1.000000
vn -0.000032 -0.000073 -1.000000
vn -0.000032 -0.000073 -1.000000
vn -0.362379 0.932031 -0.000093
vn -0.362379 0.932031 -0.000093
vn -0.362379 0.932031 -0.000093
vn -0.000003 -0.000115 -1.000000
vn -0.000003 -0.000115 -1.000000
vn -0.000003 -0.000115 -1.000000
vn 0.965987 0.258589 -0.000033
vn 0.965987 0.258589 -0.000033
vn 0.965987 0.258589 -0.000033
vn -0.000005 -0.000107 -1.000000
vn -0.000005 -0.000107 -1.000000
vn -0.000005 -0.000107 -1.000000
vn -0.351544 0.936171 -0.000094
vn -0.351544 0.936171 -0.000094
vn -0.351544 0.936171 -0.000094
vn -0.362379 0.932031 -0.000093
vn -0.362379 0.932031 -0.000093
vn -0.362379 0.932031 -0.000093
vn -0.000006 -0.000106 -1.000000
vn -0.000006 -0.000106 -1.000000
vn -0.000006 -0.000106 -1.000000
vn -0.228849 0.973462 -0.000098
vn -0.228849 0.973462 -0.000098
vn -0.228849 0.973462 -0.000098
vn -0.351544 0.936171 -0.000094
vn -0.351544 0.936171 -0.000094
vn -0.351544 0.936171 -0.000094
vn 0.000010 -0.000113 -1.000000
vn 0.000010 -0.000113 -1.000000
vn 0.000010 -0.000113 -1.000000
vn -0.234390 0.972143 -0.000098
vn -0.234390 0.972143 -0.000098
vn -0.234390 0.972143 -0.000098
vn -0.228849 0.973462 -0.000098
vn -0.228849 0.973462 -0.000098
vn -0.228849 0.973462 -0.000098
vn -0.965354 -0.260944 0.000033
vn -0.965354 -0.260944 0.000033
vn -0.965354 -0.260944 0.000033
vn -0.965354 -0.260944 0.000033
vn -0.965354 -0.260944 0.000033
vn -0.965354 -0.260944 0.000033
vn -0.234390 0.972143 -0.000098
vn -0.234390 0.972143 -0.000098
vn -0.234390 0.972143 -0.000098
vn 0.290795 -0.956785 0.000096
vn 0.290795 -0.956785 0.000096
vn 0.290795 -0.956785 0.000096
vn 0.290795 -0.956785 0.000096
vn 0.290795 -0.956785 0.000096
vn 0.290795 -0.956785 0.000096
vn 0.965987 0.258589 -0.000033
vn 0.965987 0.258589 -0.000033
vn 0.965987 0.258589 -0.000033
vn 0.000015 0.000118 1.000000
vn 0.000015 0.000118 1.000000
vn 0.000015 0.000118 1.000000
vn 0.000002 0.000116 1.000000
vn 0.000002 0.000116 1.000000
vn 0.000002 0.000116 1.000000
vn 0.000001 0.000067 1.000000
vn 0.000001 0.000067 1.000000
vn 0.000001 0.000067 1.000000
vn 0.000005 0.000107 1.000000
vn 0.000005 0.000107 1.000000
vn 0.000005 0.000107 1.000000
vn 0.000005 0.000106 1.000000
vn 0.000005 0.000106 1.000000
vn 0.000005 0.000106 1.000000

f 1//1 2//2 3//3
f 1//4 4//5 2//6
f 3//7 2//8 5//9
f 5//10 2//11 6//12
f 2//13 4//14 6//15
f 7//16 1//17 3//18
f 8//19 1//20 7//21
f 8//22 9//23 1//24
f 9//25 10//26 1//27
f 1//28 10//29 11//30
f 1//31 12//32 4//33
f 1//34 11//35 13//36
f 1//37 13//38 12//39
f 14//40 7//41 3//42
f 15//43 7//44 14//45
f 15//46 8//47 7//48
f 16//49 14//50 3//51
f 17//52 14//53 16//54
f 17//55 15//56 14//57
f 18//58 16//59 3//60
f 19//61 16//62 18//63
f 19//64 17//65 16//66
f 20//67 18//68 3//69
f 21//70 18//71 20//72
f 21//73 19//74 18//75
f 22//76 20//77 3//78
f 23//79 20//80 22//81
f 23//82 21//83 20//84
f 24//85 22//86 25//87
f 26//88 22//89 24//90
f 22//91 3//92 25//93
f 26//94 23//95 22//96
f 24//97 27//98 28//99
f 29//100 24//101 28//102
f 24//103 25//104 27//105
f 29//106 26//107 24//108
f 28//109 30//110 31//111
f 32//112 28//113 31//114
f 28//115 27//116 30//117
f 32//118 29//119 28//120
f 31//121 33//122 34//123
f 35//124 31//125 34//126
f 31//127 30//128 33//129
f 35//130 32//131 31//132
f 34//133 36//134 37//135
f 38//136 34//137 37//138
f 34//139 33//140 36//141
f 38//142 35//143 34//144
f 37//145 36//146 39//147
f 37//148 39//149 40//150
f 40//151 38//152 37//153
f 39//154 36//155 41//156
f 40//157 39//158 41//159
f 36//160 33//161 42//162
f 41//163 36//164 42//165
f 33//166 30//167 43//168
f 42//169 33//170 43//171
f 30//172 27//173 44//174
f 43//175 30//176 44//177
f 27//178 25//179 45//180
f 44//181 27//182 45//183
f 25//184 3//185 46//186
f 45//187 25//188 46//189
f 46//190 3//191 5//192
f 5//193 6//194 26//195
f 26//196 6//197 23//198
f 23//199 6//200 21//201
f 21//202 6//203 19//204
f 19//205 6//206 17//207
f 17//208 6//209 15//210
f 15//211 6//212 8//213
f 6//214 9//215 8//216
f 47//217 9//218 6//219
f 6//220 4//221 47//222
f 46//223 5//224 29//225
f 29//226 5//227 26//228
f 45//229 46//230 29//231
f 44//232 45//233 32//234
f 32//235 45//236 29//237
f 43//238 44//239 35//240
f 35//241 44//242 32//243
f 42//244 43//245 38//246
f 38//247 43//248 35//249
f 41//250 42//251 40//252
f 40//253 42//254 38//255
f 48//256 49//257 50//258
f 50//259 51//260 48//261
f 49//262 52//263 50//264
f 52//265 53//266 50//267
f 50//268 53//269 54//270
f 55//271 51//272 50//273
f 54//274 55//275 50//276
f 48//277 56//278 49//279
f 51//280 56//281 48//282
f 49//283 57//284 52//285
f 56//286 57//287 49//288
f 52//289 58//290 53//291
f 57//292 58//293 52//294
f 53//295 59//296 60//297
f 53//298 60//299 54//300
f 58//301 59//302 53//303
f 61//304 60//305 62//306
f 63//307 60//308 61//309
f 60//310 59//311 62//312
f 54//313 60//314 63//315
f 61//316 62//317 64//318
f 65//319 61//320 64//321
f 66//322 61//323 65//324
f 63//325 61//326 66//327
f 62//328 59//329 67//330
f 64//331 62//332 68//333
f 68//334 62//335 69//336
f 69//337 62//338 67//339
f 70//340 59//341 58//342
f 71//343 59//344 70//345
f 67//346 59//347 71//348
f 70//349 58//350 57//351
f 55//352 57//353 56//354
f 70//355 57//356 55//357
f 55//358 56//359 51//360
f 70//361 55//362 54//363
f 64//364 68//365 72//366
f 73//367 64//368 72//369
f 65//370 64//371 73//372
f 72//373 68//374 10//375
f 10//376 68//377 69//378
f 74//379 73//380 75//381
f 65//382 73//383 74//384
f 73//385 72//386 75//387
f 76//388 74//389 77//390
f 65//391 74//392 76//393
f 74//394 75//395 77//396
f 78//397 76//398 79//399
f 65//400 76//401 78//402
f 76//403 77//404 79//405
f 80//406 78//407 81//408
f 65//409 78//410 80//411
f 78//412 79//413 81//414
f 82//415 80//416 83//417
f 65//418 80//419 82//420
f 80//421 81//422 83//423
f 82//424 83//425 10//426
f 9//427 82//428 10//429
f 65//430 82//431 9//432
f 83//433 81//434 10//435
f 81//436 79//437 10//438
f 79//439 77//440 10//441
f 77//442 75//443 10//444
f 75//445 72//446 10//447
f 10//448 69//449 11//450
f 84//451 9//452 47//453
f 85//454 9//455 84//456
f 86//457 9//458 85//459
f 86//460 65//461 9//462
f 4//463 12//464 47//465
f 47//466 12//467 84//468
f 71//469 70//470 87//471
f 88//472 70//473 54//474
f 87//475 70//476 88//477
f 67//478 71//479 89//480
f 71//481 87//482 89//483
f 69//484 67//485 90//486
f 90//487 67//488 91//489
f 67//490 89//491 91//492
f 11//493 69//494 92//495
f 69//496 90//497 92//498
f 13//499 11//500 92//501
f 12//502 13//503 84//504
f 84//505 13//506 85//507
f 13//508 92//509 85//510
f 93//511 86//512 85//513
f 85//514 92//515 93//516
f 86//517 94//518 65//519
f 93//520 94//521 86//522
f 95//523 66//524 65//525
f 94//526 95//527 65//528
f 96//529 63//530 66//531
f 95//532 96//533 66//534
f 88//535 54//536 63//537
f 96//538 88//539 63//540
f 97//541 87//542 88//543
f 89//544 87//545 97//546
f 98//547 88//548 96//549
f 97//550 88//551 98//552
f 95//553 98//554 96//555
f 94//556 98//557 95//558
f 99//559 94//560 93//561
f 99//562 98//563 94//564
f 92//565 99//566 93//567
f 92//568 90//569 100//570
f 92//571 100//572 99//573
f 90//574 91//575 100//576
f 91//577 89//578 100//579
f 89//580 97//581 100//582
f 100//583 97//584 98//585
f 100//586 98//587 99//588
f 101//589 102//590 103//591
f 101//592 104//593 102//594
f 102//595 105//596 103//597
f 104//598 105//599 102//600
f 106//601 101//602 103//603
f 106//604 107//605 101//606
f 107//607 104//608 101//609
f 108//610 106//611 103//612
f 108//613 109//614 106//615
f 109//616 107//617 106//618
f 110//619 108//620 103//621
f 110//622 111//623 108//624
f 111//625 109//626 108//627
f 103//628 112//629 110//630
f 110//631 112//632 113//633
f 113//634 111//635 110//636
f 105//637 114//638 103//639
f 103//640 114//641 112//642
f 104//643 114//644 105//645
f 107//646 114//647 104//648
f 112//649 114//650 113//651
f 113//652 114//653 111//654
f 111//655 114//656 109//657
f 109//658 114//659 107//660

